$MeshFormat
2.2 0 8
$EndMeshFormat
$Nodes
214
1 0 0 0
2 1 0 0
3 1 1 0
4 0 1 0
5 0.08333333333317333 0 0
6 0.1666666666663215 0 0
7 0.2499999999994119 0 0
8 0.3333333333325022 0 0
9 0.4166666666655926 0 0
10 0.4999999999986938 0 0
11 0.5833333333322362 0 0
12 0.6666666666657896 0 0
13 0.7499999999993426 0 0
14 0.8333333333328952 0 0
15 0.9166666666664477 0 0
16 1 0.08333333333317333 0
17 1 0.1666666666663215 0
18 1 0.2499999999994119 0
19 1 0.3333333333325022 0
20 1 0.4166666666655926 0
21 1 0.4999999999986938 0
22 1 0.5833333333322362 0
23 1 0.6666666666657896 0
24 1 0.7499999999993426 0
25 1 0.8333333333328952 0
26 1 0.9166666666664477 0
27 0.9166666666663197 1 0
28 0.833333333333102 1 0
29 0.7500000000003469 1 0
30 0.6666666666675919 1 0
31 0.5833333333348365 1 0
32 0.5000000000020592 1 0
33 0.4166666666684005 1 0
34 0.3333333333347198 1 0
35 0.2500000000010393 1 0
36 0.1666666666673595 1 0
37 0.08333333333367976 1 0
38 0 0.9166666666663197 0
39 0 0.833333333333102 0
40 0 0.7500000000003469 0
41 0 0.6666666666675919 0
42 0 0.5833333333348365 0
43 0 0.5000000000020592 0
44 0 0.4166666666684005 0
45 0 0.3333333333347198 0
46 0 0.2500000000010393 0
47 0 0.1666666666673595 0
48 0 0.08333333333367976 0
49 0.5 0.5 0
50 0.7118387502342189 0.7191616553806213 0
51 0.2808383446193402 0.711838750234224 0
52 0.7191616553806386 0.2881612497657074 0
53 0.2881612497657022 0.2808383446193224 0
54 0.4999999999998557 0.7797619047615438 0
55 0.2202380952384797 0.4999999999998007 0
56 0.7797619047615546 0.5000000000000953 0
57 0.5000000000001501 0.2202380952384692 0
58 0.8267156048323288 0.8433187416920211 0
59 0.1566812583079685 0.8267156048323233 0
60 0.8433187416920847 0.1732843951676507 0
61 0.1732843951676563 0.1566812583079051 0
62 0.5774108099962696 0.6433127580718629 0
63 0.3566708516804672 0.5791070808954371 0
64 0.6403446229624776 0.4222439314307641 0
65 0.42144052109597 0.346873648260522 0
66 0.6310797711102104 0.8423344615732691 0
67 0.1576655384267164 0.6310797711101482 0
68 0.8423344615732784 0.3689202288897886 0
69 0.3689202288898505 0.157665538426707 0
70 0.8472362583340358 0.6411534508954856 0
71 0.3588465491045177 0.84723625833399 0
72 0.6411534508955046 0.1527637416659546 0
73 0.1527637416660005 0.3588465491044984 0
74 0.4377809271701982 0.6707584944632716 0
75 0.6640478029356318 0.5625260322737867 0
76 0.3292312026769967 0.4377689295832161 0
77 0.5587110398281026 0.3346294291541174 0
78 0.4671636468775078 0.8898809523811004 0
79 0.1101190476189031 0.4671636468774991 0
80 0.889880952380986 0.532836353122503 0
81 0.5328363531225118 0.1101190476190174 0
82 0.5862927318888213 0.7534649451769294 0
83 0.2465327133591049 0.5865350563029644 0
84 0.7530409258755917 0.4136579454578551 0
85 0.4135431725529078 0.2451331128705384 0
86 0.7394558286950005 0.8913535141106486 0
87 0.10864648588937 0.7394558286949607 0
88 0.8913535141106638 0.2605441713049925 0
89 0.2605441713050322 0.1086464858893547 0
90 0.8913535141106148 0.7394558286950719 0
91 0.7394558286950995 0.108646485889388 0
92 0.2605441713049232 0.8913535141105878 0
93 0.1086464858894148 0.2605441713048953 0
94 0.7462353995838735 0.6060237238485946 0
95 0.6053878917743296 0.2535441390977267 0
96 0.3940274360587087 0.7473538481718276 0
97 0.252644434684859 0.3940254364608625 0
98 0.8897139481884887 0.892481137665093 0
99 0.892481137665142 0.1102860518114195 0
100 0.1075188623349352 0.8897139481884775 0
101 0.110286051811431 0.1075188623348863 0
102 0.5625103086305071 0.9056312570463508 0
103 0.09436874295361569 0.5625103086304675 0
104 0.9056312570462898 0.4374896913695363 0
105 0.4374896913695758 0.094368742953677 0
106 0.7508983994060227 0.7955982646177208 0
107 0.2044017353822699 0.750898399406025 0
108 0.7955982646177541 0.2491016005939265 0
109 0.2491016005939243 0.2044017353822363 0
110 0.7999360528029491 0.7222070087246488 0
111 0.2777929912753248 0.7999360528029336 0
112 0.7222070087246661 0.2000639471970203 0
113 0.200063947197036 0.2777929912753073 0
114 0.4931575506320783 0.5900378956890571 0
115 0.5762051138558775 0.5543827539480495 0
116 0.4038978722764823 0.4903224842615849 0
117 0.5498430566917586 0.4247051696788963 0
118 0.6643876360774761 0.6427632114169259 0
119 0.3593910557484407 0.6734830865976553 0
120 0.6422224709191614 0.3354747190389363 0
121 0.326584594092328 0.3579791720160484 0
122 0.8032217211975639 0.9331514297996201 0
123 0.06684857020038322 0.8032217211975559 0
124 0.9331514297996768 0.1967782788022144 0
125 0.1967782788022224 0.06684857020032647 0
126 0.9144318346258442 0.8145931860270148 0
127 0.8145931860270414 0.08556816537414424 0
128 0.1854068139731018 0.9144318346258322 0
129 0.08556816537415636 0.1854068139730751 0
130 0.9378951786090566 0.6094896095252245 0
131 0.3905103904751468 0.937895178609067 0
132 0.6094896095252309 0.06210482139094353 0
133 0.06210482139093317 0.3905103904751402 0
134 0.5156737572590373 0.7007425782731062 0
135 0.6990567755215539 0.4912120449838414 0
136 0.3004831748327051 0.5135351442377849 0
137 0.4884458149907872 0.2974077757080853 0
138 0.6560239924999254 0.9188989838336514 0
139 0.08110101616634995 0.656023992499897 0
140 0.918898983833659 0.343976007500143 0
141 0.3439760075001712 0.08110101616634226 0
142 0.5634027727311239 0.8267311571336408 0
143 0.1732688428663309 0.5634027727310358 0
144 0.826731157133611 0.4365972272688354 0
145 0.4365972272689229 0.1732688428663609 0
146 0.4693244067288113 0.4266422726344414 0
147 0.4458147818080662 0.8063111891115005 0
148 0.1936885246979615 0.4458144485417249 0
149 0.8061247810134911 0.5541937448431203 0
150 0.5540877728307763 0.1938384754334563 0
151 0.2239146716426473 0.6715040623621398 0
152 0.671463674959802 0.7760849381133453 0
153 0.3285089757804719 0.2236814048945414 0
154 0.7760142682298001 0.328528104597944 0
155 0.6283651686811627 0.50347515960751 0
156 0.4216080948956629 0.6046420105389106 0
157 0.3958366551986449 0.4175922426771316 0
158 0.4564752197039584 0.7386391695637188 0
159 0.739045332763221 0.5427911091898876 0
160 0.2615341799951824 0.4561676563507382 0
161 0.5413265038848291 0.259931582926371 0
162 0.3186468888440694 0.9352969902107291 0
163 0.06470300978926971 0.3186468888440586 0
164 0.9352969902107415 0.6813531111561829 0
165 0.6813531111561935 0.06470300978925723 0
166 0.497881947683394 0.3659063043620639 0
167 0.7083333333339696 0.9492088611418352 0
168 0.0507911388581631 0.7083333333339695 0
169 0.9492088611419268 0.291666666665957 0
170 0.291666666665957 0.05079113885807203 0
171 0.4431627443609525 0.5470915748296362 0
172 0.5707327854302637 0.4839244882235244 0
173 0.4582286357790397 0.9542036470453438 0
174 0.0457963529546532 0.4582286357790324 0
175 0.9542036470452855 0.5417713642214045 0
176 0.5417713642214119 0.04579635295471159 0
177 0.9444038174542796 0.9444038174543219 0
178 0.0555961825456794 0.9444038174543203 0
179 0.9444038174542132 0.05559618254566052 0
180 0.05559618254561988 0.05559618254578844 0
181 0.1554571230829317 0.6929342093611117 0
182 0.6929284397322406 0.8445428211679354 0
183 0.3070676532306896 0.1554237992617645 0
184 0.8445327254702949 0.3070703859188655 0
185 0.5077783020094121 0.8416632920868272 0
186 0.1583366506750582 0.5077782353561057 0
187 0.8416260104671865 0.4922234033208181 0
188 0.4922022089183873 0.1583666408221962 0
189 0.8370956232483375 0.7759466001653594 0
190 0.224053399834636 0.8370956232483266 0
191 0.7759466001653992 0.1629043767516535 0
192 0.1629043767516643 0.2240533998345959 0
193 0.7593183548675219 0.6749702857350453 0
194 0.6726421437639547 0.2420664624535279 0
195 0.327411420089644 0.7584466462983179 0
196 0.2415567878721493 0.3273378110032987 0
197 0.8749999999997109 0.955697753987742 0
198 0.04430224601224576 0.874999999999711 0
199 0.8787825915921548 0.04857927025080425 0
200 0.9514207297491796 0.8787825915921593 0
201 0.04857927025081061 0.1212174084079755 0
202 0.9556977539879208 0.1249999999997474 0
203 0.1212174084079707 0.9514207297491735 0
204 0.1249999999997474 0.04430224601206735 0
205 0.6450240124325551 0.7046201991026987 0
206 0.2955976728574455 0.6461540566402907 0
207 0.7042116720831095 0.3549208399600437 0
208 0.3546387329289852 0.2928763806749558 0
209 0.597780297600375 0.3792633123256786 0
210 0.6181593990217065 0.5999422428466075 0
211 0.9456841840680639 0.4841287532432269 0
212 0.4841287532432447 0.05431581593192213 0
213 0.5158712467571811 0.9456841840681871 0
214 0.05431581593179877 0.5158712467571636 0
$EndNodes
$Elements
426
1 1 2 5 1 1 5
2 1 2 5 1 5 6
3 1 2 5 1 6 7
4 1 2 5 1 7 8
5 1 2 5 1 8 9
6 1 2 5 1 9 10
7 1 2 5 1 10 11
8 1 2 5 1 11 12
9 1 2 5 1 12 13
10 1 2 5 1 13 14
11 1 2 5 1 14 15
12 1 2 5 1 15 2
13 1 2 5 2 2 16
14 1 2 5 2 16 17
15 1 2 5 2 17 18
16 1 2 5 2 18 19
17 1 2 5 2 19 20
18 1 2 5 2 20 21
19 1 2 5 2 21 22
20 1 2 5 2 22 23
21 1 2 5 2 23 24
22 1 2 5 2 24 25
23 1 2 5 2 25 26
24 1 2 5 2 26 3
25 1 2 5 3 3 27
26 1 2 5 3 27 28
27 1 2 5 3 28 29
28 1 2 5 3 29 30
29 1 2 5 3 30 31
30 1 2 5 3 31 32
31 1 2 5 3 32 33
32 1 2 5 3 33 34
33 1 2 5 3 34 35
34 1 2 5 3 35 36
35 1 2 5 3 36 37
36 1 2 5 3 37 4
37 1 2 5 4 4 38
38 1 2 5 4 38 39
39 1 2 5 4 39 40
40 1 2 5 4 40 41
41 1 2 5 4 41 42
42 1 2 5 4 42 43
43 1 2 5 4 43 44
44 1 2 5 4 44 45
45 1 2 5 4 45 46
46 1 2 5 4 46 47
47 1 2 5 4 47 48
48 1 2 5 4 48 1
49 2 2 8 7 70 80 130
50 2 2 8 7 72 81 132
51 2 2 8 7 71 78 131
52 2 2 8 7 73 79 133
53 2 2 8 7 24 126 90
54 2 2 8 7 13 127 91
55 2 2 8 7 35 128 92
56 2 2 8 7 46 129 93
57 2 2 8 7 29 167 122
58 2 2 8 7 40 168 123
59 2 2 8 7 18 169 124
60 2 2 8 7 7 170 125
61 2 2 8 7 86 122 167
62 2 2 8 7 87 123 168
63 2 2 8 7 88 124 169
64 2 2 8 7 89 125 170
65 2 2 8 7 58 86 106
66 2 2 8 7 59 87 107
67 2 2 8 7 60 88 108
68 2 2 8 7 61 89 109
69 2 2 8 7 71 147 78
70 2 2 8 7 73 148 79
71 2 2 8 7 70 149 80
72 2 2 8 7 72 150 81
73 2 2 8 7 70 90 110
74 2 2 8 7 71 92 111
75 2 2 8 7 72 91 112
76 2 2 8 7 73 93 113
77 2 2 8 7 62 134 114
78 2 2 8 7 74 114 134
79 2 2 8 7 63 136 116
80 2 2 8 7 76 116 136
81 2 2 8 7 62 82 134
82 2 2 8 7 54 134 82
83 2 2 8 7 63 83 136
84 2 2 8 7 55 136 83
85 2 2 8 7 64 84 135
86 2 2 8 7 56 135 84
87 2 2 8 7 65 85 137
88 2 2 8 7 57 137 85
89 2 2 8 7 70 164 90
90 2 2 8 7 72 165 91
91 2 2 8 7 71 162 92
92 2 2 8 7 73 163 93
93 2 2 8 7 66 142 82
94 2 2 8 7 67 143 83
95 2 2 8 7 54 82 142
96 2 2 8 7 55 83 143
97 2 2 8 7 56 84 144
98 2 2 8 7 68 144 84
99 2 2 8 7 69 145 85
100 2 2 8 7 57 85 145
101 2 2 8 7 58 122 86
102 2 2 8 7 59 123 87
103 2 2 8 7 60 124 88
104 2 2 8 7 61 125 89
105 2 2 8 7 62 205 82
106 2 2 8 7 63 206 83
107 2 2 8 7 64 207 84
108 2 2 8 7 65 208 85
109 2 2 8 7 193 50 118
110 2 2 8 7 195 51 119
111 2 2 8 7 194 52 120
112 2 2 8 7 196 53 121
113 2 2 8 7 94 193 118
114 2 2 8 7 96 195 119
115 2 2 8 7 95 194 120
116 2 2 8 7 97 196 121
117 2 2 8 7 75 94 118
118 2 2 8 7 74 96 119
119 2 2 8 7 77 95 120
120 2 2 8 7 76 97 121
121 2 2 8 7 66 82 152
122 2 2 8 7 67 83 151
123 2 2 8 7 68 84 154
124 2 2 8 7 69 85 153
125 2 2 8 7 86 138 182
126 2 2 8 7 87 139 181
127 2 2 8 7 88 140 184
128 2 2 8 7 89 141 183
129 2 2 8 7 50 110 106
130 2 2 8 7 51 111 107
131 2 2 8 7 52 112 108
132 2 2 8 7 53 113 109
133 2 2 8 7 24 90 164
134 2 2 8 7 13 91 165
135 2 2 8 7 35 92 162
136 2 2 8 7 46 93 163
137 2 2 8 7 28 29 122
138 2 2 8 7 39 40 123
139 2 2 8 7 46 47 129
140 2 2 8 7 35 36 128
141 2 2 8 7 13 14 127
142 2 2 8 7 24 25 126
143 2 2 8 7 17 18 124
144 2 2 8 7 6 7 125
145 2 2 8 7 86 167 138
146 2 2 8 7 87 168 139
147 2 2 8 7 88 169 140
148 2 2 8 7 89 170 141
149 2 2 8 7 58 98 122
150 2 2 8 7 59 100 123
151 2 2 8 7 60 99 124
152 2 2 8 7 58 126 98
153 2 2 8 7 61 101 125
154 2 2 8 7 59 128 100
155 2 2 8 7 60 127 99
156 2 2 8 7 61 129 101
157 2 2 8 7 49 115 114
158 2 2 8 7 62 114 115
159 2 2 8 7 106 110 189
160 2 2 8 7 107 111 190
161 2 2 8 7 108 112 191
162 2 2 8 7 109 113 192
163 2 2 8 7 71 96 147
164 2 2 8 7 70 94 149
165 2 2 8 7 73 97 148
166 2 2 8 7 72 95 150
167 2 2 8 7 70 130 164
168 2 2 8 7 72 132 165
169 2 2 8 7 71 131 162
170 2 2 8 7 73 133 163
171 2 2 8 7 31 102 138
172 2 2 8 7 42 103 139
173 2 2 8 7 20 104 140
174 2 2 8 7 9 105 141
175 2 2 8 7 70 193 94
176 2 2 8 7 72 194 95
177 2 2 8 7 71 195 96
178 2 2 8 7 73 196 97
179 2 2 8 7 67 181 139
180 2 2 8 7 66 182 138
181 2 2 8 7 69 183 141
182 2 2 8 7 68 184 140
183 2 2 8 7 58 106 189
184 2 2 8 7 59 107 190
185 2 2 8 7 60 108 191
186 2 2 8 7 61 109 192
187 2 2 8 7 77 161 95
188 2 2 8 7 75 159 94
189 2 2 8 7 76 160 97
190 2 2 8 7 74 158 96
191 2 2 8 7 62 118 205
192 2 2 8 7 63 119 206
193 2 2 8 7 64 120 207
194 2 2 8 7 65 121 208
195 2 2 8 7 80 175 130
196 2 2 8 7 81 176 132
197 2 2 8 7 78 173 131
198 2 2 8 7 79 174 133
199 2 2 8 7 49 116 146
200 2 2 8 7 66 138 102
201 2 2 8 7 67 139 103
202 2 2 8 7 68 140 104
203 2 2 8 7 69 141 105
204 2 2 8 7 66 102 142
205 2 2 8 7 67 103 143
206 2 2 8 7 68 104 144
207 2 2 8 7 69 105 145
208 2 2 8 7 70 110 193
209 2 2 8 7 71 111 195
210 2 2 8 7 72 112 194
211 2 2 8 7 73 113 196
212 2 2 8 7 63 116 171
213 2 2 8 7 64 172 117
214 2 2 8 7 30 31 138
215 2 2 8 7 41 42 139
216 2 2 8 7 19 20 140
217 2 2 8 7 8 9 141
218 2 2 8 7 78 185 102
219 2 2 8 7 79 186 103
220 2 2 8 7 80 187 104
221 2 2 8 7 81 188 105
222 2 2 8 7 31 213 102
223 2 2 8 7 42 214 103
224 2 2 8 7 20 211 104
225 2 2 8 7 9 212 105
226 2 2 8 7 50 106 152
227 2 2 8 7 51 107 151
228 2 2 8 7 52 108 154
229 2 2 8 7 53 109 153
230 2 2 8 7 58 189 126
231 2 2 8 7 59 190 128
232 2 2 8 7 60 191 127
233 2 2 8 7 61 192 129
234 2 2 8 7 78 102 213
235 2 2 8 7 79 103 214
236 2 2 8 7 80 104 211
237 2 2 8 7 81 105 212
238 2 2 8 7 90 126 189
239 2 2 8 7 91 127 191
240 2 2 8 7 92 128 190
241 2 2 8 7 93 129 192
242 2 2 8 7 86 182 106
243 2 2 8 7 87 181 107
244 2 2 8 7 88 184 108
245 2 2 8 7 89 183 109
246 2 2 8 7 49 146 117
247 2 2 8 7 22 23 130
248 2 2 8 7 33 34 131
249 2 2 8 7 11 12 132
250 2 2 8 7 44 45 133
251 2 2 8 7 64 155 172
252 2 2 8 7 63 171 156
253 2 2 8 7 96 158 147
254 2 2 8 7 97 160 148
255 2 2 8 7 94 159 149
256 2 2 8 7 95 161 150
257 2 2 8 7 50 193 110
258 2 2 8 7 51 195 111
259 2 2 8 7 52 194 112
260 2 2 8 7 53 196 113
261 2 2 8 7 74 119 156
262 2 2 8 7 63 156 119
263 2 2 8 7 76 121 157
264 2 2 8 7 65 157 121
265 2 2 8 7 90 189 110
266 2 2 8 7 92 190 111
267 2 2 8 7 91 191 112
268 2 2 8 7 93 192 113
269 2 2 8 7 77 117 166
270 2 2 8 7 54 147 158
271 2 2 8 7 55 148 160
272 2 2 8 7 56 149 159
273 2 2 8 7 57 150 161
274 2 2 8 7 34 35 162
275 2 2 8 7 45 46 163
276 2 2 8 7 23 24 164
277 2 2 8 7 12 13 165
278 2 2 8 7 116 157 146
279 2 2 8 7 76 157 116
280 2 2 8 7 74 156 114
281 2 2 8 7 75 115 155
282 2 2 8 7 33 131 173
283 2 2 8 7 44 133 174
284 2 2 8 7 22 130 175
285 2 2 8 7 11 132 176
286 2 2 8 7 31 32 213
287 2 2 8 7 42 43 214
288 2 2 8 7 20 21 211
289 2 2 8 7 9 10 212
290 2 2 8 7 62 115 210
291 2 2 8 7 64 117 209
292 2 2 8 7 49 171 116
293 2 2 8 7 49 117 172
294 2 2 8 7 75 210 115
295 2 2 8 7 77 209 117
296 2 2 8 7 49 114 171
297 2 2 8 7 49 172 115
298 2 2 8 7 103 186 143
299 2 2 8 7 102 185 142
300 2 2 8 7 105 188 145
301 2 2 8 7 104 187 144
302 2 2 8 7 64 135 155
303 2 2 8 7 75 155 135
304 2 2 8 7 3 27 177
305 2 2 8 7 2 179 15
306 2 2 8 7 1 180 48
307 2 2 8 7 4 38 178
308 2 2 8 7 2 16 179
309 2 2 8 7 1 5 180
310 2 2 8 7 3 177 26
311 2 2 8 7 4 178 37
312 2 2 8 7 50 152 205
313 2 2 8 7 51 151 206
314 2 2 8 7 52 154 207
315 2 2 8 7 53 153 208
316 2 2 8 7 117 146 166
317 2 2 8 7 75 118 210
318 2 2 8 7 77 120 209
319 2 2 8 7 50 205 118
320 2 2 8 7 51 206 119
321 2 2 8 7 52 207 120
322 2 2 8 7 53 208 121
323 2 2 8 7 62 210 118
324 2 2 8 7 64 209 120
325 2 2 8 7 54 158 134
326 2 2 8 7 74 134 158
327 2 2 8 7 76 136 160
328 2 2 8 7 55 160 136
329 2 2 8 7 75 135 159
330 2 2 8 7 56 159 135
331 2 2 8 7 77 137 161
332 2 2 8 7 57 161 137
333 2 2 8 7 34 162 131
334 2 2 8 7 45 163 133
335 2 2 8 7 23 164 130
336 2 2 8 7 12 165 132
337 2 2 8 7 29 30 167
338 2 2 8 7 40 41 168
339 2 2 8 7 18 19 169
340 2 2 8 7 7 8 170
341 2 2 8 7 28 122 197
342 2 2 8 7 39 123 198
343 2 2 8 7 17 124 202
344 2 2 8 7 6 125 204
345 2 2 8 7 98 197 122
346 2 2 8 7 100 198 123
347 2 2 8 7 99 202 124
348 2 2 8 7 101 204 125
349 2 2 8 7 98 126 200
350 2 2 8 7 99 127 199
351 2 2 8 7 25 200 126
352 2 2 8 7 100 128 203
353 2 2 8 7 14 199 127
354 2 2 8 7 101 129 201
355 2 2 8 7 36 203 128
356 2 2 8 7 47 201 129
357 2 2 8 7 41 139 168
358 2 2 8 7 30 138 167
359 2 2 8 7 8 141 170
360 2 2 8 7 19 140 169
361 2 2 8 7 65 146 157
362 2 2 8 7 32 33 173
363 2 2 8 7 43 44 174
364 2 2 8 7 21 22 175
365 2 2 8 7 10 11 176
366 2 2 8 7 65 137 166
367 2 2 8 7 77 166 137
368 2 2 8 7 82 205 152
369 2 2 8 7 83 206 151
370 2 2 8 7 84 207 154
371 2 2 8 7 85 208 153
372 2 2 8 7 27 28 197
373 2 2 8 7 38 39 198
374 2 2 8 7 36 37 203
375 2 2 8 7 47 48 201
376 2 2 8 7 25 26 200
377 2 2 8 7 14 15 199
378 2 2 8 7 16 17 202
379 2 2 8 7 5 6 204
380 2 2 8 7 78 147 185
381 2 2 8 7 54 185 147
382 2 2 8 7 56 187 149
383 2 2 8 7 79 148 186
384 2 2 8 7 80 149 187
385 2 2 8 7 55 186 148
386 2 2 8 7 57 188 150
387 2 2 8 7 81 150 188
388 2 2 8 7 65 166 146
389 2 2 8 7 66 152 182
390 2 2 8 7 67 151 181
391 2 2 8 7 106 182 152
392 2 2 8 7 107 181 151
393 2 2 8 7 68 154 184
394 2 2 8 7 108 184 154
395 2 2 8 7 69 153 183
396 2 2 8 7 109 183 153
397 2 2 8 7 54 142 185
398 2 2 8 7 55 143 186
399 2 2 8 7 56 144 187
400 2 2 8 7 57 145 188
401 2 2 8 7 115 172 155
402 2 2 8 7 114 156 171
403 2 2 8 7 78 213 173
404 2 2 8 7 79 214 174
405 2 2 8 7 80 211 175
406 2 2 8 7 81 212 176
407 2 2 8 7 27 197 177
408 2 2 8 7 38 198 178
409 2 2 8 7 100 203 178
410 2 2 8 7 98 177 197
411 2 2 8 7 100 178 198
412 2 2 8 7 98 200 177
413 2 2 8 7 101 201 180
414 2 2 8 7 37 178 203
415 2 2 8 7 26 177 200
416 2 2 8 7 99 199 179
417 2 2 8 7 48 180 201
418 2 2 8 7 15 179 199
419 2 2 8 7 16 202 179
420 2 2 8 7 5 204 180
421 2 2 8 7 99 179 202
422 2 2 8 7 101 180 204
423 2 2 8 7 21 175 211
424 2 2 8 7 10 176 212
425 2 2 8 7 32 173 213
426 2 2 8 7 43 174 214
$EndElements
