\relax 
\providecommand\hyper@newdestlabel[2]{}
\catcode `"\active 
\catcode `<\active 
\catcode `>\active 
\@nameuse{es@quoting}
\providecommand\HyperFirstAtBeginDocument{\AtBeginDocument}
\HyperFirstAtBeginDocument{\ifx\hyper@anchor\@undefined
\global\let\oldcontentsline\contentsline
\gdef\contentsline#1#2#3#4{\oldcontentsline{#1}{#2}{#3}}
\global\let\oldnewlabel\newlabel
\gdef\newlabel#1#2{\newlabelxx{#1}#2}
\gdef\newlabelxx#1#2#3#4#5#6{\oldnewlabel{#1}{{#2}{#3}}}
\AtEndDocument{\ifx\hyper@anchor\@undefined
\let\contentsline\oldcontentsline
\let\newlabel\oldnewlabel
\fi}
\fi}
\global\let\hyper@last\relax 
\gdef\HyperFirstAtBeginDocument#1{#1}
\providecommand\HyField@AuxAddToFields[1]{}
\providecommand\HyField@AuxAddToCoFields[2]{}
\gdef \LT@i {\LT@entry 
    {1}{27.02635pt}\LT@entry 
    {1}{211.56927pt}\LT@entry 
    {1}{168.89014pt}}
\select@language{spanish}
\@writefile{toc}{\select@language{spanish}}
\@writefile{lof}{\select@language{spanish}}
\@writefile{lot}{\select@language{spanish}}
\@writefile{toc}{\contentsline {section}{\numberline {0.1}Plan del Proyecto 5 iteraci\'on}{26}{section.0.1}}
\newlabel{Plan del Proyecto5}{{0.1}{26}{Plan del Proyecto 5 iteraci\'on}{section.0.1}{}}
\@writefile{lot}{\contentsline {table}{\numberline {1}{{\relax \fontsize  {10}{12}\selectfont  \abovedisplayskip 10\p@ plus2\p@ minus5\p@ \abovedisplayshortskip \z@ plus3\p@ \belowdisplayshortskip 6\p@ plus3\p@ minus3\p@ \def \leftmargin \leftmargini \parsep 5\p@ plus2.5\p@ minus\p@ \topsep 10\p@ plus4\p@ minus6\p@ \itemsep 5\p@ plus2.5\p@ minus\p@ {\leftmargin \leftmargini \topsep 6\p@ plus2\p@ minus2\p@ \parsep 3\p@ plus2\p@ minus\p@ \itemsep \parsep }\belowdisplayskip \abovedisplayskip Lista de objetivos a completar.}}}{26}{table.0.1}}
\newlabel{tabla: TABLA CE quinta plan}{{1}{26}{\footnotesize Lista de objetivos a completar}{table.0.1}{}}
\newlabel{tabla: TABLA CE de nuevos riesgos}{{0.1}{28}{Plan del Proyecto 5 iteraci\'on}{table.0.1}{}}
\gdef \LT@ii {\LT@entry 
    {1}{155.06377pt}\LT@entry 
    {1}{97.75826pt}\LT@entry 
    {1}{97.75826pt}\LT@entry 
    {1}{97.75826pt}}
\@writefile{toc}{\contentsline {section}{\numberline {0.2}Reporte de Seguimiento}{29}{section.0.2}}
\newlabel{tabla: TABLA CE Actividades}{{0.2}{29}{Reporte de Seguimiento}{section.0.2}{}}
\newlabel{tabla: TABLA CE Productos}{{0.2}{30}{Reporte de Seguimiento}{table.0.2}{}}
\newlabel{tabla: TABLA CE Cambios Seg}{{0.2}{30}{Reporte de Seguimiento}{table.0.2}{}}
\newlabel{tabla: TABLA CE de nuevos riesgos Seg}{{0.2}{30}{Reporte de Seguimiento}{table.0.2}{}}
\newlabel{tabla: TABLA CE Resumen}{{0.2}{30}{Reporte de Seguimiento}{table.0.2}{}}
\gdef \LT@iii {\LT@entry 
    {1}{155.06377pt}\LT@entry 
    {1}{97.75826pt}\LT@entry 
    {1}{97.75826pt}\LT@entry 
    {1}{97.75826pt}}
\@writefile{toc}{\contentsline {section}{\numberline {0.3}Reporte de Seguimiento}{31}{section.0.3}}
\newlabel{tabla: TABLA CE Actividades}{{0.3}{31}{Reporte de Seguimiento}{section.0.3}{}}
\newlabel{tabla: TABLA CE Productos}{{0.3}{32}{Reporte de Seguimiento}{table.0.3}{}}
\newlabel{tabla: TABLA CE Cambios Seg}{{0.3}{32}{Reporte de Seguimiento}{table.0.3}{}}
\newlabel{tabla: TABLA CE de nuevos riesgos Seg}{{0.3}{33}{Reporte de Seguimiento}{table.0.3}{}}
\newlabel{tabla: TABLA CE Resumen}{{0.3}{33}{Reporte de Seguimiento}{table.0.3}{}}
\gdef \LT@iv {\LT@entry 
    {1}{155.06377pt}\LT@entry 
    {1}{97.75826pt}\LT@entry 
    {1}{97.75826pt}\LT@entry 
    {1}{97.75826pt}}
\@writefile{toc}{\contentsline {section}{\numberline {0.4}Reporte de Seguimiento}{34}{section.0.4}}
\newlabel{tabla: TABLA CE Actividades}{{0.4}{34}{Reporte de Seguimiento}{section.0.4}{}}
\newlabel{tabla: TABLA CE Productos}{{0.4}{35}{Reporte de Seguimiento}{table.0.4}{}}
\newlabel{tabla: TABLA CE Cambios Seg}{{0.4}{35}{Reporte de Seguimiento}{table.0.4}{}}
\newlabel{tabla: TABLA CE de nuevos riesgos Seg}{{0.4}{36}{Reporte de Seguimiento}{table.0.4}{}}
\newlabel{tabla: TABLA CE Resumen}{{0.4}{36}{Reporte de Seguimiento}{table.0.4}{}}
\@writefile{toc}{\contentsline {section}{\numberline {0.5}Cierre del Plan}{37}{section.0.5}}
\newlabel{CE Cierre}{{0.5}{37}{Cierre del Plan}{section.0.5}{}}
\newlabel{tabla: TABLA CE ResumenCierre}{{0.5}{37}{Cierre del Plan}{section.0.5}{}}
\newlabel{tabla: TABLA Actividades CE }{{0.5}{38}{Cierre del Plan}{section.0.5}{}}
