$MeshFormat
2.2 0 8
$EndMeshFormat
$Nodes
18
1 0 0 0
2 1 0 0
3 1 2 0
4 0 2 0
5 0.499999999998694 0 0
6 1 0.4999999999988241 0
7 1 0.999999999997388 0
8 1 1.499999999998683 0
9 0.5000000000020591 2 0
10 0 1.500000000000693 0
11 0 1.000000000004118 0
12 0 0.5000000000020808 0
13 0.509566326530428 1.280824829932942 0
14 0.4925620545833522 0.7039323169749857 0
15 0.3673634072531743 1.644500980318366 0
16 0.6458333333320861 0.3541666666671897 0
17 0.3176378331937195 0.3061669182984244 0
18 0.6753859467571324 1.685065162049998 0
$EndNodes
$Elements
34
1 1 2 6 1 1 5
2 1 2 6 1 5 2
3 1 2 6 2 2 6
4 1 2 6 2 6 7
5 1 2 6 2 7 8
6 1 2 6 2 8 3
7 1 2 6 3 3 9
8 1 2 6 3 9 4
9 1 2 6 4 4 10
10 1 2 6 4 10 11
11 1 2 6 4 11 12
12 1 2 6 4 12 1
13 2 2 8 7 11 14 13
14 2 2 8 7 7 13 14
15 2 2 8 7 11 12 14
16 2 2 8 7 6 7 14
17 2 2 8 7 7 8 13
18 2 2 8 7 10 11 13
19 2 2 8 7 8 18 13
20 2 2 8 7 4 15 9
21 2 2 8 7 10 13 15
22 2 2 8 7 4 10 15
23 2 2 8 7 12 17 14
24 2 2 8 7 2 16 5
25 2 2 8 7 2 6 16
26 2 2 8 7 6 14 16
27 2 2 8 7 13 18 15
28 2 2 8 7 1 17 12
29 2 2 8 7 1 5 17
30 2 2 8 7 3 18 8
31 2 2 8 7 3 9 18
32 2 2 8 7 14 17 16
33 2 2 8 7 9 15 18
34 2 2 8 7 5 16 17
$EndElements
