$MeshFormat
2.2 0 8
$EndMeshFormat
$Nodes
1093
1 0 0 0
2 1 0 0
3 1 2 0
4 0 2 0
5 0.04999999999989965 0 0
6 0.09999999999981467 0 0
7 0.1499999999997036 0 0
8 0.1999999999995579 0 0
9 0.2499999999994121 0 0
10 0.2999999999992664 0 0
11 0.3499999999991206 0 0
12 0.3999999999989749 0 0
13 0.4499999999988292 0 0
14 0.4999999999986943 0 0
15 0.5499999999988151 0 0
16 0.5999999999989468 0 0
17 0.6499999999990784 0 0
18 0.69999999999921 0 0
19 0.7499999999993417 0 0
20 0.7999999999994734 0 0
21 0.8499999999996051 0 0
22 0.8999999999997368 0 0
23 0.9499999999998684 0 0
24 1 0.04999999999990573 0
25 1 0.0999999999997993 0
26 1 0.1499999999997056 0
27 1 0.1999999999996293 0
28 1 0.2499999999995475 0
29 1 0.2999999999994072 0
30 1 0.3499999999992615 0
31 1 0.3999999999991157 0
32 1 0.44999999999897 0
33 1 0.4999999999988242 0
34 1 0.5499999999986784 0
35 1 0.5999999999985328 0
36 1 0.649999999998387 0
37 1 0.6999999999982413 0
38 1 0.7499999999980955 0
39 1 0.7999999999979498 0
40 1 0.8499999999978042 0
41 1 0.8999999999976585 0
42 1 0.9499999999975127 0
43 1 0.9999999999973885 0
44 1 1.049999999997498 0
45 1 1.09999999999763 0
46 1 1.149999999997762 0
47 1 1.199999999997894 0
48 1 1.249999999998025 0
49 1 1.299999999998157 0
50 1 1.349999999998289 0
51 1 1.39999999999842 0
52 1 1.449999999998552 0
53 1 1.499999999998683 0
54 1 1.549999999998815 0
55 1 1.599999999998947 0
56 1 1.649999999999078 0
57 1 1.69999999999921 0
58 1 1.749999999999342 0
59 1 1.799999999999474 0
60 1 1.849999999999605 0
61 1 1.899999999999737 0
62 1 1.949999999999869 0
63 0.9499999999997918 2 0
64 0.8999999999995836 2 0
65 0.8499999999996529 2 0
66 0.7999999999999998 2 0
67 0.7500000000003466 2 0
68 0.7000000000006934 2 0
69 0.6500000000010401 2 0
70 0.6000000000013869 2 0
71 0.5500000000017335 2 0
72 0.5000000000020587 2 0
73 0.4500000000018723 2 0
74 0.4000000000016644 2 0
75 0.3500000000014564 2 0
76 0.3000000000012483 2 0
77 0.2500000000010403 2 0
78 0.2000000000008322 2 0
79 0.1500000000006241 2 0
80 0.100000000000416 2 0
81 0.05000000000020799 2 0
82 0 1.949999999999792 0
83 0 1.899999999999584 0
84 0 1.849999999999375 0
85 0 1.799999999999167 0
86 0 1.749999999999002 0
87 0 1.699999999999306 0
88 0 1.649999999999653 0
89 0 1.6 0
90 0 1.550000000000346 0
91 0 1.500000000000693 0
92 0 1.45000000000104 0
93 0 1.400000000001387 0
94 0 1.350000000001733 0
95 0 1.30000000000208 0
96 0 1.250000000002427 0
97 0 1.200000000002774 0
98 0 1.150000000003121 0
99 0 1.100000000003467 0
100 0 1.050000000003814 0
101 0 1.000000000004117 0
102 0 0.9500000000039528 0
103 0 0.9000000000037447 0
104 0 0.8500000000035368 0
105 0 0.8000000000033287 0
106 0 0.7500000000031206 0
107 0 0.7000000000029127 0
108 0 0.6500000000027044 0
109 0 0.6000000000024965 0
110 0 0.5500000000022884 0
111 0 0.5000000000020806 0
112 0 0.4500000000018725 0
113 0 0.4000000000016644 0
114 0 0.3500000000014563 0
115 0 0.3000000000012482 0
116 0 0.2500000000010403 0
117 0 0.200000000000832 0
118 0 0.1500000000006243 0
119 0 0.100000000000416 0
120 0 0.0500000000002081 0
121 0.5019264527977397 1.478024354684091 0
122 0.4996765892279631 0.5226308311343045 0
123 0.4798507251895607 0.9990766080937474 0
124 0.6949571509003287 0.7745707761698428 0
125 0.6863108695328465 1.229487769983631 0
126 0.3019582337198459 1.247037258401145 0
127 0.3017030077156277 0.75329699876762 0
128 0.6995689655174944 1.699568965517497 0
129 0.3004310344824768 1.699568965517523 0
130 0.6987454233860507 0.3046711710508819 0
131 0.3004310344823957 0.3004310344823928 0
132 0.7635017107035271 0.5412686783156576 0
133 0.7649723609480847 1.456821200563371 0
134 0.2378125000006605 1.017380570631093 0
135 0.7625136098217504 0.9981073503859483 0
136 0.2368526290716021 1.477575291793368 0
137 0.2347028040916073 0.5269212839677948 0
138 0.4999999999999908 1.78350009894612 0
139 0.4974264350910682 0.2190524142511091 0
140 0.493570387494975 1.277127879764689 0
141 0.4894322392883894 0.8031349072744562 0
142 0.8235125911968741 1.82948971876883 0
143 0.1782787703071476 0.1774202673724331 0
144 0.8264663157365227 0.1659008313209915 0
145 0.1804764566455618 1.829112069062283 0
146 0.1683788570567819 0.861955072361184 0
147 0.8329508649133844 0.6868957170374292 0
148 0.8329570206191466 1.316245569404144 0
149 0.8348711957515147 0.8520257812648395 0
150 0.834101973444948 1.145053870668651 0
151 0.8353991605553678 0.3936205803396275 0
152 0.8365907646936734 1.607610769921408 0
153 0.6202542117733028 0.9221120228057478 0
154 0.1626642901221339 1.162156984848014 0
155 0.5594167682873949 1.637092007932855 0
156 0.5594167682875288 0.3629079920669757 0
157 0.1610821577654218 1.328147758531134 0
158 0.1610083312248516 0.6672061832374926 0
159 0.6144973395392486 1.081802680573247 0
160 0.1612880260920066 1.619616545321893 0
161 0.1609979362252673 0.3827494827473713 0
162 0.6320500541435474 0.6169042656525922 0
163 0.6121801158577924 1.37283564161282 0
164 0.3490957608103958 0.9043874890890616 0
165 0.367962173920916 1.389701973026931 0
166 0.3631013354612768 0.608945406734227 0
167 0.3620963473998933 1.554156109374232 0
168 0.3668446361528964 0.445340507447291 0
169 0.6442065726173336 1.845347447564678 0
170 0.347084925390941 0.1551837312198925 0
171 0.3601735325487073 1.841211065866592 0
172 0.6490852264653627 0.1572231602247798 0
173 0.4163458627793379 1.144523721300635 0
174 0.6293271794595567 1.505641437765381 0
175 0.6304897505649046 0.4833849269658236 0
176 0.4924907182282585 0.6638345940860502 0
177 0.4289506338543308 1.673209022230463 0
178 0.43190783697487 0.3216694804931252 0
179 0.8727263985145286 0.5709309450934043 0
180 0.8737611680409391 1.429017015461476 0
181 0.1226373643222737 0.9783925267703079 0
182 0.2966409731831345 1.130938988692256 0
183 0.8762658223741662 0.9658697801845679 0
184 0.8771250955282165 0.2817335933448855 0
185 0.8771250955282939 1.718266406655008 0
186 0.1219308458398509 1.440248317082075 0
187 0.121996275949854 0.5599281016959485 0
188 0.3667800791445701 1.026635669722521 0
189 0.107774235993535 1.725065440412915 0
190 0.1144512855067335 0.2753168900245208 0
191 0.5369747769368425 1.163720430134869 0
192 0.7217814082769503 1.587836262435044 0
193 0.7219472377152947 0.4133988732723892 0
194 0.7264944259184138 1.10762975319624 0
195 0.726048879435355 0.8769253129330901 0
196 0.5822704515472454 0.7315349503973645 0
197 0.5391959442368788 1.882126635048559 0
198 0.4601387240487655 0.111682117442205 0
199 0.1124894257232041 0.7675383903143663 0
200 0.7263667555793789 1.331853098884503 0
201 0.725121866548421 0.6705723266479474 0
202 0.5947861052775343 1.723388916375787 0
203 0.5938459700331428 0.2720045548861442 0
204 0.2650653947580242 1.346799659250038 0
205 0.2689014206045135 0.6471428512781362 0
206 0.4123313164792999 0.7402724719430898 0
207 0.7416054491517621 1.912979654477279 0
208 0.258446112375595 0.1053615100818679 0
209 0.7376918183035329 0.1122006500427434 0
210 0.2627919996202434 1.888319803926964 0
211 0.2617729758645011 1.580952219001176 0
212 0.264774954342011 0.3999172896325141 0
213 0.08989369817979201 1.06948414016097 0
214 0.9076339287512486 0.7699179525509163 0
215 0.9002289039919065 1.231398538172711 0
216 0.4568903906603963 0.8916499040387622 0
217 0.395416796282528 1.290399326605769 0
218 0.4629316121583867 1.371849214773587 0
219 0.9009633996204446 1.064818743769869 0
220 0.9052241151389036 1.904362246286998 0
221 0.9052241151389147 0.09563775371297691 0
222 0.1009974731493615 0.09860405053225499 0
223 0.1009974731493664 1.901395949467747 0
224 0.09977933677515424 1.249953141739759 0
225 0.4679045512309358 1.572017229848151 0
226 0.4618479367369526 0.4327663273624327 0
227 0.6038097475540294 1.275724257591335 0
228 0.9009453558724108 0.4692837181826308 0
229 0.9062434053679964 1.537027380560919 0
230 0.4406515989689706 1.901398850145502 0
231 0.557388126012307 0.1051547770432136 0
232 0.1014084454922339 1.534800952229925 0
233 0.09423194331144938 0.4639151046652128 0
234 0.2464186813556071 0.9149202254235507 0
235 0.7326446787746755 1.799637489325301 0
236 0.2686084923934992 0.195244847633768 0
237 0.2693442378756558 1.793643922711165 0
238 0.7316268438689646 0.2095133263930997 0
239 0.2073984108356162 0.7838136420144607 0
240 0.5916297331846653 0.8385553635652236 0
241 0.7934395028246216 0.7789248816410245 0
242 0.7804556545991751 1.228570569605391 0
243 0.6651159541201257 1.007654015254642 0
244 0.2003365184679718 1.253901059384125 0
245 0.2058701060085709 1.70049178811205 0
246 0.2099920570335516 0.3014963495515086 0
247 0.4075392956134827 1.765032670419622 0
248 0.4092990802514783 0.2350698865507307 0
249 0.5713742102030661 1.001003247255396 0
250 0.790824495915273 1.685566128245649 0
251 0.7950254324668853 0.3177156302052553 0
252 0.3275752847259292 1.473333676615629 0
253 0.4071335678987361 0.5260901617946779 0
254 0.3967653711514344 0.8261099907953067 0
255 0.6427133395754409 1.629605774297035 0
256 0.642713339575638 0.3703942257027233 0
257 0.5232232497220767 1.076649195139116 0
258 0.9145806693246239 0.1974694356750006 0
259 0.910893527972391 1.801934329421653 0
260 0.08044458912782505 1.807128361278324 0
261 0.08611201409536393 0.1930291028744689 0
262 0.6210162638629638 1.170856780389564 0
263 0.07980578846041184 0.9003929049461281 0
264 0.2829420318355562 0.8381690977756576 0
265 0.9128129670382414 0.6463663240876893 0
266 0.9128016043464325 1.352986036093235 0
267 0.4138912175711351 1.463449275354569 0
268 0.3209698468269607 0.5372236617985348 0
269 0.9146773628685727 0.8908915739314071 0
270 0.9242609628329601 0.3530033369214592 0
271 0.9242609628326661 1.646996663077972 0
272 0.6666211529838229 0.5553963983903395 0
273 0.5854057468994887 0.5522905533878362 0
274 0.8080349921106917 0.4627075358714099 0
275 0.8113493920905757 1.527657026040414 0
276 0.5526744590559466 1.54691333763943 0
277 0.5498451999577224 0.4559046762586867 0
278 0.5821057442584161 1.448757617921966 0
279 0.6730410257519049 1.441438436587588 0
280 0.0835488540563265 1.366708002611929 0
281 0.08383953688474335 0.6366117851527371 0
282 0.5338621430693348 0.9236906495763068 0
283 0.8172110984612146 1.06178616518296 0
284 0.8019503710459407 0.6086134325473074 0
285 0.8019503710456727 1.391386567452209 0
286 0.2191948848633443 1.098310247853184 0
287 0.5025111351137745 1.706757104761359 0
288 0.5025111351137798 0.2932428952386231 0
289 0.07563990362018336 1.655079549725059 0
290 0.0756399036202292 0.344920450274784 0
291 0.8046227179273295 0.9291886232542995 0
292 0.1850723062479208 1.54429467303195 0
293 0.1832589977557114 0.4634562840481674 0
294 0.5395105769577598 1.345867775333085 0
295 0.9212188036581495 1.150428080551632 0
296 0.8166521549881393 1.919139514429226 0
297 0.1852340200032302 0.08408596337658461 0
298 0.8166521549880582 0.0808604855707179 0
299 0.1852340200033998 1.915914036623592 0
300 0.4537899925945482 0.5951936391834829 0
301 0.08185910762712881 1.165680875361956 0
302 0.3548665953182903 1.638490285314565 0
303 0.3548665953181676 0.3615097146854215 0
304 0.1921180281639068 1.403546488755621 0
305 0.1921180281638923 0.5964535112441903 0
306 0.6130474508848387 1.921568168813935 0
307 0.387224839484428 0.07835254890706045 0
308 0.3748601698231215 1.21230819032465 0
309 0.4355279754607719 1.064857909177785 0
310 0.3413001438296626 1.926381262663038 0
311 0.6607342668000106 0.07269174369692927 0
312 0.3437729765601529 0.6861500759027851 0
313 0.5751678393667417 1.805564565838762 0
314 0.5782846102930606 0.1904022621356641 0
315 0.4657802483013539 1.205734814598163 0
316 0.4051057764260153 0.9626380721122885 0
317 0.6506743556815265 0.7018093673239605 0
318 0.2461252852425985 1.178629127131107 0
319 0.652924414011802 1.775293337724061 0
320 0.6566065574141384 0.2269589618767693 0
321 0.6611555101335925 0.8401495848383493 0
322 0.2999490677004814 0.9716406336649428 0
323 0.1624894619051501 1.030571505852096 0
324 0.7023016687585586 1.5052728903476 0
325 0.7058484147807873 0.4861020136984127 0
326 0.5444969686676471 0.6140095919894999 0
327 0.4178602293588349 0.6633712388433427 0
328 0.283632792433246 0.4769911008724943 0
329 0.3351003838669703 1.763199100874533 0
330 0.336866717986071 0.235277132406187 0
331 0.4427901408468752 1.827716886959814 0
332 0.1954600789848839 0.962307761175512 0
333 0.3616896268390556 1.097568257787684 0
334 0.07347859753523152 0.707569390493924 0
335 0.791998097746373 1.758133089788116 0
336 0.7938207617823066 0.2396178316246981 0
337 0.28128681289557 1.419379735336218 0
338 0.3281138078620113 1.313060944397721 0
339 0.5121094727688713 0.7344803483590653 0
340 0.06649587676339123 0.8258431948119002 0
341 0.2535674808750079 1.645218227514178 0
342 0.7126178095550881 0.9496941063010172 0
343 0.2972776150133351 1.054993678890618 0
344 0.6783749974151185 1.930710339711305 0
345 0.3216254160485728 0.06928729783196638 0
346 0.738536347750584 1.178051772941997 0
347 0.6572372942476817 1.313962741836078 0
348 0.06766708911465012 1.026122862152827 0
349 0.2227386478629479 0.7032960015115458 0
350 0.7333973009937509 0.5966769829993834 0
351 0.9356591746433037 1.469744392930362 0
352 0.9356591746431526 0.5302556070690101 0
353 0.7266060395232781 1.399983782341365 0
354 0.9292072012725285 1.01827545993936 0
355 0.4234946407310591 0.1689113158305005 0
356 0.5455652486629726 1.23328699431754 0
357 0.3685995845133861 1.705952214502147 0
358 0.3685995845133743 0.2940477854978479 0
359 0.06533676334079064 1.489201384054176 0
360 0.06448241784320216 0.5106457655765635 0
361 0.5152859439048799 0.1506984546640265 0
362 0.9368399049531312 0.8233702212742758 0
363 0.2758610306139955 0.5759712714205432 0
364 0.4855346697321437 1.636897545604347 0
365 0.4855346697321176 0.3631024543954481 0
366 0.9292107991753343 0.7224051551359568 0
367 0.9321826485060654 1.284498825936901 0
368 0.1722007913599643 1.758086878338979 0
369 0.1740792010538608 0.230574602345654 0
370 0.06569707330111271 1.298727427740613 0
371 0.5300165858557586 1.403989185603213 0
372 0.4081863728035633 1.628681475950984 0
373 0.4137419851185573 0.3907391454635053 0
374 0.7593048531473985 0.8290278740573768 0
375 0.5285668831862363 0.8694387919756768 0
376 0.7407309733885498 1.649022497792344 0
377 0.7734255795978243 0.3734084168048255 0
378 0.4805306042956372 1.129362906140644 0
379 0.4906922342823652 1.93446128305756 0
380 0.5148054720337931 0.06750609047113221 0
381 0.7125192419747577 1.048766751860595 0
382 0.5951465187753076 1.569617167150808 0
383 0.6056233283528544 0.4219682615660243 0
384 0.8357044813487559 1.009422381401419 0
385 0.9370118741509225 0.4217906323551162 0
386 0.9372417284427438 1.578483172775166 0
387 0.6684432101538554 1.137484037901279 0
388 0.8200169165212597 0.5404757380337998 0
389 0.8200169165212822 1.459524261966227 0
390 0.4151374720042943 1.520976086892623 0
391 0.2832851595918449 1.508767160581908 0
392 0.3227898866803157 1.177185355781742 0
393 0.2331871304298803 0.8288873637371936 0
394 0.6275017467384449 0.7808616163044106 0
395 0.2307215303997822 1.302615798147714 0
396 0.06302102813015575 0.9511308222522192 0
397 0.7313609802399093 1.273720841890305 0
398 0.1642047955947038 1.47189390991342 0
399 0.1724853223011585 0.5236223246959416 0
400 0.771932311639425 0.7041424250184941 0
401 0.2490655780872767 0.3451340479019686 0
402 0.9390217977746369 0.2512022165256097 0
403 0.9387978460404311 1.748761569012231 0
404 0.06473517162170303 1.58488079620176 0
405 0.06536245534827495 0.4164772967043167 0
406 0.357284088905466 0.7690821209359094 0
407 0.9377019104201791 0.9447959330341388 0
408 0.939100590980594 0.5955328934233639 0
409 0.939083428079427 1.404395493894826 0
410 0.1498728707316625 0.9113905288279041 0
411 0.4160030251097178 1.345345990386007 0
412 0.5820052400448175 0.6756746465847123 0
413 0.7811073075976041 1.575163924481422 0
414 0.05734098705914598 1.410869745081031 0
415 0.05769098680357398 0.5867447240625707 0
416 0.6059422673239067 0.06154040737763528 0
417 0.3964435676793067 1.938315872300387 0
418 0.06677086984033348 1.753137015182596 0
419 0.06595716700200187 0.247599433936503 0
420 0.1533538097855635 0.7319364172751064 0
421 0.8464295454351702 0.3212846058923208 0
422 0.8488065938763553 1.665990773364497 0
423 0.9433902458117691 0.0620745622791193 0
424 0.05705260067732196 0.06209157306716302 0
425 0.943390245811742 1.937925437720843 0
426 0.05705260067730971 1.937908426932823 0
427 0.8409916015355779 0.7469147580883018 0
428 0.8328905630988279 1.2049760414268 0
429 0.44878169525247 0.4891186222823286 0
430 0.86051482257047 1.771182719763542 0
431 0.8590917389586012 0.2370388992519672 0
432 0.1742002461027803 1.108706825078341 0
433 0.6785118590136092 1.568903014385409 0
434 0.6637002365045982 0.4336813034110216 0
435 0.6072252627408178 1.668095686831107 0
436 0.6085577444156525 0.3312615280694063 0
437 0.9390368711999638 0.1453765575323924 0
438 0.9384540594369126 1.854546429089976 0
439 0.1598021667560242 1.66865799818855 0
440 0.1518624720261715 0.3236886598890856 0
441 0.461086489097834 1.737633222751937 0
442 0.4607356841981555 0.2591215099074183 0
443 0.5072293971635435 1.836655453289851 0
444 0.2535038997248243 1.736235779476073 0
445 0.2527274294746132 0.2619751050651733 0
446 0.6965285837447516 1.842048041454619 0
447 0.3047104439424729 0.1497039204680276 0
448 0.3008599105047239 1.850583754689062 0
449 0.6985989331197267 0.1455996667572778 0
450 0.5657727002583709 1.112992671366754 0
451 0.7506458782412939 0.4549711202691376 0
452 0.5494707196935823 0.7829984037329621 0
453 0.3185361527751567 1.594386648962584 0
454 0.7753659818269352 1.842954538918474 0
455 0.2305001940601225 0.1529553319863792 0
456 0.7732906737022537 0.1526287111533358 0
457 0.2269723768210603 1.849124348776122 0
458 0.1545548713559843 0.8062928951545802 0
459 0.8587289256774124 0.6221764429384697 0
460 0.8557834558268779 1.372695902726318 0
461 0.8602929934884357 0.910170671176147 0
462 0.7828601753638267 1.120579320716965 0
463 0.06224791697683532 0.1442478477967294 0
464 0.06157322352836296 1.855770897935661 0
465 0.6984896194424802 0.3570838141878202 0
466 0.1516533412174866 1.274600921307361 0
467 0.5605797435791712 1.942738284445261 0
468 0.438394972245754 0.06053418700055996 0
469 0.4376620986672365 0.787890960595918 0
470 0.7733185300305639 1.949089408432576 0
471 0.2343723283910143 0.05573431160278552 0
472 0.7679432816739026 0.05531506362240351 0
473 0.2343723283912356 1.94426568839743 0
474 0.13695551425954 1.387808809761395 0
475 0.1382440674841243 0.6166564621897541 0
476 0.05382617505804282 1.118972611717816 0
477 0.6327618890747537 1.229209135550585 0
478 0.2088013692805683 0.4115930998457226 0
479 0.4493988766806913 1.25266046776194 0
480 0.7070468586907336 0.8245561615402706 0
481 0.7813499828639755 1.337949246642466 0
482 0.6742697164509823 0.9072057332751069 0
483 0.6815319509472548 0.6367792257546845 0
484 0.9440372288585336 0.3117184331240255 0
485 0.9440372288582536 1.688281566875917 0
486 0.6805912206415808 1.355959055450442 0
487 0.4471060129855302 0.8395969164319048 0
488 0.4201139857112022 1.407041043473362 0
489 0.7393605023034014 1.750079528719409 0
490 0.7379741231495087 0.2647221552251849 0
491 0.05781361700751891 1.698687810150584 0
492 0.05803165661434423 0.3013537937774824 0
493 0.8616177809158427 1.940950046171013 0
494 0.1331487898839727 0.05275771503427264 0
495 0.8616177809157897 0.05904995382896534 0
496 0.1331487898843496 1.94724228496583 0
497 0.718762470618438 0.7303746498513839 0
498 0.9428020469245146 1.100980705233601 0
499 0.0529812707964041 0.7808871138821867 0
500 0.589359552442662 1.85693233019949 0
501 0.5077596204690893 0.577415961436744 0
502 0.3450313524708274 0.8482586129473692 0
503 0.05330775762527335 1.214507623255861 0
504 0.4582338366581886 0.7130269731598426 0
505 0.3227183515470391 0.4075739447639229 0
506 0.6434648469475512 1.701696662889623 0
507 0.6434648469477317 0.2983033371101073 0
508 0.5416909666016531 1.744436613209969 0
509 0.5368787224481664 0.25223401357426 0
510 0.7665976214553846 1.525969871407203 0
511 0.9440621304852358 1.200300713521575 0
512 0.4706110262369944 1.324004073424774 0
513 0.3675894755780452 1.152092015056652 0
514 0.8790432593736962 1.846857368937348 0
515 0.8850369625813448 0.1517399086946554 0
516 0.2121882239864726 0.6532268848126717 0
517 0.3998765408797813 0.8816583615024947 0
518 0.8809247787070401 0.8212517868919723 0
519 0.5743153174554415 0.885356225460436 0
520 0.3576562328316216 0.5025150638878638 0
521 0.3138626658526303 0.6195189469753388 0
522 0.481335224999399 0.9398515010536321 0
523 0.2744355510056244 1.294921930697974 0
524 0.8782542008937019 1.281957229129956 0
525 0.2066681365126281 1.586489594186141 0
526 0.1486500846508193 1.21487810195696 0
527 0.6185372762900923 0.9770028419792168 0
528 0.8825102417675981 0.4191567403367402 0
529 0.8842134284260048 1.581096912178348 0
530 0.266491225636701 0.7903657436685925 0
531 0.3509936706091607 0.9563226678470428 0
532 0.1271146856035257 0.8440246370524376 0
533 0.294168635545108 0.6991409619469904 0
534 0.8688850282640016 0.5158380462076273 0
535 0.8679045608525826 1.472138642721432 0
536 0.37129435109773 1.499756061833259 0
537 0.314971688929936 1.376349365067774 0
538 0.1514435274709298 0.1277481358480139 0
539 0.1509723449195904 1.871238218879676 0
540 0.6578329340167606 1.057837309451467 0
541 0.7869881436769639 1.284859060198406 0
542 0.6949055250347248 1.181654783263334 0
543 0.4780711036461497 1.430553950654607 0
544 0.8705679178583908 0.722421797318245 0
545 0.6159163220175932 1.029883953723317 0
546 0.9597077880098657 0.7736704755647485 0
547 0.7129752545536371 0.05315436295586926 0
548 0.2877152938205755 1.946727667379804 0
549 0.5923923452700721 0.1450781460991265 0
550 0.2192978793214951 0.2126156449958218 0
551 0.2176713327363803 1.791212694560979 0
552 0.1175021449006847 1.589578038349632 0
553 0.1169933771749871 0.4127900829236544 0
554 0.5146937487378559 1.594507051790145 0
555 0.5003216668066576 1.529562111797057 0
556 0.5134962744484087 0.403583054152594 0
557 0.1944954162836471 0.913650199869896 0
558 0.8297410218796456 0.7989933603305814 0
559 0.2957802172559839 0.893441437744451 0
560 0.8564012002265926 1.097548953854928 0
561 0.775813191863342 0.6539354508822699 0
562 0.5799137349197621 0.4997358037177195 0
563 0.5519707618985974 1.288659703976922 0
564 0.5915496228206535 1.326582786123815 0
565 0.885512601908312 1.014905181225136 0
566 0.3837647403019635 1.889983904289418 0
567 0.5502770932383881 1.491256991563047 0
568 0.9535804751909747 1.523596974627943 0
569 0.9532910269532109 0.4763021292672039 0
570 0.7926190045404203 1.632207884024531 0
571 0.786856210815061 1.169598985480941 0
572 0.29848045223435 0.3486013882924261 0
573 0.5238865746575809 1.025618735683793 0
574 0.4094860943949404 1.013815675087232 0
575 0.768762578716214 1.071633217352999 0
576 0.4105569432880228 0.4404604802392063 0
577 0.3527937209276563 1.259868158749153 0
578 0.2392825838172806 0.4553483151321276 0
579 0.5698129412107213 1.055526617684286 0
580 0.7452152131803459 0.3241854248535661 0
581 0.04312007652289576 1.538980522081178 0
582 0.0436305770276845 0.4636671011532649 0
583 0.2549796667848416 1.224582643791412 0
584 0.1174930787187571 1.485078327361881 0
585 0.1156556865393082 0.5117627282334912 0
586 0.8289426148985922 1.259036931127841 0
587 0.2023338724911219 0.3571447733311837 0
588 0.781823389833305 0.8846056069453966 0
589 0.3004155663950669 1.650664015857436 0
590 0.7929102894034751 0.4188092670119808 0
591 0.2107521181210945 1.646106397538374 0
592 0.3676078042002879 1.441098384398585 0
593 0.3664043277408791 0.5580053143314397 0
594 0.48262956786788 1.04693747030394 0
595 0.2076517692475361 1.347238852745677 0
596 0.8241178255291407 1.730126390437185 0
597 0.8244719582041312 0.2695507920853311 0
598 0.2375143872256224 1.535967789187673 0
599 0.6893831786429849 1.645420133997175 0
600 0.5002192246427936 0.4673449136320951 0
601 0.6281309764775116 0.5752490965082356 0
602 0.6279187252300948 1.465961441700913 0
603 0.1165579658433178 1.303874419925303 0
604 0.5785116614518472 1.405932217124338 0
605 0.5255729316436965 0.9733079884710146 0
606 0.1251973649462854 1.769086187235879 0
607 0.1361293484424311 0.2087575783927428 0
608 0.1179257269706488 1.122325378342076 0
609 0.4421456070240791 1.953896507660369 0
610 0.5583580720832696 0.04681584611480059 0
611 0.2486378836024306 0.9699686404306171 0
612 0.1174625455092763 1.021580834690182 0
613 0.04009822516803355 1.06492993567381 0
614 0.8064012896390049 1.871083012846708 0
615 0.807228650464022 0.1271393337632182 0
616 0.4538745128510223 0.545051653372172 0
617 0.1116446819967532 0.67793967902208 0
618 0.4020040055594659 1.812695772361173 0
619 0.5772142481626547 0.9479701929736468 0
620 0.4446076528751929 0.2082088024844856 0
621 0.6239382705533416 0.1089159156802936 0
622 0.5343429877013913 0.7009040105033578 0
623 0.566467090436569 1.192797037539413 0
624 0.319023377636926 0.8020848595040345 0
625 0.3282350657547514 1.518353103702963 0
626 0.5553872050419483 1.692172596128444 0
627 0.55387961749319 0.308686021155991 0
628 0.04233389322636572 0.8679816992767162 0
629 0.3697887311819171 0.2031625940712208 0
630 0.6664174332851351 1.885915406933491 0
631 0.3311686988420538 0.1123506349705115 0
632 0.4119811216866892 0.121192888467706 0
633 0.7373275405412902 0.7805384479305482 0
634 0.2029584990748604 1.196241729599403 0
635 0.9513452245307419 1.05295030159822 0
636 0.6875891138580235 1.275860655603948 0
637 0.7612683730598498 0.9513230188048352 0
638 0.6674525878102316 0.9601752307305091 0
639 0.0472776660153898 0.670399189252558 0
640 0.4193782890030119 1.186162499959894 0
641 0.2526231927765381 0.7369573274428964 0
642 0.457982017319956 1.491459045460966 0
643 0.3609347620592619 1.338634791917273 0
644 0.9550009024906391 0.6797866202599444 0
645 0.9553522914547981 1.321593493499873 0
646 0.6334562965109179 0.8693201408765446 0
647 0.8753674437659098 1.182447770389913 0
648 0.2535729970666172 0.8685206734786703 0
649 0.1955065862915335 0.1264907087101227 0
650 0.1933835749838638 1.874402321549831 0
651 0.2533344769466118 1.055019867103661 0
652 0.715203950375224 0.9962328006301028 0
653 0.6224232141885682 1.804051816654423 0
654 0.6143838040630222 0.2229768931259895 0
655 0.4922643520476246 1.889495356924814 0
656 0.4081651300684559 0.5785989789682043 0
657 0.2381903230828136 1.431039302417294 0
658 0.475145888141347 0.1666750781063847 0
659 0.8487418652087433 1.88531365124002 0
660 0.8503709966374419 0.1133880444819209 0
661 0.1070849103084349 1.850336193629278 0
662 0.1080615076794247 0.1469287758599202 0
663 0.4143628270808585 1.718215613696779 0
664 0.4134856042440019 0.2825870905527793 0
665 0.959363127855871 1.61877950099049 0
666 0.9593396733365585 0.3812484383072344 0
667 0.9577937542345887 0.8676988698011003 0
668 0.6272216178144119 0.5297951195759215 0
669 0.2811579398478935 1.46632330383859 0
670 0.3173893815595795 1.807811487339355 0
671 0.3198541870280315 0.197014532580717 0
672 0.7179972665513865 1.952042125604037 0
673 0.2831088525075196 0.05126680612993267 0
674 0.9598251190138647 0.2133039051003847 0
675 0.9635167917489861 1.785338037883325 0
676 0.6213447986610731 1.421071698600954 0
677 0.208108904164078 1.145050986183723 0
678 0.2548381618037769 1.134445315280381 0
679 0.03743067700840423 1.373474659981822 0
680 0.8538564232022163 0.4675638226832211 0
681 0.8397920540097972 1.561590838447269 0
682 0.7105338539985202 0.5308923758965796 0
683 0.4560046859800236 1.783356462495663 0
684 0.9541651678044409 1.245258899769457 0
685 0.5502253777267956 1.833397412881496 0
686 0.3649985001286418 0.72428694797545 0
687 0.04138212011373898 1.620610017384716 0
688 0.04147173207478664 0.3795839958881955 0
689 0.7108602881099554 1.469427318292841 0
690 0.4983631898647738 0.8933985821649291 0
691 0.0348530027918654 1.818486771094409 0
692 0.03612142647507132 0.1815484708825753 0
693 0.6011434575395874 1.613909179873449 0
694 0.6015566301422995 0.3828528970504678 0
695 0.7347193032741615 1.223645756158012 0
696 0.323426950753422 1.427697739713955 0
697 0.6773085617049051 1.741474041023013 0
698 0.6841491735628678 0.2514055979851732 0
699 0.04456665725274768 1.25960154094981 0
700 0.2798971813366058 0.5183460150342936 0
701 0.6409970057975726 1.955723541149633 0
702 0.359023051390177 0.04426947492353803 0
703 0.6625259987480937 0.7464033225553373 0
704 0.6685277019504288 1.485834352762701 0
705 0.2347316049431382 0.6082656797626345 0
706 0.4990087619979325 1.228357642572804 0
707 0.9584078083294831 0.1018302902750117 0
708 0.9583724091698962 1.898165032041598 0
709 0.1124282910748219 0.7225090894412775 0
710 0.4736355478215436 0.7520290637704922 0
711 0.03776163794074143 0.6287511396946134 0
712 0.4944414019736316 0.6225192094426901 0
713 0.6148145923305561 1.125177505638548 0
714 0.4996873577091488 1.345619601316345 0
715 0.1998298766706086 1.054729118660753 0
716 0.7481151820800501 1.69558011141632 0
717 0.3152110854377323 0.9334330357133733 0
718 0.5423733959734549 0.5369226033418919 0
719 0.5923857983483479 1.524632901483326 0
720 0.3243306089867934 0.4623319021823841 0
721 0.7642115149903554 1.415114061271979 0
722 0.6622928493330367 1.809784917201345 0
723 0.6874752408270886 0.1956920429189292 0
724 0.2495167796288873 1.691937873880707 0
725 0.7654819026949222 0.5826627829312884 0
726 0.6460222237057873 1.270765411789846 0
727 0.8203176931868397 1.961835793806563 0
728 0.1748411099582463 0.04188243173974507 0
729 0.8192426435153657 0.03904510060441735 0
730 0.1748411099590341 1.958117568260429 0
731 0.3770820249720842 0.6532844915988929 0
732 0.1410284105130986 1.553610330904347 0
733 0.1592941835746891 0.4274510086036387 0
734 0.03718723296484463 1.174125115487267 0
735 0.4447469448075819 1.11355602317229 0
736 0.1056795127188441 1.201008904460354 0
737 0.8984207688121471 1.110088068272112 0
738 0.1058315279522737 0.9336138825476435 0
739 0.3368211221880195 1.882531283524703 0
740 0.6668698826366696 0.1159868112487858 0
741 0.8762379627547219 1.32732572234181 0
742 0.7858890678576282 0.5016211294084892 0
743 0.5641517460013141 1.590711006474189 0
744 0.5670612647484252 0.4142700734895004 0
745 0.8978535798272762 1.393990158905124 0
746 0.1972749488100789 1.005112179546335 0
747 0.6819212125052156 1.607023348222832 0
748 0.5879697484543542 0.5956853203832029 0
749 0.8705500955143911 0.6679595093697238 0
750 0.5037760697903865 0.1084851724084224 0
751 0.8350805574433811 0.9588687601846206 0
752 0.3857285934445205 1.06199074318989 0
753 0.4052515975468963 1.253365956305681 0
754 0.8735187307200314 0.8672718306823868 0
755 0.297492420884203 1.745308617278152 0
756 0.2991227811066574 0.2442138288080327 0
757 0.8723674138182318 0.3706218241707973 0
758 0.8953220519412388 0.3217324236791497 0
759 0.895605033898448 1.676752740517957 0
760 0.8836109163705228 1.630314718014222 0
761 0.3901177642638351 0.6949835838605134 0
762 0.4545039415352428 1.160539415178281 0
763 0.5360260655278837 1.448436330042407 0
764 0.281086808387415 1.014374488945038 0
765 0.3868763634194909 0.9256629882005296 0
766 0.04087907156535076 0.1001636039677785 0
767 0.0408380916426082 1.899837534621338 0
768 0.3288090213427389 0.5797597496169791 0
769 0.89823913069551 0.6049424110835315 0
770 0.5236808550718406 1.123420890585869 0
771 0.8320672765845654 0.5820843549148396 0
772 0.8327148666404105 1.417717768399873 0
773 0.1062718969713388 0.2341670902339472 0
774 0.3400908452717862 1.059793802709666 0
775 0.5220673646607658 1.659534856899454 0
776 0.5220673646608702 0.3404651431005367 0
777 0.7891697490630283 1.490287608521293 0
778 0.4726096583680846 1.672921604083437 0
779 0.4720454412591055 0.3261773860775847 0
780 0.1183880728344486 1.637916472588886 0
781 0.1093272034850178 1.682738896791625 0
782 0.1060095541471736 0.3198634545963803 0
783 0.1165736882113993 0.3619564460555728 0
784 0.2155438357088226 0.566919144531999 0
785 0.2821147991193504 1.166501608190986 0
786 0.1620038810380593 1.432646218463625 0
787 0.1633268743393228 0.5680481000480865 0
788 0.8591585563130639 1.049696285086863 0
789 0.328900041317466 1.967684311993173 0
790 0.6716449504835125 0.03210669534593236 0
791 0.7526857064623217 1.373710155713759 0
792 0.8129739467567915 0.357263396625584 0
793 0.9614474647761315 1.365795004696928 0
794 0.9613828921018949 0.6343371675535835 0
795 0.4201051553950108 1.574310180242624 0
796 0.7910700287142491 1.02771578405608 0
797 0.09722934600656294 1.407197534280753 0
798 0.09798902856817189 0.5963878879021892 0
799 0.7576538917710663 1.609893210341865 0
800 0.3395698934636725 1.67960269106915 0
801 0.3404371195613908 0.3192351065647848 0
802 0.7750656684274835 1.796788324276951 0
803 0.7770383738498874 0.1975667043392354 0
804 0.8968149650665072 0.2409143991200723 0
805 0.8978258836693438 1.755795030749974 0
806 0.5328982643386394 0.1937833731550419 0
807 0.03874746476957265 1.332473920118284 0
808 0.3726282663914287 1.598490162079979 0
809 0.3733336789246092 0.4066024796977911 0
810 0.6870858686207086 1.088980776020428 0
811 0.958370406022652 0.9845489362415594 0
812 0.1564914481004562 1.718624211770506 0
813 0.1663872895823945 0.2725245170007385 0
814 0.9650276489445162 1.163812714614268 0
815 0.3867201827012996 1.668234650136025 0
816 0.3954049797090319 0.3334472004882611 0
817 0.5197946578546195 1.96275076870633 0
818 0.4791696333713907 0.03690672429632571 0
819 0.6636352941506047 0.3339992632191252 0
820 0.8997875268783868 0.9293451958231961 0
821 0.2065243191064815 0.2563190928717061 0
822 0.2088740942380559 1.742073844305052 0
823 0.124010748899929 1.346205314137636 0
824 0.1341062353740235 1.817632165796113 0
825 0.8211847727672107 0.6462758156663995 0
826 0.3998217859434701 0.484501496237085 0
827 0.5877702729068484 1.232523153781808 0
828 0.2444957517651685 1.265342897691625 0
829 0.1406619543883181 0.4696193925548443 0
830 0.3123798209832036 0.6595701875078557 0
831 0.03703214196338666 0.9139010852965521 0
832 0.6161544620414522 0.7026984110045694 0
833 0.2977655952152993 1.552186861313172 0
834 0.04064160737511999 0.9892530134669559 0
835 0.6680720190891677 0.509717707107512 0
836 0.03797812743390712 0.7253010772684466 0
837 0.6835908870963268 0.3988242142748009 0
838 0.1966369277321661 1.497596779761083 0
839 0.2073332275186055 0.4968289612481203 0
840 0.4524537294803372 0.6390813476744379 0
841 0.2787817259198492 1.615119405308724 0
842 0.8229559296068387 0.8918651463566371 0
843 0.7983766280525526 0.9791043196812004 0
844 0.2498806695129644 1.38739223392877 0
845 0.4436578235661698 0.9755365583784084 0
846 0.2312439435502445 0.3784473026778472 0
847 0.5957971021114385 1.961374765014685 0
848 0.401210958244419 0.04136610359685625 0
849 0.7749635306289762 1.892031685654065 0
850 0.7802378730958526 0.09926113401201213 0
851 0.3303401909285457 1.2217600197309 0
852 0.6612437083238338 0.5967970480521834 0
853 0.1712749523325646 1.365879952606066 0
854 0.5943311248881291 1.768352162644624 0
855 0.6154122018955486 0.1841141543898836 0
856 0.3717945140136622 1.745362908486327 0
857 0.3718708785087105 0.254527011942251 0
858 0.5759946297344227 1.901244840737085 0
859 0.6235576683557281 1.885636945036729 0
860 0.4544805226180727 1.610500480300968 0
861 0.4443084555851396 0.3574046114492584 0
862 0.4149638791523312 1.855722007144179 0
863 0.8629989510306324 1.523581027058291 0
864 0.1583116791886302 0.9923392778776373 0
865 0.6900642598131679 0.6936851082402136 0
866 0.5536010960928068 0.5752648061078349 0
867 0.6384001322801762 0.6641405572687081 0
868 0.3695454783683837 0.1170804499028048 0
869 0.662406908568514 0.7990870364968169 0
870 0.6273558646181662 0.8198020580302829 0
871 0.4089622831215448 0.6238404040799665 0
872 0.5952521263917718 0.4594415600545457 0
873 0.2895215525379731 0.4372499437938651 0
874 0.5408120672858395 0.8230503388481973 0
875 0.1021697213735123 0.8102508073201005 0
876 0.3340282711681719 1.723049229450034 0
877 0.3362213526930998 0.2746219832835827 0
878 0.5413715633271931 1.788209547588864 0
879 0.5009236319558144 1.743275916561341 0
880 0.5001401433114258 0.2563101165020592 0
881 0.4953465923746606 1.176461381419869 0
882 0.8180102075889181 1.354569321556284 0
883 0.7345394200313428 0.9162182219900686 0
884 0.1983344307805419 1.452382998517401 0
885 0.305897693992645 1.898908754436714 0
886 0.6953740310827153 0.09992664694032112 0
887 0.7496273124143942 1.144441341988742 0
888 0.96134711027645 0.5607479910519663 0
889 0.961347110276181 1.439252008947522 0
890 0.3306839171884932 1.01037525933091 0
891 0.9665379270832959 0.1758862459394632 0
892 0.9678925847321076 1.825994290983924 0
893 0.9056298385625545 1.960373509927132 0
894 0.09437016143754315 0.03962649007296058 0
895 0.9056298385625563 0.03962649007290216 0
896 0.09437016143742386 1.960373509927151 0
897 0.2106950629129487 0.8676812695853258 0
898 0.7582803019936986 0.7433090380479298 0
899 0.2412352427488791 1.613507336382684 0
900 0.7558026087347237 1.306427430650599 0
901 0.4016253713538983 1.107763748265536 0
902 0.7223088144618586 1.540650336070075 0
903 0.6906912659421947 1.403379457531216 0
904 0.6331511793464543 1.740021808678549 0
905 0.6384900704041806 0.2543298689968367 0
906 0.8115123915578077 0.7229446637236093 0
907 0.3984941390967503 0.7864966379252228 0
908 0.3629427402412164 1.791474794147717 0
909 0.9620346055046682 0.9106772753523636 0
910 0.2615377482782036 0.3071778878899212 0
911 0.4923690403013726 0.8479825621098867 0
912 0.1233390500204835 1.170770506142692 0
913 0.1758896627148352 0.6333857603710271 0
914 0.3755484022334857 0.9914636262321828 0
915 0.1189919609450113 0.8848506553886413 0
916 0.143633592556376 1.067899633797403 0
917 0.7156013642543945 1.149852337858319 0
918 0.5867139077959498 0.7871104787053144 0
919 0.328714805962066 0.7238052947401847 0
920 0.2208118482242991 0.104925565151548 0
921 0.2222744051865048 1.902170421815392 0
922 0.2730143722903252 1.094252449142399 0
923 0.4289570199918754 0.9294995642143525 0
924 0.5552498579637918 0.1570234026194145 0
925 0.6847541283672193 0.8679135663600058 0
926 0.03192157644703766 1.731022182279044 0
927 0.03187816075965996 0.2690345271266043 0
928 0.1981882525789151 0.735727510429942 0
929 0.7432837851163513 0.5029710635176553 0
930 0.656449671480821 1.192049436152346 0
931 0.3351859774847851 1.125917292645325 0
932 0.4772113033671324 1.969532711562079 0
933 0.523047217908 0.03058896796262127 0
934 0.5336118780286159 0.4947152992256423 0
935 0.1882978018367042 1.299865673332234 0
936 0.5362737592182555 0.6523213832411858 0
937 0.7335394689161703 0.3773143263031224 0
938 0.7584954713901707 0.6152355772431258 0
939 0.4502304372958646 1.020044844208223 0
940 0.6677173243925034 1.527264591881885 0
941 0.7011491600376252 0.445699410133414 0
942 0.66714416500373 0.4691479302353726 0
943 0.966668749696357 1.719689698768577 0
944 0.9666687496959954 0.2803103012313123 0
945 0.7788832207148476 1.723897049721336 0
946 0.7781120116463366 0.2749659430242229 0
947 0.19284864543296 0.8288360753825096 0
948 0.5712582742352063 0.22628021937542 0
949 0.5806855857354778 1.152619829321189 0
950 0.4563736151470781 1.535936799154747 0
951 0.4383752848919671 1.290483949041476 0
952 0.03843628770069055 1.45221941998349 0
953 0.03843628770062704 0.5477805800160456 0
954 0.02920238865571637 1.025000000003966 0
955 0.08395913835019775 0.9832643963846532 0
956 0.9709232137655803 0.7249999999981686 0
957 0.4842830806140714 1.090110565082711 0
958 0.167233781887244 1.579516140534509 0
959 0.3633196658522808 0.8064064444215687 0
960 0.03313688400428036 1.778778260022682 0
961 0.03340060789212863 0.2212645114202116 0
962 0.8214436614210662 1.786711558267757 0
963 0.03496712814828825 1.664875475451864 0
964 0.03502865846187202 0.3351716479886333 0
965 0.1544891181054468 0.9522672046123909 0
966 0.3128729239509488 0.4998482857156887 0
967 0.4557912530713135 0.6761643908134202 0
968 0.6552122056084073 1.665524841897474 0
969 0.07787114251271376 0.7407610122800402 0
970 0.6367645638195297 0.03367336951060335 0
971 0.3639447558140472 1.966143815257521 0
972 0.2497175252050455 0.4943222970296179 0
973 0.03049683839860441 0.8249706130606268 0
974 0.9123109518138579 1.440900851650999 0
975 0.9115825539560101 0.555195673730363 0
976 0.8345422214078697 0.4323715892485959 0
977 0.3169345571710558 1.092354324008395 0
978 0.256710963716279 0.6866441791633402 0
979 0.970864338889819 0.5241325619018141 0
980 0.9708643388895564 1.475867438097013 0
981 0.8601765596207757 1.811512511368409 0
982 0.86907219277957 0.1986218354141647 0
983 0.1536370946779007 1.512118295315102 0
984 0.9102193204753004 1.191143775658958 0
985 0.281199387070447 0.936680794595387 0
986 0.2898499184909669 1.205099788427852 0
987 0.1453763148336246 0.08891909072589306 0
988 0.1453763148336057 1.911080909274261 0
989 0.4619698598830072 1.856167925680472 0
990 0.8730447946334081 1.13682766654999 0
991 0.8636531388601187 0.7751537278594274 0
992 0.8240522896640934 0.2170350706007037 0
993 0.5125300597899918 1.314373079872666 0
994 0.4747675087781209 1.816382595187313 0
995 0.6774738539531623 1.967695201292995 0
996 0.3227514639889313 0.03296471577708742 0
997 0.9144742448127041 0.9762900810746595 0
998 0.9679742512040532 1.019903164721755 0
999 0.5286724940817955 1.198924697196899 0
1000 0.0827240525195458 1.447562823345046 0
1001 0.08270844723412288 0.5522082979144681 0
1002 0.9698929002377776 1.12793159623723 0
1003 0.9665769155448436 0.03342308445508162 0
1004 0.03342308445506662 0.03342308445516889 0
1005 0.9665769155448758 1.9665769155449 0
1006 0.033423084455093 1.966576915544907 0
1007 0.9127509062966728 0.8540968565162285 0
1008 0.5473400175198548 0.7472434713548887 0
1009 0.5139353454970362 0.7717183484962021 0
1010 0.3034568476262747 1.340949537885421 0
1011 0.6390903721458563 1.591719756567443 0
1012 0.6382357080306371 0.4092355291971327 0
1013 0.7312288738979793 0.5653225927250043 0
1014 0.1691279593535187 0.7682656305691673 0
1015 0.6935099316454286 1.786386225907958 0
1016 0.7062269180476008 1.896773258833476 0
1017 0.2955447136419782 0.09796345089160917 0
1018 0.723739004554706 1.432727886085189 0
1019 0.9051204443178343 0.5081218221836389 0
1020 0.9064495864832246 1.494498211591657 0
1021 0.8191071340233587 1.102795639547694 0
1022 0.0272400786831698 0.4250000000017684 0
1023 0.02819029550809179 1.576419193561916 0
1024 0.5959048523760875 1.485767412336148 0
1025 0.9191717161841495 0.2826252219854592 0
1026 0.9175218862840979 1.713983125978093 0
1027 0.9086427742064878 0.6867261490875924 0
1028 0.647579108811556 0.1955041345922476 0
1029 0.6475312955736676 1.915289111177366 0
1030 0.353717496826723 0.08426808130717622 0
1031 0.9088099289314999 1.313332353639219 0
1032 0.7568472961671784 0.4071691640636164 0
1033 0.741399682258218 1.496948754681797 0
1034 0.9683400215530608 1.280270243840482 0
1035 0.7502364429402661 1.031697273603132 0
1036 0.5703537125887623 1.371041521159454 0
1037 0.7174649216539728 1.620630956375299 0
1038 0.4265190646072025 0.6985332182463715 0
1039 0.5296973641222137 1.920114900242157 0
1040 0.479256974298018 0.07702285832372906 0
1041 0.9733466694237659 0.8249999999978777 0
1042 0.587877560952812 0.6364300776337063 0
1043 0.7612251952668609 0.2336319741282261 0
1044 0.7998359926872971 0.8287155008478436 0
1045 0.6936488240129154 1.311827825107813 0
1046 0.2212530150566422 0.9402117067248938 0
1047 0.1840510456455718 0.6982344288016396 0
1048 0.3037516029345469 1.780015258452457 0
1049 0.4931997891326246 0.7035962904656564 0
1050 0.6209734870921186 0.7417363577151593 0
1051 0.3084888343879691 1.282642798143267 0
1052 0.08922526832965491 1.327598512293833 0
1053 0.1394638043113517 0.2442681355995207 0
1054 0.6364388138323696 1.343991018570275 0
1055 0.625797703168682 1.305318330770306 0
1056 0.3558038326023639 1.295926933874368 0
1057 0.6485347889322259 1.098256461916994 0
1058 0.3420397647658695 0.6454938217438199 0
1059 0.1367727972638264 0.170928018422107 0
1060 0.4559041487029764 1.701747313504795 0
1061 0.4561371403579825 0.2965596724539061 0
1062 0.8628434199509165 1.233577534893132 0
1063 0.8339980248252282 1.492576211182129 0
1064 0.8273364855911596 0.4976412544409094 0
1065 0.08464974483996036 0.8571621444842636 0
1066 0.5020434472654407 1.379575945536167 0
1067 0.9142667992713371 0.3912771534343715 0
1068 0.9177380327855617 1.61113419340724 0
1069 0.3892226278126887 0.158083671294983 0
1070 0.7221340910778132 0.6302812873509037 0
1071 0.7154571625273276 1.370976272185908 0
1072 0.6329781337452564 1.550091103378356 0
1073 0.6325363982433232 0.4472890502308686 0
1074 0.1659304362124431 1.793025998998846 0
1075 0.9745262167212444 1.57499999999888 0
1076 0.9745262167216345 0.4249999999990428 0
1077 0.1444972319455124 0.6995651595555192 0
1078 0.7967732060291612 1.428112771930732 0
1079 0.9658471060391861 1.660118824834371 0
1080 0.9658471060397056 0.3398811751645468 0
1081 0.796603635510043 0.5710209973485785 0
1082 0.7364377781374524 1.856943984820131 0
1083 0.2664775897270305 0.1420318887340152 0
1084 0.7337326503897955 0.170972316576435 0
1085 0.2658382065196072 1.830116002000608 0
1086 0.4229338362710149 1.222046385790065 0
1087 0.4063215107652733 0.1978001864567189 0
1088 0.08352948261815174 1.617612974850011 0
1089 0.08320823128593544 0.3831456543693047 0
1090 0.4512686293574801 1.645743987484201 0
1091 0.4648925740899749 0.3910487307963175 0
1092 0.6523812067811525 1.389779218058882 0
1093 0.6969988242350853 0.5861483788845134 0
$EndNodes
$Elements
2188
1 15 2 0 1 1
2 15 2 0 2 2
3 15 2 0 3 3
4 15 2 0 4 4
5 1 2 0 1 1 5
6 1 2 0 1 5 6
7 1 2 0 1 6 7
8 1 2 0 1 7 8
9 1 2 0 1 8 9
10 1 2 0 1 9 10
11 1 2 0 1 10 11
12 1 2 0 1 11 12
13 1 2 0 1 12 13
14 1 2 0 1 13 14
15 1 2 0 1 14 15
16 1 2 0 1 15 16
17 1 2 0 1 16 17
18 1 2 0 1 17 18
19 1 2 0 1 18 19
20 1 2 0 1 19 20
21 1 2 0 1 20 21
22 1 2 0 1 21 22
23 1 2 0 1 22 23
24 1 2 0 1 23 2
25 1 2 0 2 2 24
26 1 2 0 2 24 25
27 1 2 0 2 25 26
28 1 2 0 2 26 27
29 1 2 0 2 27 28
30 1 2 0 2 28 29
31 1 2 0 2 29 30
32 1 2 0 2 30 31
33 1 2 0 2 31 32
34 1 2 0 2 32 33
35 1 2 0 2 33 34
36 1 2 0 2 34 35
37 1 2 0 2 35 36
38 1 2 0 2 36 37
39 1 2 0 2 37 38
40 1 2 0 2 38 39
41 1 2 0 2 39 40
42 1 2 0 2 40 41
43 1 2 0 2 41 42
44 1 2 0 2 42 43
45 1 2 0 2 43 44
46 1 2 0 2 44 45
47 1 2 0 2 45 46
48 1 2 0 2 46 47
49 1 2 0 2 47 48
50 1 2 0 2 48 49
51 1 2 0 2 49 50
52 1 2 0 2 50 51
53 1 2 0 2 51 52
54 1 2 0 2 52 53
55 1 2 0 2 53 54
56 1 2 0 2 54 55
57 1 2 0 2 55 56
58 1 2 0 2 56 57
59 1 2 0 2 57 58
60 1 2 0 2 58 59
61 1 2 0 2 59 60
62 1 2 0 2 60 61
63 1 2 0 2 61 62
64 1 2 0 2 62 3
65 1 2 0 3 3 63
66 1 2 0 3 63 64
67 1 2 0 3 64 65
68 1 2 0 3 65 66
69 1 2 0 3 66 67
70 1 2 0 3 67 68
71 1 2 0 3 68 69
72 1 2 0 3 69 70
73 1 2 0 3 70 71
74 1 2 0 3 71 72
75 1 2 0 3 72 73
76 1 2 0 3 73 74
77 1 2 0 3 74 75
78 1 2 0 3 75 76
79 1 2 0 3 76 77
80 1 2 0 3 77 78
81 1 2 0 3 78 79
82 1 2 0 3 79 80
83 1 2 0 3 80 81
84 1 2 0 3 81 4
85 1 2 0 4 4 82
86 1 2 0 4 82 83
87 1 2 0 4 83 84
88 1 2 0 4 84 85
89 1 2 0 4 85 86
90 1 2 0 4 86 87
91 1 2 0 4 87 88
92 1 2 0 4 88 89
93 1 2 0 4 89 90
94 1 2 0 4 90 91
95 1 2 0 4 91 92
96 1 2 0 4 92 93
97 1 2 0 4 93 94
98 1 2 0 4 94 95
99 1 2 0 4 95 96
100 1 2 0 4 96 97
101 1 2 0 4 97 98
102 1 2 0 4 98 99
103 1 2 0 4 99 100
104 1 2 0 4 100 101
105 1 2 0 4 101 102
106 1 2 0 4 102 103
107 1 2 0 4 103 104
108 1 2 0 4 104 105
109 1 2 0 4 105 106
110 1 2 0 4 106 107
111 1 2 0 4 107 108
112 1 2 0 4 108 109
113 1 2 0 4 109 110
114 1 2 0 4 110 111
115 1 2 0 4 111 112
116 1 2 0 4 112 113
117 1 2 0 4 113 114
118 1 2 0 4 114 115
119 1 2 0 4 115 116
120 1 2 0 4 116 117
121 1 2 0 4 117 118
122 1 2 0 4 118 119
123 1 2 0 4 119 120
124 1 2 0 4 120 1
125 2 2 0 6 930 387 542
126 2 2 0 6 775 554 155
127 2 2 0 6 556 776 156
128 2 2 0 6 395 595 935
129 2 2 0 6 262 387 930
130 2 2 0 6 364 554 775
131 2 2 0 6 365 776 556
132 2 2 0 6 427 544 991
133 2 2 0 6 623 262 827
134 2 2 0 6 1036 604 371
135 2 2 0 6 935 595 157
136 2 2 0 6 827 262 477
137 2 2 0 6 542 695 125
138 2 2 0 6 346 695 542
139 2 2 0 6 308 513 640
140 2 2 0 6 1042 162 867
141 2 2 0 6 214 366 546
142 2 2 0 6 401 910 572
143 2 2 0 6 155 435 626
144 2 2 0 6 156 627 436
145 2 2 0 6 307 468 632
146 2 2 0 6 198 632 468
147 2 2 0 6 140 356 563
148 2 2 0 6 147 400 561
149 2 2 0 6 268 363 700
150 2 2 0 6 137 700 363
151 2 2 0 6 294 1036 371
152 2 2 0 6 214 544 366
153 2 2 0 6 497 703 865
154 2 2 0 6 991 544 214
155 2 2 0 6 427 906 544
156 2 2 0 6 906 147 544
157 2 2 0 6 24 707 423
158 2 2 0 6 62 425 708
159 2 2 0 6 432 916 715
160 2 2 0 6 625 167 833
161 2 2 0 6 129 724 589
162 2 2 0 6 242 346 571
163 2 2 0 6 356 827 563
164 2 2 0 6 341 589 724
165 2 2 0 6 232 359 584
166 2 2 0 6 233 585 360
167 2 2 0 6 189 418 491
168 2 2 0 6 190 492 419
169 2 2 0 6 227 563 827
170 2 2 0 6 833 167 453
171 2 2 0 6 219 565 354
172 2 2 0 6 195 480 374
173 2 2 0 6 910 131 572
174 2 2 0 6 98 476 734
175 2 2 0 6 399 784 787
176 2 2 0 6 443 878 685
177 2 2 0 6 241 374 633
178 2 2 0 6 137 784 399
179 2 2 0 6 213 613 348
180 2 2 0 6 138 878 443
181 2 2 0 6 214 362 518
182 2 2 0 6 242 695 346
183 2 2 0 6 171 618 862
184 2 2 0 6 506 697 904
185 2 2 0 6 507 905 698
186 2 2 0 6 205 363 521
187 2 2 0 6 308 392 513
188 2 2 0 6 264 393 530
189 2 2 0 6 207 470 672
190 2 2 0 6 208 471 673
191 2 2 0 6 220 514 438
192 2 2 0 6 258 515 437
193 2 2 0 6 259 438 514
194 2 2 0 6 221 437 515
195 2 2 0 6 189 606 418
196 2 2 0 6 260 418 606
197 2 2 0 6 310 566 417
198 2 2 0 6 244 466 526
199 2 2 0 6 173 640 513
200 2 2 0 6 371 763 543
201 2 2 0 6 224 603 370
202 2 2 0 6 124 703 497
203 2 2 0 6 91 359 581
204 2 2 0 6 111 582 360
205 2 2 0 6 412 1042 867
206 2 2 0 6 24 25 707
207 2 2 0 6 61 62 708
208 2 2 0 6 149 588 1044
209 2 2 0 6 215 367 524
210 2 2 0 6 267 543 642
211 2 2 0 6 213 348 612
212 2 2 0 6 130 490 580
213 2 2 0 6 282 375 519
214 2 2 0 6 216 517 487
215 2 2 0 6 254 487 517
216 2 2 0 6 323 715 916
217 2 2 0 6 231 416 621
218 2 2 0 6 98 99 476
219 2 2 0 6 250 570 422
220 2 2 0 6 152 422 570
221 2 2 0 6 207 672 1016
222 2 2 0 6 208 673 1017
223 2 2 0 6 490 946 580
224 2 2 0 6 237 551 444
225 2 2 0 6 236 445 550
226 2 2 0 6 64 65 893
227 2 2 0 6 896 79 80
228 2 2 0 6 895 21 22
229 2 2 0 6 6 7 894
230 2 2 0 6 256 436 819
231 2 2 0 6 128 697 506
232 2 2 0 6 130 507 698
233 2 2 0 6 286 432 715
234 2 2 0 6 16 416 610
235 2 2 0 6 74 417 609
236 2 2 0 6 214 546 362
237 2 2 0 6 267 488 543
238 2 2 0 6 155 626 775
239 2 2 0 6 156 776 627
240 2 2 0 6 198 658 355
241 2 2 0 6 364 860 554
242 2 2 0 6 45 498 635
243 2 2 0 6 171 862 566
244 2 2 0 6 219 354 635
245 2 2 0 6 136 391 598
246 2 2 0 6 143 550 369
247 2 2 0 6 921 650 457
248 2 2 0 6 920 455 649
249 2 2 0 6 169 500 653
250 2 2 0 6 313 653 500
251 2 2 0 6 337 844 537
252 2 2 0 6 412 867 832
253 2 2 0 6 240 519 874
254 2 2 0 6 375 874 519
255 2 2 0 6 232 581 359
256 2 2 0 6 233 360 582
257 2 2 0 6 225 554 860
258 2 2 0 6 149 842 588
259 2 2 0 6 196 622 412
260 2 2 0 6 893 65 493
261 2 2 0 6 496 79 896
262 2 2 0 6 495 21 895
263 2 2 0 6 894 7 494
264 2 2 0 6 91 952 359
265 2 2 0 6 111 360 953
266 2 2 0 6 165 411 488
267 2 2 0 6 218 488 411
268 2 2 0 6 19 472 547
269 2 2 0 6 77 473 548
270 2 2 0 6 164 502 517
271 2 2 0 6 254 517 502
272 2 2 0 6 226 576 373
273 2 2 0 6 300 616 501
274 2 2 0 6 122 501 616
275 2 2 0 6 8 471 728
276 2 2 0 6 66 470 727
277 2 2 0 6 20 729 472
278 2 2 0 6 78 730 473
279 2 2 0 6 436 507 819
280 2 2 0 6 177 815 372
281 2 2 0 6 302 372 815
282 2 2 0 6 303 816 373
283 2 2 0 6 152 570 413
284 2 2 0 6 164 559 502
285 2 2 0 6 264 502 559
286 2 2 0 6 140 706 356
287 2 2 0 6 212 578 478
288 2 2 0 6 215 684 367
289 2 2 0 6 121 543 763
290 2 2 0 6 204 537 844
291 2 2 0 6 216 911 690
292 2 2 0 6 216 487 911
293 2 2 0 6 95 699 370
294 2 2 0 6 267 390 536
295 2 2 0 6 201 400 497
296 2 2 0 6 1082 849 207
297 2 2 0 6 198 750 658
298 2 2 0 6 198 355 632
299 2 2 0 6 66 67 470
300 2 2 0 6 8 9 471
301 2 2 0 6 19 20 472
302 2 2 0 6 77 78 473
303 2 2 0 6 232 404 581
304 2 2 0 6 233 582 405
305 2 2 0 6 268 768 363
306 2 2 0 6 206 710 469
307 2 2 0 6 231 361 750
308 2 2 0 6 361 658 750
309 2 2 0 6 235 489 802
310 2 2 0 6 335 802 489
311 2 2 0 6 224 370 699
312 2 2 0 6 371 604 763
313 2 2 0 6 310 739 566
314 2 2 0 6 44 45 635
315 2 2 0 6 158 617 475
316 2 2 0 6 281 475 617
317 2 2 0 6 210 921 457
318 2 2 0 6 208 455 920
319 2 2 0 6 763 604 278
320 2 2 0 6 142 514 659
321 2 2 0 6 144 660 515
322 2 2 0 6 120 424 766
323 2 2 0 6 82 767 426
324 2 2 0 6 60 708 438
325 2 2 0 6 26 437 707
326 2 2 0 6 373 816 861
327 2 2 0 6 276 719 382
328 2 2 0 6 228 528 385
329 2 2 0 6 229 386 529
330 2 2 0 6 231 924 361
331 2 2 0 6 206 504 710
332 2 2 0 6 291 637 588
333 2 2 0 6 229 568 386
334 2 2 0 6 228 385 569
335 2 2 0 6 243 381 540
336 2 2 0 6 273 562 668
337 2 2 0 6 590 792 151
338 2 2 0 6 377 792 590
339 2 2 0 6 342 652 638
340 2 2 0 6 588 637 883
341 2 2 0 6 212 873 578
342 2 2 0 6 137 363 784
343 2 2 0 6 179 388 534
344 2 2 0 6 180 535 389
345 2 2 0 6 167 536 390
346 2 2 0 6 118 766 463
347 2 2 0 6 84 464 767
348 2 2 0 6 239 530 393
349 2 2 0 6 165 488 592
350 2 2 0 6 267 592 488
351 2 2 0 6 205 705 363
352 2 2 0 6 243 638 652
353 2 2 0 6 410 557 965
354 2 2 0 6 204 395 523
355 2 2 0 6 143 369 607
356 2 2 0 6 332 611 746
357 2 2 0 6 210 548 473
358 2 2 0 6 209 547 472
359 2 2 0 6 965 557 332
360 2 2 0 6 250 422 596
361 2 2 0 6 185 596 422
362 2 2 0 6 184 421 597
363 2 2 0 6 251 597 421
364 2 2 0 6 833 211 598
365 2 2 0 6 391 833 598
366 2 2 0 6 334 639 617
367 2 2 0 6 281 617 639
368 2 2 0 6 251 377 580
369 2 2 0 6 178 861 816
370 2 2 0 6 218 411 512
371 2 2 0 6 250 376 570
372 2 2 0 6 433 940 902
373 2 2 0 6 302 808 372
374 2 2 0 6 303 373 809
375 2 2 0 6 293 399 829
376 2 2 0 6 275 413 510
377 2 2 0 6 283 384 788
378 2 2 0 6 127 919 406
379 2 2 0 6 195 374 588
380 2 2 0 6 96 97 503
381 2 2 0 6 230 379 609
382 2 2 0 6 231 380 610
383 2 2 0 6 241 1044 374
384 2 2 0 6 231 621 549
385 2 2 0 6 140 951 479
386 2 2 0 6 142 659 614
387 2 2 0 6 144 615 660
388 2 2 0 6 182 931 392
389 2 2 0 6 194 381 575
390 2 2 0 6 154 432 677
391 2 2 0 6 286 677 432
392 2 2 0 6 154 608 432
393 2 2 0 6 264 530 624
394 2 2 0 6 183 565 384
395 2 2 0 6 140 512 951
396 2 2 0 6 482 646 925
397 2 2 0 6 212 401 572
398 2 2 0 6 257 579 450
399 2 2 0 6 159 450 579
400 2 2 0 6 146 532 458
401 2 2 0 6 150 571 462
402 2 2 0 6 275 681 413
403 2 2 0 6 152 413 681
404 2 2 0 6 374 480 633
405 2 2 0 6 454 849 1082
406 2 2 0 6 202 435 506
407 2 2 0 6 203 507 436
408 2 2 0 6 282 519 619
409 2 2 0 6 150 428 571
410 2 2 0 6 242 571 428
411 2 2 0 6 373 576 809
412 2 2 0 6 315 706 479
413 2 2 0 6 140 479 706
414 2 2 0 6 141 487 469
415 2 2 0 6 254 469 487
416 2 2 0 6 139 658 806
417 2 2 0 6 109 953 415
418 2 2 0 6 93 414 952
419 2 2 0 6 161 587 478
420 2 2 0 6 180 772 460
421 2 2 0 6 242 541 397
422 2 2 0 6 509 806 948
423 2 2 0 6 534 1019 975
424 2 2 0 6 535 974 1020
425 2 2 0 6 128 599 376
426 2 2 0 6 267 536 592
427 2 2 0 6 192 433 902
428 2 2 0 6 118 119 766
429 2 2 0 6 83 84 767
430 2 2 0 6 1015 446 722
431 2 2 0 6 179 534 975
432 2 2 0 6 180 974 535
433 2 2 0 6 276 555 567
434 2 2 0 6 121 567 555
435 2 2 0 6 1021 575 283
436 2 2 0 6 462 575 1021
437 2 2 0 6 648 234 897
438 2 2 0 6 247 683 618
439 2 2 0 6 244 526 634
440 2 2 0 6 215 1062 647
441 2 2 0 6 274 451 590
442 2 2 0 6 139 806 509
443 2 2 0 6 342 637 652
444 2 2 0 6 135 652 637
445 2 2 0 6 897 234 557
446 2 2 0 6 18 19 547
447 2 2 0 6 76 77 548
448 2 2 0 6 160 525 591
449 2 2 0 6 537 1010 643
450 2 2 0 6 428 647 1062
451 2 2 0 6 294 371 1066
452 2 2 0 6 231 750 380
453 2 2 0 6 232 552 404
454 2 2 0 6 233 405 553
455 2 2 0 6 168 809 576
456 2 2 0 6 95 370 807
457 2 2 0 6 132 742 388
458 2 2 0 6 177 372 1090
459 2 2 0 6 226 373 1091
460 2 2 0 6 374 1044 588
461 2 2 0 6 224 466 603
462 2 2 0 6 82 83 767
463 2 2 0 6 119 120 766
464 2 2 0 6 209 850 456
465 2 2 0 6 244 634 583
466 2 2 0 6 318 583 634
467 2 2 0 6 225 555 554
468 2 2 0 6 276 554 555
469 2 2 0 6 47 684 511
470 2 2 0 6 201 561 400
471 2 2 0 6 180 460 745
472 2 2 0 6 28 402 674
473 2 2 0 6 58 675 403
474 2 2 0 6 301 734 476
475 2 2 0 6 153 619 519
476 2 2 0 6 253 616 656
477 2 2 0 6 278 604 676
478 2 2 0 6 246 587 440
479 2 2 0 6 161 440 587
480 2 2 0 6 361 806 658
481 2 2 0 6 15 16 610
482 2 2 0 6 73 74 609
483 2 2 0 6 432 608 916
484 2 2 0 6 916 608 213
485 2 2 0 6 134 746 611
486 2 2 0 6 331 618 683
487 2 2 0 6 217 411 643
488 2 2 0 6 220 425 893
489 2 2 0 6 221 895 423
490 2 2 0 6 222 424 894
491 2 2 0 6 223 896 426
492 2 2 0 6 252 669 696
493 2 2 0 6 122 718 501
494 2 2 0 6 252 592 536
495 2 2 0 6 253 593 520
496 2 2 0 6 268 520 593
497 2 2 0 6 60 61 708
498 2 2 0 6 25 26 707
499 2 2 0 6 122 429 600
500 2 2 0 6 147 561 825
501 2 2 0 6 146 557 410
502 2 2 0 6 324 902 940
503 2 2 0 6 195 883 482
504 2 2 0 6 342 482 883
505 2 2 0 6 160 591 439
506 2 2 0 6 245 439 591
507 2 2 0 6 225 860 795
508 2 2 0 6 242 428 586
509 2 2 0 6 153 646 482
510 2 2 0 6 260 960 418
511 2 2 0 6 261 419 961
512 2 2 0 6 71 467 847
513 2 2 0 6 13 468 848
514 2 2 0 6 184 597 431
515 2 2 0 6 185 430 596
516 2 2 0 6 235 446 1015
517 2 2 0 6 406 919 686
518 2 2 0 6 296 659 493
519 2 2 0 6 220 493 659
520 2 2 0 6 221 660 495
521 2 2 0 6 298 495 660
522 2 2 0 6 302 589 453
523 2 2 0 6 250 716 376
524 2 2 0 6 282 690 375
525 2 2 0 6 1015 697 489
526 2 2 0 6 251 792 377
527 2 2 0 6 186 398 584
528 2 2 0 6 187 585 399
529 2 2 0 6 252 625 391
530 2 2 0 6 128 376 716
531 2 2 0 6 200 397 900
532 2 2 0 6 262 713 387
533 2 2 0 6 243 652 381
534 2 2 0 6 246 401 587
535 2 2 0 6 283 796 384
536 2 2 0 6 192 902 413
537 2 2 0 6 99 613 476
538 2 2 0 6 230 655 379
539 2 2 0 6 125 726 477
540 2 2 0 6 204 595 395
541 2 2 0 6 308 851 392
542 2 2 0 6 239 393 947
543 2 2 0 6 215 647 984
544 2 2 0 6 147 906 400
545 2 2 0 6 194 810 381
546 2 2 0 6 122 616 429
547 2 2 0 6 253 429 616
548 2 2 0 6 109 110 953
549 2 2 0 6 92 93 952
550 2 2 0 6 165 537 643
551 2 2 0 6 297 728 471
552 2 2 0 6 296 727 470
553 2 2 0 6 298 472 729
554 2 2 0 6 299 473 730
555 2 2 0 6 224 526 466
556 2 2 0 6 321 925 646
557 2 2 0 6 230 417 566
558 2 2 0 6 294 563 564
559 2 2 0 6 227 564 563
560 2 2 0 6 233 553 829
561 2 2 0 6 276 382 743
562 2 2 0 6 337 696 669
563 2 2 0 6 341 724 591
564 2 2 0 6 245 591 724
565 2 2 0 6 47 48 684
566 2 2 0 6 241 427 558
567 2 2 0 6 444 551 822
568 2 2 0 6 445 821 550
569 2 2 0 6 183 384 751
570 2 2 0 6 258 437 891
571 2 2 0 6 259 892 438
572 2 2 0 6 194 387 810
573 2 2 0 6 235 1082 446
574 2 2 0 6 236 1083 447
575 2 2 0 6 210 1085 448
576 2 2 0 6 209 1084 449
577 2 2 0 6 251 580 946
578 2 2 0 6 220 893 493
579 2 2 0 6 222 894 494
580 2 2 0 6 221 495 895
581 2 2 0 6 223 496 896
582 2 2 0 6 236 671 756
583 2 2 0 6 1045 397 200
584 2 2 0 6 235 1015 489
585 2 2 0 6 553 733 829
586 2 2 0 6 96 503 699
587 2 2 0 6 235 454 1082
588 2 2 0 6 236 455 1083
589 2 2 0 6 210 457 1085
590 2 2 0 6 209 456 1084
591 2 2 0 6 143 455 550
592 2 2 0 6 145 551 457
593 2 2 0 6 196 1008 622
594 2 2 0 6 136 669 391
595 2 2 0 6 252 391 669
596 2 2 0 6 105 106 499
597 2 2 0 6 371 543 1066
598 2 2 0 6 121 642 543
599 2 2 0 6 301 476 608
600 2 2 0 6 213 608 476
601 2 2 0 6 501 718 866
602 2 2 0 6 267 642 390
603 2 2 0 6 167 390 795
604 2 2 0 6 454 614 849
605 2 2 0 6 456 850 615
606 2 2 0 6 222 766 424
607 2 2 0 6 223 426 767
608 2 2 0 6 389 777 133
609 2 2 0 6 483 865 867
610 2 2 0 6 199 875 499
611 2 2 0 6 340 499 875
612 2 2 0 6 172 449 723
613 2 2 0 6 201 865 483
614 2 2 0 6 1085 551 237
615 2 2 0 6 457 551 1085
616 2 2 0 6 189 491 781
617 2 2 0 6 190 782 492
618 2 2 0 6 179 771 388
619 2 2 0 6 180 389 772
620 2 2 0 6 917 387 194
621 2 2 0 6 175 668 562
622 2 2 0 6 189 812 606
623 2 2 0 6 368 606 812
624 2 2 0 6 238 698 723
625 2 2 0 6 372 795 860
626 2 2 0 6 236 550 455
627 2 2 0 6 226 429 576
628 2 2 0 6 531 914 890
629 2 2 0 6 430 962 596
630 2 2 0 6 243 545 527
631 2 2 0 6 243 540 545
632 2 2 0 6 264 648 393
633 2 2 0 6 237 670 1085
634 2 2 0 6 187 787 475
635 2 2 0 6 182 392 785
636 2 2 0 6 127 624 530
637 2 2 0 6 225 795 950
638 2 2 0 6 132 388 1081
639 2 2 0 6 1078 389 133
640 2 2 0 6 208 1083 455
641 2 2 0 6 317 865 703
642 2 2 0 6 392 931 513
643 2 2 0 6 221 423 707
644 2 2 0 6 220 708 425
645 2 2 0 6 236 447 671
646 2 2 0 6 263 396 831
647 2 2 0 6 12 13 848
648 2 2 0 6 70 71 847
649 2 2 0 6 319 904 697
650 2 2 0 6 320 698 905
651 2 2 0 6 24 423 1003
652 2 2 0 6 120 1004 424
653 2 2 0 6 62 1005 425
654 2 2 0 6 82 426 1006
655 2 2 0 6 232 983 732
656 2 2 0 6 232 584 983
657 2 2 0 6 448 1085 670
658 2 2 0 6 125 397 636
659 2 2 0 6 1070 938 561
660 2 2 0 6 338 643 1010
661 2 2 0 6 244 395 935
662 2 2 0 6 221 707 437
663 2 2 0 6 220 438 708
664 2 2 0 6 148 481 541
665 2 2 0 6 249 579 573
666 2 2 0 6 127 406 624
667 2 2 0 6 199 420 1014
668 2 2 0 6 399 585 829
669 2 2 0 6 157 595 853
670 2 2 0 6 260 691 960
671 2 2 0 6 261 961 692
672 2 2 0 6 242 397 695
673 2 2 0 6 266 793 409
674 2 2 0 6 265 408 794
675 2 2 0 6 102 396 834
676 2 2 0 6 149 558 518
677 2 2 0 6 201 1070 561
678 2 2 0 6 212 572 505
679 2 2 0 6 269 909 407
680 2 2 0 6 246 910 401
681 2 2 0 6 5 894 1004
682 2 2 0 6 23 1003 895
683 2 2 0 6 63 893 1005
684 2 2 0 6 81 1006 896
685 2 2 0 6 292 598 525
686 2 2 0 6 211 525 598
687 2 2 0 6 212 846 401
688 2 2 0 6 525 899 591
689 2 2 0 6 222 463 766
690 2 2 0 6 223 767 464
691 2 2 0 6 143 649 455
692 2 2 0 6 145 457 650
693 2 2 0 6 137 399 839
694 2 2 0 6 293 839 399
695 2 2 0 6 335 596 962
696 2 2 0 6 230 609 417
697 2 2 0 6 231 610 416
698 2 2 0 6 228 534 680
699 2 2 0 6 139 442 620
700 2 2 0 6 248 620 442
701 2 2 0 6 424 1004 894
702 2 2 0 6 423 895 1003
703 2 2 0 6 425 1005 893
704 2 2 0 6 426 896 1006
705 2 2 0 6 249 605 619
706 2 2 0 6 287 441 1060
707 2 2 0 6 288 1061 442
708 2 2 0 6 226 600 429
709 2 2 0 6 69 70 701
710 2 2 0 6 11 12 702
711 2 2 0 6 194 575 462
712 2 2 0 6 218 543 488
713 2 2 0 6 124 497 633
714 2 2 0 6 102 831 396
715 2 2 0 6 431 597 992
716 2 2 0 6 328 578 873
717 2 2 0 6 326 712 501
718 2 2 0 6 238 490 698
719 2 2 0 6 28 944 402
720 2 2 0 6 58 403 943
721 2 2 0 6 305 787 784
722 2 2 0 6 309 957 735
723 2 2 0 6 213 476 613
724 2 2 0 6 130 580 465
725 2 2 0 6 239 641 530
726 2 2 0 6 237 444 755
727 2 2 0 6 131 445 756
728 2 2 0 6 51 889 409
729 2 2 0 6 35 408 888
730 2 2 0 6 244 828 395
731 2 2 0 6 125 695 397
732 2 2 0 6 311 621 416
733 2 2 0 6 224 699 503
734 2 2 0 6 309 594 957
735 2 2 0 6 186 786 398
736 2 2 0 6 187 399 787
737 2 2 0 6 229 529 863
738 2 2 0 6 171 566 739
739 2 2 0 6 217 951 411
740 2 2 0 6 263 738 396
741 2 2 0 6 508 854 878
742 2 2 0 6 413 902 510
743 2 2 0 6 286 922 678
744 2 2 0 6 142 454 802
745 2 2 0 6 318 785 986
746 2 2 0 6 125 636 726
747 2 2 0 6 318 986 583
748 2 2 0 6 258 674 402
749 2 2 0 6 259 403 675
750 2 2 0 6 382 719 1072
751 2 2 0 6 359 1000 584
752 2 2 0 6 360 585 1001
753 2 2 0 6 199 1014 458
754 2 2 0 6 206 907 406
755 2 2 0 6 145 539 824
756 2 2 0 6 277 600 556
757 2 2 0 6 226 556 600
758 2 2 0 6 165 643 411
759 2 2 0 6 12 848 702
760 2 2 0 6 70 847 701
761 2 2 0 6 206 406 686
762 2 2 0 6 300 656 616
763 2 2 0 6 258 402 804
764 2 2 0 6 259 805 403
765 2 2 0 6 269 407 820
766 2 2 0 6 136 657 669
767 2 2 0 6 337 669 657
768 2 2 0 6 257 573 579
769 2 2 0 6 239 928 641
770 2 2 0 6 197 655 443
771 2 2 0 6 210 448 885
772 2 2 0 6 209 449 886
773 2 2 0 6 293 478 578
774 2 2 0 6 42 407 909
775 2 2 0 6 242 586 541
776 2 2 0 6 378 770 881
777 2 2 0 6 105 499 973
778 2 2 0 6 241 898 906
779 2 2 0 6 188 890 914
780 2 2 0 6 99 100 613
781 2 2 0 6 42 811 407
782 2 2 0 6 215 511 684
783 2 2 0 6 239 947 458
784 2 2 0 6 255 968 435
785 2 2 0 6 249 527 545
786 2 2 0 6 478 587 846
787 2 2 0 6 319 653 854
788 2 2 0 6 319 854 904
789 2 2 0 6 159 545 540
790 2 2 0 6 107 639 836
791 2 2 0 6 202 854 508
792 2 2 0 6 210 885 548
793 2 2 0 6 209 886 547
794 2 2 0 6 238 1084 803
795 2 2 0 6 123 522 605
796 2 2 0 6 452 1008 918
797 2 2 0 6 121 555 642
798 2 2 0 6 352 1019 569
799 2 2 0 6 351 568 1020
800 2 2 0 6 241 906 427
801 2 2 0 6 384 565 788
802 2 2 0 6 390 950 795
803 2 2 0 6 154 912 608
804 2 2 0 6 412 936 1042
805 2 2 0 6 264 624 502
806 2 2 0 6 126 523 828
807 2 2 0 6 153 482 638
808 2 2 0 6 574 845 939
809 2 2 0 6 286 651 922
810 2 2 0 6 241 558 1044
811 2 2 0 6 321 869 480
812 2 2 0 6 200 481 791
813 2 2 0 6 325 941 451
814 2 2 0 6 193 451 941
815 2 2 0 6 202 626 435
816 2 2 0 6 203 436 627
817 2 2 0 6 336 992 597
818 2 2 0 6 303 505 572
819 2 2 0 6 1008 196 918
820 2 2 0 6 93 679 414
821 2 2 0 6 280 414 679
822 2 2 0 6 249 545 579
823 2 2 0 6 295 498 1002
824 2 2 0 6 187 475 798
825 2 2 0 6 168 720 505
826 2 2 0 6 452 874 1009
827 2 2 0 6 222 662 463
828 2 2 0 6 260 661 464
829 2 2 0 6 261 463 662
830 2 2 0 6 223 464 661
831 2 2 0 6 35 794 408
832 2 2 0 6 51 409 793
833 2 2 0 6 265 769 408
834 2 2 0 6 266 409 745
835 2 2 0 6 183 751 461
836 2 2 0 6 291 461 751
837 2 2 0 6 237 1048 670
838 2 2 0 6 247 663 441
839 2 2 0 6 248 442 664
840 2 2 0 6 326 1042 936
841 2 2 0 6 146 410 915
842 2 2 0 6 285 460 772
843 2 2 0 6 330 756 671
844 2 2 0 6 84 691 464
845 2 2 0 6 118 463 692
846 2 2 0 6 124 480 869
847 2 2 0 6 1009 874 141
848 2 2 0 6 253 826 429
849 2 2 0 6 157 603 466
850 2 2 0 6 138 443 994
851 2 2 0 6 332 1046 611
852 2 2 0 6 462 571 887
853 2 2 0 6 529 681 863
854 2 2 0 6 148 586 524
855 2 2 0 6 142 614 454
856 2 2 0 6 144 456 615
857 2 2 0 6 240 646 519
858 2 2 0 6 172 723 1028
859 2 2 0 6 38 39 546
860 2 2 0 6 311 416 970
861 2 2 0 6 310 417 971
862 2 2 0 6 258 891 674
863 2 2 0 6 259 675 892
864 2 2 0 6 219 635 498
865 2 2 0 6 413 570 799
866 2 2 0 6 150 647 428
867 2 2 0 6 456 803 1084
868 2 2 0 6 305 475 787
869 2 2 0 6 251 421 792
870 2 2 0 6 534 1064 680
871 2 2 0 6 191 881 770
872 2 2 0 6 281 711 415
873 2 2 0 6 169 446 630
874 2 2 0 6 170 447 631
875 2 2 0 6 287 1060 778
876 2 2 0 6 288 779 1061
877 2 2 0 6 1086 308 640
878 2 2 0 6 218 1066 543
879 2 2 0 6 753 308 1086
880 2 2 0 6 400 906 898
881 2 2 0 6 196 412 832
882 2 2 0 6 879 138 683
883 2 2 0 6 441 879 683
884 2 2 0 6 322 531 890
885 2 2 0 6 282 619 605
886 2 2 0 6 333 901 513
887 2 2 0 6 173 513 901
888 2 2 0 6 136 598 838
889 2 2 0 6 245 812 439
890 2 2 0 6 190 813 440
891 2 2 0 6 247 441 683
892 2 2 0 6 109 415 711
893 2 2 0 6 278 676 602
894 2 2 0 6 192 413 799
895 2 2 0 6 167 808 453
896 2 2 0 6 302 453 808
897 2 2 0 6 163 676 604
898 2 2 0 6 95 96 699
899 2 2 0 6 293 733 478
900 2 2 0 6 161 478 733
901 2 2 0 6 539 661 824
902 2 2 0 6 245 822 812
903 2 2 0 6 126 828 583
904 2 2 0 6 280 797 414
905 2 2 0 6 281 415 798
906 2 2 0 6 91 92 952
907 2 2 0 6 110 111 953
908 2 2 0 6 239 458 1014
909 2 2 0 6 363 768 521
910 2 2 0 6 148 541 586
911 2 2 0 6 246 445 910
912 2 2 0 6 153 638 527
913 2 2 0 6 143 538 649
914 2 2 0 6 145 650 539
915 2 2 0 6 123 605 573
916 2 2 0 6 199 709 420
917 2 2 0 6 295 1002 814
918 2 2 0 6 129 444 724
919 2 2 0 6 111 112 582
920 2 2 0 6 90 91 581
921 2 2 0 6 16 970 416
922 2 2 0 6 74 971 417
923 2 2 0 6 354 565 997
924 2 2 0 6 155 693 435
925 2 2 0 6 255 435 693
926 2 2 0 6 256 694 436
927 2 2 0 6 156 436 694
928 2 2 0 6 261 773 419
929 2 2 0 6 253 656 593
930 2 2 0 6 190 419 773
931 2 2 0 6 340 973 499
932 2 2 0 6 366 956 546
933 2 2 0 6 184 758 421
934 2 2 0 6 185 422 759
935 2 2 0 6 152 760 422
936 2 2 0 6 365 556 1091
937 2 2 0 6 273 668 601
938 2 2 0 6 141 874 911
939 2 2 0 6 47 511 814
940 2 2 0 6 349 516 978
941 2 2 0 6 316 845 574
942 2 2 0 6 199 458 875
943 2 2 0 6 159 579 545
944 2 2 0 6 249 619 527
945 2 2 0 6 205 978 516
946 2 2 0 6 244 935 466
947 2 2 0 6 458 532 875
948 2 2 0 6 151 792 757
949 2 2 0 6 421 757 792
950 2 2 0 6 259 981 430
951 2 2 0 6 58 59 675
952 2 2 0 6 27 28 674
953 2 2 0 6 170 671 447
954 2 2 0 6 26 891 437
955 2 2 0 6 60 438 892
956 2 2 0 6 216 522 923
957 2 2 0 6 342 638 482
958 2 2 0 6 259 430 805
959 2 2 0 6 197 443 685
960 2 2 0 6 171 448 670
961 2 2 0 6 186 474 786
962 2 2 0 6 304 786 474
963 2 2 0 6 270 758 484
964 2 2 0 6 271 485 759
965 2 2 0 6 127 641 533
966 2 2 0 6 301 736 503
967 2 2 0 6 224 503 736
968 2 2 0 6 388 742 1064
969 2 2 0 6 139 880 442
970 2 2 0 6 179 459 771
971 2 2 0 6 284 771 459
972 2 2 0 6 186 584 1000
973 2 2 0 6 187 1001 585
974 2 2 0 6 352 569 979
975 2 2 0 6 351 980 568
976 2 2 0 6 404 1023 581
977 2 2 0 6 405 582 1022
978 2 2 0 6 435 968 506
979 2 2 0 6 347 1045 486
980 2 2 0 6 141 469 710
981 2 2 0 6 184 431 804
982 2 2 0 6 185 805 430
983 2 2 0 6 439 812 781
984 2 2 0 6 812 189 781
985 2 2 0 6 315 479 1086
986 2 2 0 6 198 468 1040
987 2 2 0 6 282 605 522
988 2 2 0 6 192 747 433
989 2 2 0 6 67 672 470
990 2 2 0 6 9 673 471
991 2 2 0 6 39 1041 546
992 2 2 0 6 124 633 480
993 2 2 0 6 465 937 837
994 2 2 0 6 257 594 573
995 2 2 0 6 123 573 594
996 2 2 0 6 193 1032 451
997 2 2 0 6 320 723 698
998 2 2 0 6 326 936 712
999 2 2 0 6 334 836 639
1000 2 2 0 6 988 299 730
1001 2 2 0 6 987 728 297
1002 2 2 0 6 252 536 625
1003 2 2 0 6 160 439 780
1004 2 2 0 6 190 440 782
1005 2 2 0 6 161 783 440
1006 2 2 0 6 246 440 813
1007 2 2 0 6 200 486 1045
1008 2 2 0 6 107 108 639
1009 2 2 0 6 937 193 837
1010 2 2 0 6 461 842 754
1011 2 2 0 6 287 626 508
1012 2 2 0 6 202 508 626
1013 2 2 0 6 203 627 509
1014 2 2 0 6 288 509 627
1015 2 2 0 6 287 879 441
1016 2 2 0 6 288 442 880
1017 2 2 0 6 496 988 730
1018 2 2 0 6 494 728 987
1019 2 2 0 6 5 6 894
1020 2 2 0 6 63 64 893
1021 2 2 0 6 22 23 895
1022 2 2 0 6 80 81 896
1023 2 2 0 6 131 910 445
1024 2 2 0 6 274 590 976
1025 2 2 0 6 289 781 491
1026 2 2 0 6 290 492 782
1027 2 2 0 6 368 812 822
1028 2 2 0 6 321 480 925
1029 2 2 0 6 53 54 568
1030 2 2 0 6 32 33 569
1031 2 2 0 6 347 486 1054
1032 2 2 0 6 146 458 947
1033 2 2 0 6 139 620 658
1034 2 2 0 6 257 450 770
1035 2 2 0 6 159 713 450
1036 2 2 0 6 249 573 605
1037 2 2 0 6 397 1045 636
1038 2 2 0 6 266 745 460
1039 2 2 0 6 131 801 572
1040 2 2 0 6 183 997 565
1041 2 2 0 6 245 724 444
1042 2 2 0 6 411 951 512
1043 2 2 0 6 169 722 446
1044 2 2 0 6 154 526 912
1045 2 2 0 6 277 744 872
1046 2 2 0 6 149 754 842
1047 2 2 0 6 282 522 690
1048 2 2 0 6 216 690 522
1049 2 2 0 6 191 450 949
1050 2 2 0 6 269 461 754
1051 2 2 0 6 171 739 448
1052 2 2 0 6 172 740 449
1053 2 2 0 6 304 595 844
1054 2 2 0 6 195 925 480
1055 2 2 0 6 153 527 619
1056 2 2 0 6 129 755 444
1057 2 2 0 6 236 756 445
1058 2 2 0 6 172 549 621
1059 2 2 0 6 274 742 451
1060 2 2 0 6 228 569 1019
1061 2 2 0 6 229 1020 568
1062 2 2 0 6 131 756 877
1063 2 2 0 6 260 464 691
1064 2 2 0 6 261 692 463
1065 2 2 0 6 206 469 907
1066 2 2 0 6 128 506 968
1067 2 2 0 6 245 444 822
1068 2 2 0 6 246 821 445
1069 2 2 0 6 191 770 450
1070 2 2 0 6 314 948 806
1071 2 2 0 6 201 483 1070
1072 2 2 0 6 362 667 1007
1073 2 2 0 6 325 451 929
1074 2 2 0 6 349 641 928
1075 2 2 0 6 211 453 841
1076 2 2 0 6 154 634 526
1077 2 2 0 6 130 465 819
1078 2 2 0 6 200 1071 486
1079 2 2 0 6 151 528 976
1080 2 2 0 6 148 741 460
1081 2 2 0 6 266 460 741
1082 2 2 0 6 486 1092 1054
1083 2 2 0 6 177 663 815
1084 2 2 0 6 357 815 663
1085 2 2 0 6 358 664 816
1086 2 2 0 6 178 816 664
1087 2 2 0 6 265 459 769
1088 2 2 0 6 134 764 651
1089 2 2 0 6 343 651 764
1090 2 2 0 6 265 749 459
1091 2 2 0 6 270 484 1080
1092 2 2 0 6 271 1079 485
1093 2 2 0 6 362 546 1041
1094 2 2 0 6 285 882 460
1095 2 2 0 6 231 549 924
1096 2 2 0 6 205 516 705
1097 2 2 0 6 211 833 453
1098 2 2 0 6 179 769 459
1099 2 2 0 6 167 625 536
1100 2 2 0 6 235 802 454
1101 2 2 0 6 144 803 456
1102 2 2 0 6 173 735 762
1103 2 2 0 6 378 762 735
1104 2 2 0 6 168 826 520
1105 2 2 0 6 383 872 744
1106 2 2 0 6 163 1054 1092
1107 2 2 0 6 344 1016 672
1108 2 2 0 6 345 1017 673
1109 2 2 0 6 284 459 825
1110 2 2 0 6 148 460 882
1111 2 2 0 6 183 461 820
1112 2 2 0 6 338 1010 523
1113 2 2 0 6 181 612 955
1114 2 2 0 6 243 527 638
1115 2 2 0 6 142 802 962
1116 2 2 0 6 46 47 814
1117 2 2 0 6 269 820 461
1118 2 2 0 6 196 1050 918
1119 2 2 0 6 128 716 489
1120 2 2 0 6 37 956 644
1121 2 2 0 6 153 519 646
1122 2 2 0 6 291 842 461
1123 2 2 0 6 555 950 642
1124 2 2 0 6 505 720 873
1125 2 2 0 6 194 462 887
1126 2 2 0 6 289 491 963
1127 2 2 0 6 290 964 492
1128 2 2 0 6 165 696 537
1129 2 2 0 6 522 845 923
1130 2 2 0 6 150 462 1021
1131 2 2 0 6 304 844 657
1132 2 2 0 6 157 466 935
1133 2 2 0 6 386 568 1075
1134 2 2 0 6 385 1076 569
1135 2 2 0 6 140 993 512
1136 2 2 0 6 154 677 634
1137 2 2 0 6 318 634 677
1138 2 2 0 6 446 1082 1016
1139 2 2 0 6 447 1083 1017
1140 2 2 0 6 349 1047 516
1141 2 2 0 6 127 530 641
1142 2 2 0 6 256 819 465
1143 2 2 0 6 317 1050 832
1144 2 2 0 6 306 467 858
1145 2 2 0 6 216 923 517
1146 2 2 0 6 158 516 1047
1147 2 2 0 6 256 465 837
1148 2 2 0 6 220 659 514
1149 2 2 0 6 221 515 660
1150 2 2 0 6 753 951 217
1151 2 2 0 6 479 951 753
1152 2 2 0 6 193 941 837
1153 2 2 0 6 453 589 841
1154 2 2 0 6 197 685 500
1155 2 2 0 6 281 798 475
1156 2 2 0 6 317 703 1050
1157 2 2 0 6 237 755 1048
1158 2 2 0 6 217 643 1056
1159 2 2 0 6 200 791 1071
1160 2 2 0 6 125 477 930
1161 2 2 0 6 331 862 618
1162 2 2 0 6 448 739 885
1163 2 2 0 6 449 740 886
1164 2 2 0 6 238 803 1043
1165 2 2 0 6 303 809 505
1166 2 2 0 6 168 505 809
1167 2 2 0 6 300 871 656
1168 2 2 0 6 29 1080 484
1169 2 2 0 6 57 485 1079
1170 2 2 0 6 227 477 726
1171 2 2 0 6 144 982 992
1172 2 2 0 6 71 817 467
1173 2 2 0 6 13 818 468
1174 2 2 0 6 49 50 645
1175 2 2 0 6 36 37 644
1176 2 2 0 6 240 870 646
1177 2 2 0 6 128 489 697
1178 2 2 0 6 130 698 490
1179 2 2 0 6 106 836 499
1180 2 2 0 6 84 85 691
1181 2 2 0 6 117 118 692
1182 2 2 0 6 297 649 538
1183 2 2 0 6 299 539 650
1184 2 2 0 6 204 523 1010
1185 2 2 0 6 300 840 871
1186 2 2 0 6 162 852 483
1187 2 2 0 6 313 500 685
1188 2 2 0 6 65 727 493
1189 2 2 0 6 296 493 727
1190 2 2 0 6 298 729 495
1191 2 2 0 6 21 495 729
1192 2 2 0 6 7 728 494
1193 2 2 0 6 79 496 730
1194 2 2 0 6 306 847 467
1195 2 2 0 6 307 848 468
1196 2 2 0 6 160 780 552
1197 2 2 0 6 161 553 783
1198 2 2 0 6 123 939 845
1199 2 2 0 6 375 911 874
1200 2 2 0 6 226 1091 556
1201 2 2 0 6 254 907 469
1202 2 2 0 6 238 1043 490
1203 2 2 0 6 234 648 559
1204 2 2 0 6 264 559 648
1205 2 2 0 6 338 523 1051
1206 2 2 0 6 1049 339 710
1207 2 2 0 6 504 1049 710
1208 2 2 0 6 208 920 471
1209 2 2 0 6 210 473 921
1210 2 2 0 6 434 837 941
1211 2 2 0 6 279 903 1018
1212 2 2 0 6 207 849 470
1213 2 2 0 6 296 470 849
1214 2 2 0 6 298 850 472
1215 2 2 0 6 209 472 850
1216 2 2 0 6 280 474 797
1217 2 2 0 6 186 797 474
1218 2 2 0 6 252 696 592
1219 2 2 0 6 122 600 934
1220 2 2 0 6 313 878 854
1221 2 2 0 6 387 713 1057
1222 2 2 0 6 124 869 703
1223 2 2 0 6 394 703 869
1224 2 2 0 6 305 913 475
1225 2 2 0 6 362 1041 667
1226 2 2 0 6 197 1039 655
1227 2 2 0 6 280 823 474
1228 2 2 0 6 262 930 477
1229 2 2 0 6 219 498 737
1230 2 2 0 6 295 737 498
1231 2 2 0 6 222 538 662
1232 2 2 0 6 223 661 539
1233 2 2 0 6 316 531 765
1234 2 2 0 6 164 765 531
1235 2 2 0 6 343 890 774
1236 2 2 0 6 297 471 920
1237 2 2 0 6 299 921 473
1238 2 2 0 6 497 898 633
1239 2 2 0 6 387 917 542
1240 2 2 0 6 160 552 958
1241 2 2 0 6 145 1074 551
1242 2 2 0 6 151 757 528
1243 2 2 0 6 152 529 760
1244 2 2 0 6 181 864 612
1245 2 2 0 6 130 819 507
1246 2 2 0 6 166 521 768
1247 2 2 0 6 158 475 913
1248 2 2 0 6 304 474 853
1249 2 2 0 6 300 501 712
1250 2 2 0 6 227 827 477
1251 2 2 0 6 168 576 826
1252 2 2 0 6 317 832 867
1253 2 2 0 6 134 611 764
1254 2 2 0 6 322 764 611
1255 2 2 0 6 412 622 936
1256 2 2 0 6 429 826 576
1257 2 2 0 6 174 1072 719
1258 2 2 0 6 259 514 981
1259 2 2 0 6 144 515 982
1260 2 2 0 6 97 734 503
1261 2 2 0 6 285 791 481
1262 2 2 0 6 128 968 599
1263 2 2 0 6 346 887 571
1264 2 2 0 6 368 551 1074
1265 2 2 0 6 212 478 846
1266 2 2 0 6 234 559 985
1267 2 2 0 6 366 644 956
1268 2 2 0 6 228 680 528
1269 2 2 0 6 152 681 529
1270 2 2 0 6 266 645 793
1271 2 2 0 6 265 794 644
1272 2 2 0 6 381 810 540
1273 2 2 0 6 113 688 1022
1274 2 2 0 6 89 1023 687
1275 2 2 0 6 148 882 481
1276 2 2 0 6 29 484 944
1277 2 2 0 6 57 943 485
1278 2 2 0 6 305 705 516
1279 2 2 0 6 195 482 925
1280 2 2 0 6 218 512 714
1281 2 2 0 6 352 975 1019
1282 2 2 0 6 351 1020 974
1283 2 2 0 6 301 503 734
1284 2 2 0 6 87 963 491
1285 2 2 0 6 115 492 964
1286 2 2 0 6 200 900 481
1287 2 2 0 6 165 592 696
1288 2 2 0 6 188 574 752
1289 2 2 0 6 309 752 574
1290 2 2 0 6 317 867 865
1291 2 2 0 6 285 481 882
1292 2 2 0 6 348 955 612
1293 2 2 0 6 339 622 1008
1294 2 2 0 6 263 831 628
1295 2 2 0 6 162 483 867
1296 2 2 0 6 340 628 973
1297 2 2 0 6 51 52 889
1298 2 2 0 6 34 35 888
1299 2 2 0 6 395 828 523
1300 2 2 0 6 275 510 777
1301 2 2 0 6 313 685 878
1302 2 2 0 6 103 104 628
1303 2 2 0 6 335 489 945
1304 2 2 0 6 141 911 487
1305 2 2 0 6 45 1002 498
1306 2 2 0 6 528 680 976
1307 2 2 0 6 526 736 912
1308 2 2 0 6 518 558 991
1309 2 2 0 6 337 537 696
1310 2 2 0 6 269 667 909
1311 2 2 0 6 341 591 899
1312 2 2 0 6 418 926 491
1313 2 2 0 6 419 492 927
1314 2 2 0 6 431 992 982
1315 2 2 0 6 222 494 987
1316 2 2 0 6 223 988 496
1317 2 2 0 6 629 1069 1087
1318 2 2 0 6 168 520 720
1319 2 2 0 6 87 491 926
1320 2 2 0 6 115 927 492
1321 2 2 0 6 283 575 796
1322 2 2 0 6 446 1016 630
1323 2 2 0 6 447 1017 631
1324 2 2 0 6 1093 682 1013
1325 2 2 0 6 54 1075 568
1326 2 2 0 6 32 569 1076
1327 2 2 0 6 309 901 752
1328 2 2 0 6 272 682 1093
1329 2 2 0 6 146 915 532
1330 2 2 0 6 322 717 531
1331 2 2 0 6 164 531 717
1332 2 2 0 6 199 499 969
1333 2 2 0 6 49 645 1034
1334 2 2 0 6 170 1069 629
1335 2 2 0 6 205 521 830
1336 2 2 0 6 101 102 834
1337 2 2 0 6 308 753 577
1338 2 2 0 6 217 577 753
1339 2 2 0 6 201 497 865
1340 2 2 0 6 67 68 672
1341 2 2 0 6 9 10 673
1342 2 2 0 6 400 898 497
1343 2 2 0 6 533 641 978
1344 2 2 0 6 149 518 754
1345 2 2 0 6 197 500 858
1346 2 2 0 6 169 859 500
1347 2 2 0 6 261 1059 607
1348 2 2 0 6 274 1064 742
1349 2 2 0 6 164 517 765
1350 2 2 0 6 113 114 688
1351 2 2 0 6 88 89 687
1352 2 2 0 6 148 524 741
1353 2 2 0 6 166 593 656
1354 2 2 0 6 224 736 526
1355 2 2 0 6 135 843 796
1356 2 2 0 6 405 1022 688
1357 2 2 0 6 404 687 1023
1358 2 2 0 6 254 502 959
1359 2 2 0 6 295 814 511
1360 2 2 0 6 326 501 866
1361 2 2 0 6 303 572 801
1362 2 2 0 6 280 679 807
1363 2 2 0 6 280 807 1052
1364 2 2 0 6 206 1038 504
1365 2 2 0 6 287 508 879
1366 2 2 0 6 288 880 509
1367 2 2 0 6 205 830 533
1368 2 2 0 6 136 838 884
1369 2 2 0 6 214 518 991
1370 2 2 0 6 274 680 1064
1371 2 2 0 6 33 979 569
1372 2 2 0 6 53 568 980
1373 2 2 0 6 459 749 825
1374 2 2 0 6 147 825 749
1375 2 2 0 6 269 1007 667
1376 2 2 0 6 268 966 520
1377 2 2 0 6 215 984 511
1378 2 2 0 6 38 546 956
1379 2 2 0 6 212 505 873
1380 2 2 0 6 295 511 984
1381 2 2 0 6 332 557 1046
1382 2 2 0 6 279 1018 689
1383 2 2 0 6 384 796 843
1384 2 2 0 6 172 621 740
1385 2 2 0 6 202 506 904
1386 2 2 0 6 203 905 507
1387 2 2 0 6 379 655 1039
1388 2 2 0 6 258 804 982
1389 2 2 0 6 215 524 1062
1390 2 2 0 6 203 509 948
1391 2 2 0 6 451 1032 590
1392 2 2 0 6 502 624 959
1393 2 2 0 6 134 715 746
1394 2 2 0 6 293 578 839
1395 2 2 0 6 138 508 878
1396 2 2 0 6 138 879 508
1397 2 2 0 6 139 509 880
1398 2 2 0 6 287 775 626
1399 2 2 0 6 288 627 776
1400 2 2 0 6 125 930 542
1401 2 2 0 6 207 1016 1082
1402 2 2 0 6 208 1017 1083
1403 2 2 0 6 253 520 826
1404 2 2 0 6 126 1051 523
1405 2 2 0 6 315 881 706
1406 2 2 0 6 142 981 514
1407 2 2 0 6 258 982 515
1408 2 2 0 6 169 653 722
1409 2 2 0 6 319 722 653
1410 2 2 0 6 157 853 823
1411 2 2 0 6 333 513 931
1412 2 2 0 6 385 528 1067
1413 2 2 0 6 386 1068 529
1414 2 2 0 6 474 823 853
1415 2 2 0 6 272 601 668
1416 2 2 0 6 247 618 908
1417 2 2 0 6 314 549 855
1418 2 2 0 6 172 855 549
1419 2 2 0 6 158 913 516
1420 2 2 0 6 368 822 551
1421 2 2 0 6 369 550 821
1422 2 2 0 6 398 884 838
1423 2 2 0 6 166 768 593
1424 2 2 0 6 270 1080 666
1425 2 2 0 6 271 665 1079
1426 2 2 0 6 123 845 522
1427 2 2 0 6 261 662 1059
1428 2 2 0 6 296 614 659
1429 2 2 0 6 298 660 615
1430 2 2 0 6 55 56 665
1431 2 2 0 6 30 31 666
1432 2 2 0 6 355 658 620
1433 2 2 0 6 305 516 913
1434 2 2 0 6 40 41 667
1435 2 2 0 6 323 612 864
1436 2 2 0 6 164 717 559
1437 2 2 0 6 232 732 552
1438 2 2 0 6 161 733 553
1439 2 2 0 6 335 945 596
1440 2 2 0 6 250 596 945
1441 2 2 0 6 251 946 597
1442 2 2 0 6 336 597 946
1443 2 2 0 6 195 588 883
1444 2 2 0 6 431 982 804
1445 2 2 0 6 18 547 790
1446 2 2 0 6 76 548 789
1447 2 2 0 6 171 908 618
1448 2 2 0 6 132 1081 725
1449 2 2 0 6 273 718 562
1450 2 2 0 6 277 562 934
1451 2 2 0 6 133 721 1078
1452 2 2 0 6 147 749 544
1453 2 2 0 6 247 908 856
1454 2 2 0 6 292 525 958
1455 2 2 0 6 94 95 807
1456 2 2 0 6 362 1007 518
1457 2 2 0 6 276 743 554
1458 2 2 0 6 277 556 744
1459 2 2 0 6 388 1064 534
1460 2 2 0 6 389 535 1063
1461 2 2 0 6 102 103 831
1462 2 2 0 6 108 109 711
1463 2 2 0 6 312 533 830
1464 2 2 0 6 279 676 1092
1465 2 2 0 6 166 1058 521
1466 2 2 0 6 279 602 676
1467 2 2 0 6 155 554 743
1468 2 2 0 6 156 744 556
1469 2 2 0 6 377 937 580
1470 2 2 0 6 219 737 560
1471 2 2 0 6 467 1039 858
1472 2 2 0 6 284 825 561
1473 2 2 0 6 248 857 629
1474 2 2 0 6 330 629 857
1475 2 2 0 6 276 567 719
1476 2 2 0 6 311 740 621
1477 2 2 0 6 170 629 671
1478 2 2 0 6 396 738 955
1479 2 2 0 6 483 1093 1070
1480 2 2 0 6 706 881 999
1481 2 2 0 6 367 1031 524
1482 2 2 0 6 143 1059 538
1483 2 2 0 6 552 732 958
1484 2 2 0 6 174 602 704
1485 2 2 0 6 535 1020 863
1486 2 2 0 6 1020 229 863
1487 2 2 0 6 279 1092 903
1488 2 2 0 6 379 932 609
1489 2 2 0 6 380 933 610
1490 2 2 0 6 211 899 525
1491 2 2 0 6 278 567 763
1492 2 2 0 6 160 958 525
1493 2 2 0 6 159 1057 713
1494 2 2 0 6 273 601 748
1495 2 2 0 6 188 774 890
1496 2 2 0 6 481 900 541
1497 2 2 0 6 222 987 538
1498 2 2 0 6 223 539 988
1499 2 2 0 6 484 758 1025
1500 2 2 0 6 485 1026 759
1501 2 2 0 6 93 94 679
1502 2 2 0 6 277 872 562
1503 2 2 0 6 41 42 909
1504 2 2 0 6 219 560 788
1505 2 2 0 6 512 993 714
1506 2 2 0 6 559 717 985
1507 2 2 0 6 228 1019 534
1508 2 2 0 6 367 1034 645
1509 2 2 0 6 340 1065 628
1510 2 2 0 6 134 651 715
1511 2 2 0 6 287 778 775
1512 2 2 0 6 364 775 778
1513 2 2 0 6 288 776 779
1514 2 2 0 6 365 779 776
1515 2 2 0 6 577 1056 1051
1516 2 2 0 6 312 919 533
1517 2 2 0 6 205 533 978
1518 2 2 0 6 316 914 531
1519 2 2 0 6 330 671 629
1520 2 2 0 6 311 790 547
1521 2 2 0 6 310 789 548
1522 2 2 0 6 108 711 639
1523 2 2 0 6 127 533 919
1524 2 2 0 6 219 788 565
1525 2 2 0 6 204 1010 537
1526 2 2 0 6 181 955 738
1527 2 2 0 6 90 581 1023
1528 2 2 0 6 112 1022 582
1529 2 2 0 6 126 577 1051
1530 2 2 0 6 56 57 1079
1531 2 2 0 6 29 30 1080
1532 2 2 0 6 279 704 602
1533 2 2 0 6 150 1021 560
1534 2 2 0 6 121 763 567
1535 2 2 0 6 197 858 1039
1536 2 2 0 6 255 747 599
1537 2 2 0 6 465 580 937
1538 2 2 0 6 311 547 886
1539 2 2 0 6 310 548 885
1540 2 2 0 6 191 623 999
1541 2 2 0 6 356 999 623
1542 2 2 0 6 283 788 560
1543 2 2 0 6 291 588 842
1544 2 2 0 6 297 538 987
1545 2 2 0 6 299 988 539
1546 2 2 0 6 175 835 668
1547 2 2 0 6 104 973 628
1548 2 2 0 6 162 601 852
1549 2 2 0 6 385 1067 666
1550 2 2 0 6 386 665 1068
1551 2 2 0 6 171 670 908
1552 2 2 0 6 334 617 709
1553 2 2 0 6 176 840 712
1554 2 2 0 6 321 646 870
1555 2 2 0 6 376 799 570
1556 2 2 0 6 385 666 1076
1557 2 2 0 6 386 1075 665
1558 2 2 0 6 294 1066 714
1559 2 2 0 6 552 780 1088
1560 2 2 0 6 553 1089 783
1561 2 2 0 6 159 540 1057
1562 2 2 0 6 375 690 911
1563 2 2 0 6 323 746 715
1564 2 2 0 6 517 923 765
1565 2 2 0 6 324 1033 902
1566 2 2 0 6 381 652 1035
1567 2 2 0 6 181 738 965
1568 2 2 0 6 410 965 738
1569 2 2 0 6 314 924 549
1570 2 2 0 6 289 963 687
1571 2 2 0 6 290 688 964
1572 2 2 0 6 190 1053 813
1573 2 2 0 6 510 902 1033
1574 2 2 0 6 273 866 718
1575 2 2 0 6 349 978 641
1576 2 2 0 6 135 1035 652
1577 2 2 0 6 234 1046 557
1578 2 2 0 6 311 970 790
1579 2 2 0 6 310 971 789
1580 2 2 0 6 330 877 756
1581 2 2 0 6 163 1036 564
1582 2 2 0 6 294 993 563
1583 2 2 0 6 281 639 711
1584 2 2 0 6 404 552 1088
1585 2 2 0 6 405 1089 553
1586 2 2 0 6 286 678 677
1587 2 2 0 6 318 677 678
1588 2 2 0 6 524 586 1062
1589 2 2 0 6 346 542 917
1590 2 2 0 6 397 541 900
1591 2 2 0 6 174 1024 602
1592 2 2 0 6 499 836 969
1593 2 2 0 6 97 98 734
1594 2 2 0 6 173 762 640
1595 2 2 0 6 315 640 762
1596 2 2 0 6 260 606 824
1597 2 2 0 6 369 821 813
1598 2 2 0 6 246 813 821
1599 2 2 0 6 42 43 811
1600 2 2 0 6 248 664 857
1601 2 2 0 6 358 857 664
1602 2 2 0 6 357 663 856
1603 2 2 0 6 247 856 663
1604 2 2 0 6 261 607 773
1605 2 2 0 6 410 738 915
1606 2 2 0 6 263 915 738
1607 2 2 0 6 378 881 762
1608 2 2 0 6 394 918 1050
1609 2 2 0 6 284 561 938
1610 2 2 0 6 278 1024 567
1611 2 2 0 6 270 666 1067
1612 2 2 0 6 271 1068 665
1613 2 2 0 6 191 949 623
1614 2 2 0 6 162 748 601
1615 2 2 0 6 268 593 768
1616 2 2 0 6 35 36 794
1617 2 2 0 6 50 51 793
1618 2 2 0 6 302 800 589
1619 2 2 0 6 129 589 800
1620 2 2 0 6 366 544 1027
1621 2 2 0 6 155 743 693
1622 2 2 0 6 382 693 743
1623 2 2 0 6 383 744 694
1624 2 2 0 6 156 694 744
1625 2 2 0 6 65 66 727
1626 2 2 0 6 7 8 728
1627 2 2 0 6 20 21 729
1628 2 2 0 6 78 79 730
1629 2 2 0 6 146 897 557
1630 2 2 0 6 350 1070 1093
1631 2 2 0 6 175 562 872
1632 2 2 0 6 17 18 790
1633 2 2 0 6 75 76 789
1634 2 2 0 6 55 665 1075
1635 2 2 0 6 31 1076 666
1636 2 2 0 6 257 770 957
1637 2 2 0 6 347 726 636
1638 2 2 0 6 74 75 971
1639 2 2 0 6 16 17 970
1640 2 2 0 6 244 583 828
1641 2 2 0 6 230 566 862
1642 2 2 0 6 40 667 1041
1643 2 2 0 6 302 815 800
1644 2 2 0 6 357 800 815
1645 2 2 0 6 358 816 801
1646 2 2 0 6 303 801 816
1647 2 2 0 6 333 752 901
1648 2 2 0 6 126 851 577
1649 2 2 0 6 308 577 851
1650 2 2 0 6 225 950 555
1651 2 2 0 6 233 829 585
1652 2 2 0 6 169 630 859
1653 2 2 0 6 149 1044 558
1654 2 2 0 6 150 560 990
1655 2 2 0 6 356 623 827
1656 2 2 0 6 324 704 689
1657 2 2 0 6 279 689 704
1658 2 2 0 6 292 838 598
1659 2 2 0 6 309 574 939
1660 2 2 0 6 240 874 918
1661 2 2 0 6 452 918 874
1662 2 2 0 6 283 560 1021
1663 2 2 0 6 427 991 558
1664 2 2 0 6 304 853 595
1665 2 2 0 6 320 654 1028
1666 2 2 0 6 366 1027 644
1667 2 2 0 6 265 644 1027
1668 2 2 0 6 270 757 758
1669 2 2 0 6 421 758 757
1670 2 2 0 6 422 760 759
1671 2 2 0 6 271 759 760
1672 2 2 0 6 363 705 784
1673 2 2 0 6 188 914 574
1674 2 2 0 6 316 574 914
1675 2 2 0 6 163 564 1054
1676 2 2 0 6 227 1055 564
1677 2 2 0 6 266 1031 645
1678 2 2 0 6 367 645 1031
1679 2 2 0 6 401 846 587
1680 2 2 0 6 238 723 1084
1681 2 2 0 6 449 1084 723
1682 2 2 0 6 294 564 1036
1683 2 2 0 6 341 841 589
1684 2 2 0 6 87 88 963
1685 2 2 0 6 114 115 964
1686 2 2 0 6 140 563 993
1687 2 2 0 6 286 715 651
1688 2 2 0 6 157 823 603
1689 2 2 0 6 332 746 864
1690 2 2 0 6 86 926 960
1691 2 2 0 6 116 961 927
1692 2 2 0 6 578 972 839
1693 2 2 0 6 204 844 595
1694 2 2 0 6 510 1033 777
1695 2 2 0 6 338 1051 1056
1696 2 2 0 6 532 1065 875
1697 2 2 0 6 340 875 1065
1698 2 2 0 6 1 1004 120
1699 2 2 0 6 2 1003 23
1700 2 2 0 6 2 24 1003
1701 2 2 0 6 1 5 1004
1702 2 2 0 6 3 63 1005
1703 2 2 0 6 3 1005 62
1704 2 2 0 6 4 82 1006
1705 2 2 0 6 4 1006 81
1706 2 2 0 6 343 764 890
1707 2 2 0 6 176 967 840
1708 2 2 0 6 337 657 844
1709 2 2 0 6 309 735 901
1710 2 2 0 6 163 604 1036
1711 2 2 0 6 141 710 1009
1712 2 2 0 6 255 693 1011
1713 2 2 0 6 382 1011 693
1714 2 2 0 6 256 1012 694
1715 2 2 0 6 383 694 1012
1716 2 2 0 6 71 72 817
1717 2 2 0 6 13 14 818
1718 2 2 0 6 391 625 833
1719 2 2 0 6 295 647 990
1720 2 2 0 6 182 678 922
1721 2 2 0 6 378 957 770
1722 2 2 0 6 381 1035 575
1723 2 2 0 6 328 972 578
1724 2 2 0 6 217 1056 577
1725 2 2 0 6 260 824 661
1726 2 2 0 6 309 939 594
1727 2 2 0 6 291 843 637
1728 2 2 0 6 373 861 1091
1729 2 2 0 6 372 860 1090
1730 2 2 0 6 528 757 1067
1731 2 2 0 6 529 1068 760
1732 2 2 0 6 176 712 936
1733 2 2 0 6 28 29 944
1734 2 2 0 6 57 58 943
1735 2 2 0 6 183 820 997
1736 2 2 0 6 213 612 916
1737 2 2 0 6 323 916 612
1738 2 2 0 6 443 989 994
1739 2 2 0 6 106 107 836
1740 2 2 0 6 272 852 601
1741 2 2 0 6 126 583 986
1742 2 2 0 6 133 777 1033
1743 2 2 0 6 365 861 779
1744 2 2 0 6 178 779 861
1745 2 2 0 6 175 942 835
1746 2 2 0 6 301 608 912
1747 2 2 0 6 398 983 584
1748 2 2 0 6 167 795 808
1749 2 2 0 6 372 808 795
1750 2 2 0 6 575 1035 796
1751 2 2 0 6 135 637 843
1752 2 2 0 6 353 1018 903
1753 2 2 0 6 262 623 949
1754 2 2 0 6 428 1062 586
1755 2 2 0 6 103 628 831
1756 2 2 0 6 418 960 926
1757 2 2 0 6 419 927 961
1758 2 2 0 6 404 1088 687
1759 2 2 0 6 289 687 1088
1760 2 2 0 6 290 1089 688
1761 2 2 0 6 405 688 1089
1762 2 2 0 6 406 959 624
1763 2 2 0 6 296 849 614
1764 2 2 0 6 298 615 850
1765 2 2 0 6 307 632 868
1766 2 2 0 6 85 86 960
1767 2 2 0 6 116 117 961
1768 2 2 0 6 312 761 686
1769 2 2 0 6 562 718 934
1770 2 2 0 6 355 620 1087
1771 2 2 0 6 248 1087 620
1772 2 2 0 6 407 997 820
1773 2 2 0 6 123 594 939
1774 2 2 0 6 43 44 998
1775 2 2 0 6 36 644 794
1776 2 2 0 6 50 793 645
1777 2 2 0 6 86 87 926
1778 2 2 0 6 115 116 927
1779 2 2 0 6 272 668 835
1780 2 2 0 6 257 957 594
1781 2 2 0 6 151 976 590
1782 2 2 0 6 174 719 1024
1783 2 2 0 6 328 873 720
1784 2 2 0 6 532 915 1065
1785 2 2 0 6 263 1065 915
1786 2 2 0 6 100 954 613
1787 2 2 0 6 348 613 954
1788 2 2 0 6 59 60 892
1789 2 2 0 6 26 27 891
1790 2 2 0 6 206 686 761
1791 2 2 0 6 370 1052 807
1792 2 2 0 6 332 864 965
1793 2 2 0 6 377 590 1032
1794 2 2 0 6 318 678 785
1795 2 2 0 6 182 785 678
1796 2 2 0 6 277 934 600
1797 2 2 0 6 654 855 1028
1798 2 2 0 6 338 1056 643
1799 2 2 0 6 334 969 836
1800 2 2 0 6 274 976 680
1801 2 2 0 6 273 748 866
1802 2 2 0 6 255 599 968
1803 2 2 0 6 272 835 682
1804 2 2 0 6 15 610 933
1805 2 2 0 6 73 609 932
1806 2 2 0 6 335 962 802
1807 2 2 0 6 390 642 950
1808 2 2 0 6 295 990 737
1809 2 2 0 6 312 731 761
1810 2 2 0 6 306 858 859
1811 2 2 0 6 500 859 858
1812 2 2 0 6 376 599 1037
1813 2 2 0 6 72 73 932
1814 2 2 0 6 14 15 933
1815 2 2 0 6 68 69 995
1816 2 2 0 6 10 11 996
1817 2 2 0 6 136 884 657
1818 2 2 0 6 44 635 998
1819 2 2 0 6 393 648 897
1820 2 2 0 6 170 631 868
1821 2 2 0 6 295 984 647
1822 2 2 0 6 538 1059 662
1823 2 2 0 6 368 1074 606
1824 2 2 0 6 72 932 817
1825 2 2 0 6 379 817 932
1826 2 2 0 6 14 933 818
1827 2 2 0 6 380 818 933
1828 2 2 0 6 331 994 989
1829 2 2 0 6 275 863 681
1830 2 2 0 6 263 628 1065
1831 2 2 0 6 293 829 733
1832 2 2 0 6 306 701 847
1833 2 2 0 6 307 702 848
1834 2 2 0 6 48 49 1034
1835 2 2 0 6 304 657 884
1836 2 2 0 6 369 1053 607
1837 2 2 0 6 278 602 1024
1838 2 2 0 6 333 774 752
1839 2 2 0 6 188 752 774
1840 2 2 0 6 241 633 898
1841 2 2 0 6 378 735 957
1842 2 2 0 6 297 920 649
1843 2 2 0 6 299 650 921
1844 2 2 0 6 370 603 1052
1845 2 2 0 6 94 807 679
1846 2 2 0 6 339 1049 622
1847 2 2 0 6 176 622 1049
1848 2 2 0 6 122 934 718
1849 2 2 0 6 100 101 954
1850 2 2 0 6 441 663 1060
1851 2 2 0 6 442 1061 664
1852 2 2 0 6 180 745 974
1853 2 2 0 6 409 974 745
1854 2 2 0 6 52 53 980
1855 2 2 0 6 33 34 979
1856 2 2 0 6 37 38 956
1857 2 2 0 6 327 761 731
1858 2 2 0 6 483 852 1093
1859 2 2 0 6 322 611 985
1860 2 2 0 6 342 883 637
1861 2 2 0 6 143 607 1059
1862 2 2 0 6 176 936 622
1863 2 2 0 6 392 986 785
1864 2 2 0 6 234 985 611
1865 2 2 0 6 305 784 705
1866 2 2 0 6 104 105 973
1867 2 2 0 6 520 966 720
1868 2 2 0 6 443 655 989
1869 2 2 0 6 291 751 843
1870 2 2 0 6 203 948 654
1871 2 2 0 6 451 742 929
1872 2 2 0 6 45 46 1002
1873 2 2 0 6 230 989 655
1874 2 2 0 6 313 854 653
1875 2 2 0 6 314 855 654
1876 2 2 0 6 355 1087 1069
1877 2 2 0 6 325 682 835
1878 2 2 0 6 398 838 983
1879 2 2 0 6 292 983 838
1880 2 2 0 6 112 113 1022
1881 2 2 0 6 89 90 1023
1882 2 2 0 6 255 1011 747
1883 2 2 0 6 394 870 918
1884 2 2 0 6 234 611 1046
1885 2 2 0 6 353 791 721
1886 2 2 0 6 285 721 791
1887 2 2 0 6 240 918 870
1888 2 2 0 6 202 904 854
1889 2 2 0 6 402 1025 804
1890 2 2 0 6 184 804 1025
1891 2 2 0 6 185 1026 805
1892 2 2 0 6 403 805 1026
1893 2 2 0 6 407 811 997
1894 2 2 0 6 354 997 811
1895 2 2 0 6 39 40 1041
1896 2 2 0 6 329 856 908
1897 2 2 0 6 289 780 781
1898 2 2 0 6 439 781 780
1899 2 2 0 6 440 783 782
1900 2 2 0 6 290 782 783
1901 2 2 0 6 292 732 983
1902 2 2 0 6 54 55 1075
1903 2 2 0 6 31 32 1076
1904 2 2 0 6 403 1026 943
1905 2 2 0 6 485 943 1026
1906 2 2 0 6 484 1025 944
1907 2 2 0 6 402 944 1025
1908 2 2 0 6 68 995 672
1909 2 2 0 6 344 672 995
1910 2 2 0 6 10 996 673
1911 2 2 0 6 345 673 996
1912 2 2 0 6 158 1077 617
1913 2 2 0 6 166 656 871
1914 2 2 0 6 630 1029 859
1915 2 2 0 6 203 654 905
1916 2 2 0 6 320 905 654
1917 2 2 0 6 129 800 876
1918 2 2 0 6 357 876 800
1919 2 2 0 6 358 801 877
1920 2 2 0 6 131 877 801
1921 2 2 0 6 137 839 972
1922 2 2 0 6 408 769 975
1923 2 2 0 6 179 975 769
1924 2 2 0 6 294 714 993
1925 2 2 0 6 333 977 774
1926 2 2 0 6 270 1067 757
1927 2 2 0 6 271 760 1068
1928 2 2 0 6 369 813 1053
1929 2 2 0 6 486 1071 903
1930 2 2 0 6 353 903 1071
1931 2 2 0 6 336 946 1043
1932 2 2 0 6 490 1043 946
1933 2 2 0 6 289 1088 780
1934 2 2 0 6 290 783 1089
1935 2 2 0 6 420 1077 1047
1936 2 2 0 6 262 949 713
1937 2 2 0 6 300 712 840
1938 2 2 0 6 326 866 748
1939 2 2 0 6 27 674 891
1940 2 2 0 6 59 892 675
1941 2 2 0 6 344 630 1016
1942 2 2 0 6 345 631 1017
1943 2 2 0 6 327 871 840
1944 2 2 0 6 345 1030 631
1945 2 2 0 6 344 1029 630
1946 2 2 0 6 353 1071 791
1947 2 2 0 6 343 922 651
1948 2 2 0 6 184 1025 758
1949 2 2 0 6 185 759 1026
1950 2 2 0 6 489 716 945
1951 2 2 0 6 250 945 716
1952 2 2 0 6 354 998 635
1953 2 2 0 6 567 1024 719
1954 2 2 0 6 41 909 667
1955 2 2 0 6 292 958 732
1956 2 2 0 6 414 797 1000
1957 2 2 0 6 186 1000 797
1958 2 2 0 6 187 798 1001
1959 2 2 0 6 415 1001 798
1960 2 2 0 6 198 1040 750
1961 2 2 0 6 380 750 1040
1962 2 2 0 6 339 1009 710
1963 2 2 0 6 248 629 1087
1964 2 2 0 6 355 1069 632
1965 2 2 0 6 433 747 1011
1966 2 2 0 6 329 908 670
1967 2 2 0 6 316 923 845
1968 2 2 0 6 314 654 948
1969 2 2 0 6 408 975 888
1970 2 2 0 6 352 888 975
1971 2 2 0 6 351 974 889
1972 2 2 0 6 409 889 974
1973 2 2 0 6 176 1049 967
1974 2 2 0 6 504 967 1049
1975 2 2 0 6 347 636 1045
1976 2 2 0 6 312 1058 731
1977 2 2 0 6 384 843 751
1978 2 2 0 6 327 731 871
1979 2 2 0 6 166 871 731
1980 2 2 0 6 150 990 647
1981 2 2 0 6 301 912 736
1982 2 2 0 6 312 686 919
1983 2 2 0 6 284 938 725
1984 2 2 0 6 304 884 786
1985 2 2 0 6 132 682 929
1986 2 2 0 6 325 929 682
1987 2 2 0 6 126 986 851
1988 2 2 0 6 392 851 986
1989 2 2 0 6 315 1086 640
1990 2 2 0 6 174 704 940
1991 2 2 0 6 357 856 876
1992 2 2 0 6 329 876 856
1993 2 2 0 6 330 857 877
1994 2 2 0 6 358 877 857
1995 2 2 0 6 333 931 977
1996 2 2 0 6 254 959 907
1997 2 2 0 6 406 907 959
1998 2 2 0 6 393 897 947
1999 2 2 0 6 146 947 897
2000 2 2 0 6 129 876 755
2001 2 2 0 6 329 755 876
2002 2 2 0 6 69 701 995
2003 2 2 0 6 11 702 996
2004 2 2 0 6 48 1034 684
2005 2 2 0 6 323 864 746
2006 2 2 0 6 314 806 924
2007 2 2 0 6 348 834 955
2008 2 2 0 6 396 955 834
2009 2 2 0 6 275 777 1063
2010 2 2 0 6 389 1063 777
2011 2 2 0 6 350 938 1070
2012 2 2 0 6 312 830 1058
2013 2 2 0 6 133 1018 721
2014 2 2 0 6 353 721 1018
2015 2 2 0 6 310 885 739
2016 2 2 0 6 311 886 740
2017 2 2 0 6 350 1013 725
2018 2 2 0 6 132 725 1013
2019 2 2 0 6 306 1029 701
2020 2 2 0 6 344 701 1029
2021 2 2 0 6 307 1030 702
2022 2 2 0 6 345 702 1030
2023 2 2 0 6 324 940 704
2024 2 2 0 6 376 1037 799
2025 2 2 0 6 192 799 1037
2026 2 2 0 6 138 994 683
2027 2 2 0 6 331 683 994
2028 2 2 0 6 173 901 735
2029 2 2 0 6 199 969 709
2030 2 2 0 6 334 709 969
2031 2 2 0 6 177 1060 663
2032 2 2 0 6 178 664 1061
2033 2 2 0 6 315 762 881
2034 2 2 0 6 324 689 1033
2035 2 2 0 6 336 1043 803
2036 2 2 0 6 88 687 963
2037 2 2 0 6 114 964 688
2038 2 2 0 6 142 962 981
2039 2 2 0 6 430 981 962
2040 2 2 0 6 85 960 691
2041 2 2 0 6 117 692 961
2042 2 2 0 6 322 890 764
2043 2 2 0 6 524 1031 741
2044 2 2 0 6 56 1079 665
2045 2 2 0 6 30 666 1080
2046 2 2 0 6 328 966 700
2047 2 2 0 6 328 700 972
2048 2 2 0 6 329 670 1048
2049 2 2 0 6 343 774 977
2050 2 2 0 6 450 713 949
2051 2 2 0 6 268 700 966
2052 2 2 0 6 398 786 884
2053 2 2 0 6 319 697 1015
2054 2 2 0 6 137 972 700
2055 2 2 0 6 544 749 1027
2056 2 2 0 6 275 1063 863
2057 2 2 0 6 560 737 990
2058 2 2 0 6 132 1013 682
2059 2 2 0 6 350 725 938
2060 2 2 0 6 347 1055 726
2061 2 2 0 6 239 1014 928
2062 2 2 0 6 420 928 1014
2063 2 2 0 6 326 748 1042
2064 2 2 0 6 420 1047 928
2065 2 2 0 6 206 761 1038
2066 2 2 0 6 617 1077 709
2067 2 2 0 6 230 862 989
2068 2 2 0 6 132 929 742
2069 2 2 0 6 196 832 1050
2070 2 2 0 6 265 1027 749
2071 2 2 0 6 367 684 1034
2072 2 2 0 6 135 796 1035
2073 2 2 0 6 133 689 1018
2074 2 2 0 6 344 995 701
2075 2 2 0 6 345 996 702
2076 2 2 0 6 166 731 1058
2077 2 2 0 6 133 1033 689
2078 2 2 0 6 328 720 966
2079 2 2 0 6 632 1069 868
2080 2 2 0 6 316 765 923
2081 2 2 0 6 468 818 1040
2082 2 2 0 6 380 1040 818
2083 2 2 0 6 467 817 1039
2084 2 2 0 6 379 1039 817
2085 2 2 0 6 211 841 899
2086 2 2 0 6 341 899 841
2087 2 2 0 6 356 706 999
2088 2 2 0 6 518 1007 754
2089 2 2 0 6 322 985 717
2090 2 2 0 6 414 1000 952
2091 2 2 0 6 359 952 1000
2092 2 2 0 6 360 1001 953
2093 2 2 0 6 415 953 1001
2094 2 2 0 6 163 1092 676
2095 2 2 0 6 394 869 870
2096 2 2 0 6 479 753 1086
2097 2 2 0 6 321 870 869
2098 2 2 0 6 319 1015 722
2099 2 2 0 6 306 859 1029
2100 2 2 0 6 43 998 811
2101 2 2 0 6 354 811 998
2102 2 2 0 6 361 924 806
2103 2 2 0 6 158 1047 1077
2104 2 2 0 6 325 835 942
2105 2 2 0 6 101 834 954
2106 2 2 0 6 348 954 834
2107 2 2 0 6 325 942 941
2108 2 2 0 6 434 941 942
2109 2 2 0 6 227 726 1055
2110 2 2 0 6 394 1050 703
2111 2 2 0 6 327 840 967
2112 2 2 0 6 285 1078 721
2113 2 2 0 6 284 725 1081
2114 2 2 0 6 320 1028 723
2115 2 2 0 6 144 992 803
2116 2 2 0 6 346 917 887
2117 2 2 0 6 607 1053 773
2118 2 2 0 6 420 709 1077
2119 2 2 0 6 329 1048 755
2120 2 2 0 6 434 1012 837
2121 2 2 0 6 256 837 1012
2122 2 2 0 6 181 965 864
2123 2 2 0 6 606 1074 824
2124 2 2 0 6 343 977 922
2125 2 2 0 6 218 714 1066
2126 2 2 0 6 269 754 1007
2127 2 2 0 6 266 741 1031
2128 2 2 0 6 17 790 970
2129 2 2 0 6 75 789 971
2130 2 2 0 6 599 747 1037
2131 2 2 0 6 174 940 1072
2132 2 2 0 6 433 1072 940
2133 2 2 0 6 434 942 1073
2134 2 2 0 6 175 1073 942
2135 2 2 0 6 170 868 1069
2136 2 2 0 6 194 887 917
2137 2 2 0 6 192 1037 747
2138 2 2 0 6 162 1042 748
2139 2 2 0 6 46 814 1002
2140 2 2 0 6 336 803 992
2141 2 2 0 6 540 810 1057
2142 2 2 0 6 387 1057 810
2143 2 2 0 6 327 1038 761
2144 2 2 0 6 285 772 1078
2145 2 2 0 6 284 1081 771
2146 2 2 0 6 535 863 1063
2147 2 2 0 6 452 1009 1008
2148 2 2 0 6 339 1008 1009
2149 2 2 0 6 364 778 1090
2150 2 2 0 6 177 1090 778
2151 2 2 0 6 280 1052 823
2152 2 2 0 6 603 823 1052
2153 2 2 0 6 34 888 979
2154 2 2 0 6 52 980 889
2155 2 2 0 6 190 773 1053
2156 2 2 0 6 191 999 881
2157 2 2 0 6 172 1028 855
2158 2 2 0 6 177 778 1060
2159 2 2 0 6 178 1061 779
2160 2 2 0 6 389 1078 772
2161 2 2 0 6 388 771 1081
2162 2 2 0 6 331 989 862
2163 2 2 0 6 352 979 888
2164 2 2 0 6 351 889 980
2165 2 2 0 6 175 872 1073
2166 2 2 0 6 383 1073 872
2167 2 2 0 6 182 922 977
2168 2 2 0 6 521 1058 830
2169 2 2 0 6 182 977 931
2170 2 2 0 6 145 824 1074
2171 2 2 0 6 631 1030 868
2172 2 2 0 6 307 868 1030
2173 2 2 0 6 382 1072 1011
2174 2 2 0 6 433 1011 1072
2175 2 2 0 6 434 1073 1012
2176 2 2 0 6 383 1012 1073
2177 2 2 0 6 377 1032 937
2178 2 2 0 6 193 937 1032
2179 2 2 0 6 350 1093 1013
2180 2 2 0 6 272 1093 852
2181 2 2 0 6 364 1090 860
2182 2 2 0 6 365 1091 861
2183 2 2 0 6 504 1038 967
2184 2 2 0 6 327 967 1038
2185 2 2 0 6 349 928 1047
2186 2 2 0 6 486 903 1092
2187 2 2 0 6 564 1055 1054
2188 2 2 0 6 347 1054 1055
$EndElements
