$MeshFormat
2.2 0 8
$EndMeshFormat
$Nodes
613
1 0 0 0
2 1 0 0
3 1 2 0
4 0 2 0
5 0.06666666666653252 0 0
6 0.1333333333330849 0 0
7 0.1999999999995571 0 0
8 0.2666666666660293 0 0
9 0.3333333333325014 0 0
10 0.3999999999989736 0 0
11 0.4666666666654457 0 0
12 0.5333333333321028 0 0
13 0.5999999999989452 0 0
14 0.6666666666657877 0 0
15 0.7333333333326302 0 0
16 0.7999999999994725 0 0
17 0.866666666666315 0 0
18 0.9333333333331575 0 0
19 1 0.0689655172412464 0
20 1 0.1379310344824825 0
21 1 0.2068965517237558 0
22 1 0.2758620689649936 0
23 1 0.3448275862061717 0
24 1 0.4137931034473498 0
25 1 0.4827586206885279 0
26 1 0.551724137929706 0
27 1 0.620689655170884 0
28 1 0.6896551724120621 0
29 1 0.7586206896532403 0
30 1 0.8275862068944184 0
31 1 0.8965517241355965 0
32 1 0.9655172413767745 0
33 1 1.034482758618144 0
34 1 1.103448275859705 0
35 1 1.172413793101266 0
36 1 1.241379310342827 0
37 1 1.310344827584388 0
38 1 1.379310344825949 0
39 1 1.44827586206751 0
40 1 1.517241379309072 0
41 1 1.586206896550633 0
42 1 1.655172413792194 0
43 1 1.724137931033755 0
44 1 1.793103448275316 0
45 1 1.862068965516878 0
46 1 1.931034482758439 0
47 0.9333333333330559 2 0
48 0.8666666666662043 2 0
49 0.8000000000000005 2 0
50 0.7333333333337966 2 0
51 0.6666666666675928 2 0
52 0.600000000001389 2 0
53 0.5333333333351851 2 0
54 0.4666666666686111 2 0
55 0.4000000000016669 2 0
56 0.3333333333347225 2 0
57 0.2666666666677779 2 0
58 0.2000000000008334 2 0
59 0.133333333333889 2 0
60 0.06666666666694443 2 0
61 0 1.931034482758334 0
62 0 1.862068965516667 0
63 0 1.793103448275001 0
64 0 1.724137931033622 0
65 0 1.655172413792721 0
66 0 1.586206896551821 0
67 0 1.51724137931092 0
68 0 1.44827586207002 0
69 0 1.379310344829119 0
70 0 1.310344827588219 0
71 0 1.241379310347318 0
72 0 1.172413793106418 0
73 0 1.103448275865517 0
74 0 1.034482758624617 0
75 0 0.9655172413833331 0
76 0 0.896551724141667 0
77 0 0.8275862069000004 0
78 0 0.7586206896583336 0
79 0 0.6896551724166671 0
80 0 0.6206896551750003 0
81 0 0.5517241379333337 0
82 0 0.482758620691667 0
83 0 0.4137931034500002 0
84 0 0.3448275862083336 0
85 0 0.2758620689666669 0
86 0 0.2068965517250003 0
87 0 0.1379310344833333 0
88 0 0.06896551724166677 0
89 0.4931700739476897 1.502958283649787 0
90 0.5015471991493278 0.4973746258519973 0
91 0.4996545617376643 1.000000000000336 0
92 0.6849910369029097 0.7476082250230662 0
93 0.68744694123096 1.241423525068666 0
94 0.3160398247216422 1.246822917994546 0
95 0.3161746960031201 0.7485452528939009 0
96 0.6909635094192904 1.707876961759597 0
97 0.3090351376329018 0.2921244012001202 0
98 0.6983192895537854 0.2906698326720379 0
99 0.3015784876276806 1.709433744514766 0
100 0.7415339755183498 0.9995163724563544 0
101 0.2580427165455829 1.01331949324118 0
102 0.7528345736489276 1.477872046003715 0
103 0.761515047829041 0.52098876476236 0
104 0.2382761488694281 1.484890448692646 0
105 0.2383566352065852 0.5208425018424669 0
106 0.5055370250662364 0.2061478594857749 0
107 0.4944627382228441 1.79385362018055 0
108 0.4999709502642634 1.305534659196852 0
109 0.4998949254905551 0.8046918930639744 0
110 0.8292715334129396 0.1727121495006931 0
111 0.1707300247109146 1.827287094382091 0
112 0.8292715334135441 1.827287850500354 0
113 0.1707300247100879 0.1727129056170859 0
114 0.8322773213295953 1.153066789349518 0
115 0.8247867765709997 0.8490447281402081 0
116 0.1704663844125675 0.8471972894958208 0
117 0.1719778178906265 1.153819764750204 0
118 0.8343036780544313 0.6710051319537371 0
119 0.8347147744250089 1.335762505214584 0
120 0.165204905972165 1.335955642870563 0
121 0.1625242922997822 0.6646737392244721 0
122 0.8417166067484463 0.3675365512759992 0
123 0.8447982907991558 1.632259655821946 0
124 0.1571622839509298 1.632528120379862 0
125 0.1551959955710714 0.3676091427465365 0
126 0.5430186337398655 0.657798162252736 0
127 0.5519546622392467 1.15518438296278 0
128 0.3741459799526597 1.101408209200968 0
129 0.3756068696370068 0.6060603292130891 0
130 0.3739463896380279 0.8994540461551748 0
131 0.6287590490235845 0.8980416553184021 0
132 0.3704463635101034 1.421092855731578 0
133 0.6158491820193971 1.401082624898482 0
134 0.4397527679393869 1.648158646329765 0
135 0.5605238182470449 0.3504412772233487 0
136 0.628198912001932 1.853540600706559 0
137 0.3538999889474902 1.839367924643314 0
138 0.6461000110530328 0.1606320753567135 0
139 0.3718007677961138 0.1464612096316983 0
140 0.3623126751972541 0.4265017094745643 0
141 0.6308018479196624 1.578577053230367 0
142 0.6340636832315493 0.4704694444783577 0
143 0.3555301256999027 1.543771333429258 0
144 0.6854740006500344 1.116571410126581 0
145 0.4262241259073309 0.3092390769538708 0
146 0.5737774419608064 1.690766485374323 0
147 0.6765921882503769 0.6161512315583142 0
148 0.888263947973823 0.9999352152977941 0
149 0.1183782676180868 1.038143384544641 0
150 0.886053702862668 0.5679571223638106 0
151 0.8780847254023252 1.442904505667507 0
152 0.1218562234211229 1.443047547872175 0
153 0.1212135425147078 0.560456838386054 0
154 0.4279432440774012 1.208346769091821 0
155 0.6153225244323601 1.012566197174408 0
156 0.4292584228780116 0.7096895173959064 0
157 0.7281304255708974 0.402354711528361 0
158 0.8907745980387853 1.729883464897309 0
159 0.8913583567279779 0.2689790929416759 0
160 0.1081041870571274 1.730902487086935 0
161 0.1091993419768775 0.2700356163473393 0
162 0.7259283731636448 1.340695578582709 0
163 0.2779108441086267 1.355355542531717 0
164 0.2691145230030205 1.601970095219958 0
165 0.5447082991724674 1.892711420251468 0
166 0.4552917492311836 0.107290346631275 0
167 0.2684745691073549 0.6280804861019305 0
168 0.7498726601416514 0.1067114758433689 0
169 0.2501273398586762 1.893288524156544 0
170 0.7498725285555935 1.893270581605377 0
171 0.2501274714444805 0.1067294183949039 0
172 0.3986005604814065 1.74392046834303 0
173 0.6013286521765038 0.2560645760446993 0
174 0.09899683037520761 0.9287102223231252 0
175 0.2780129845152601 1.148998789511414 0
176 0.8939643037667883 1.244472910986252 0
177 0.8939643037680087 0.755527089012489 0
178 0.1072132909548155 0.7594712827920258 0
179 0.1065031610420725 1.236740605065133 0
180 0.7332705310928327 0.8791720501678555 0
181 0.2622850682977569 0.3973132211959968 0
182 0.7381493067126161 1.602581467173834 0
183 0.2648283167719353 0.8953929471251582 0
184 0.0970569844166351 0.106642109686661 0
185 0.9029430155829237 0.1066421096868574 0
186 0.09705698441718347 1.893357890313072 0
187 0.9029430155830855 1.893357890313737 0
188 0.3838682167984197 1.003880542153573 0
189 0.09663489945218336 1.543486044551303 0
190 0.09663489945162755 0.4565139554499381 0
191 0.9030440995581679 0.4560641967289041 0
192 0.9033238491672966 1.54334671868254 0
193 0.5855083121260555 1.250347025626059 0
194 0.585508333278777 0.7496223045389554 0
195 0.5275581187131629 0.9023801392567248 0
196 0.4758308632623197 1.402957118226776 0
197 0.4730347459171649 1.102662369358973 0
198 0.4411856676765357 1.90610850538129 0
199 0.5588143323240855 0.09389149461869961 0
200 0.3960093458940778 1.305334425579649 0
201 0.5884799833407204 0.557725158885317 0
202 0.530891141691898 1.595150426699157 0
203 0.4690138906591235 0.4053637749926203 0
204 0.7857837447721462 1.246627561457645 0
205 0.7842774146689868 0.7517485513678223 0
206 0.2153494782166005 0.754255241459173 0
207 0.2155539447129039 1.241066538668604 0
208 0.4756449170425976 0.5951895670818471 0
209 0.4025661028824403 0.805746199738049 0
210 0.9035522302997741 1.100653355599618 0
211 0.9035866846136507 0.8994215532451881 0
212 0.2034373014583559 1.733537722794917 0
213 0.2096075252793489 0.2713443815680999 0
214 0.7953021400176639 0.2665482032124018 0
215 0.7904107660631097 1.72862623015312 0
216 0.3228507799999509 0.5255332777842385 0
217 0.7169014848568899 1.801977931041323 0
218 0.2830985151433363 0.1980220689590321 0
219 0.7169014848545365 0.1980220689593424 0
220 0.2830985151461024 1.80197793104077 0
221 0.397281195931634 0.2235134117447603 0
222 0.6027191316254739 1.776489377729102 0
223 0.6799201821687695 1.489190321475107 0
224 0.8144555508424569 1.064138205881521 0
225 0.09398520920081629 1.111153275036266 0
226 0.8152016377846938 0.9356243419366657 0
227 0.3545988915945856 1.64851104152701 0
228 0.7815304768199722 0.6070373161710942 0
229 0.6453767564809665 0.3521676591573694 0
230 0.09486673789328443 1.815148132069511 0
231 0.9050818809725187 0.1848457972722787 0
232 0.9050297596613126 1.815052645392433 0
233 0.09496451958218308 0.1849356271653849 0
234 0.8981587775299162 0.6409093760283791 0
235 0.9142750239025837 1.363626384995164 0
236 0.08569874189748193 1.363821119175512 0
237 0.08970467370531357 0.6370519899303844 0
238 0.2200043609422262 1.065080117406124 0
239 0.1834344541786652 0.9419715090322797 0
240 0.08985619387882218 0.8441098061338195 0
241 0.4143260220645146 0.5228210287687863 0
242 0.5743916151003992 1.487429808368288 0
243 0.6351909291134815 1.320889445223923 0
244 0.8120459770006608 0.07931607719364797 0
245 0.1879540229995986 1.920683922806282 0
246 0.1879540341878378 0.07931760292050914 0
247 0.8120459658119319 1.920682397079844 0
248 0.4377871340316 0.9289539055788039 0
249 0.4214727977575755 1.470919238181955 0
250 0.8167223693940691 0.4574075066272767 0
251 0.8234528739636544 1.534568839192418 0
252 0.4513858976189218 1.554818170407455 0
253 0.1877305699968859 1.529398363539829 0
254 0.176725264138075 0.4650552953636626 0
255 0.9233810173877377 0.3872287362407394 0
256 0.9243960007181626 1.612505368316097 0
257 0.07621989242391863 1.612721178084741 0
258 0.07558101823474467 0.3874066678693417 0
259 0.8058273063208418 1.415495140501562 0
260 0.1936023255869707 1.411349313674217 0
261 0.56231181131768 0.4405716523875872 0
262 0.5683510295538647 1.063405729927174 0
263 0.6408612040764917 1.19589077884151 0
264 0.4954656183044623 1.703986118359299 0
265 0.5044470805448703 0.2967741835673093 0
266 0.3090271786556623 1.45718487125849 0
267 0.3111844370147959 0.8121781716561784 0
268 0.6928116796640859 0.8249160586000963 0
269 0.5098364447807473 0.7182798594987918 0
270 0.6823656635277798 0.5361960548665515 0
271 0.56947995332263 0.8136583925904306 0
272 0.5084268217441138 1.220012927360685 0
273 0.7432278717423939 0.7067546043098094 0
274 0.32852099652814 1.045825314208657 0
275 0.7438615444531301 1.156061215803692 0
276 0.196117570317984 0.5905537242345229 0
277 0.6849861716417666 0.9770088980814 0
278 0.3522311556837398 0.3496868481376448 0
279 0.6463952002677025 1.65090255953698 0
280 0.5578730892883834 1.370544460733385 0
281 0.6333333333344909 1.928910088026207 0
282 0.3666666666657375 0.07108991197393033 0
283 0.3328606077607729 0.663347062455077 0
284 0.3744961375794393 1.940216901836668 0
285 0.62550386242111 0.05978309816330685 0
286 0.320737864845294 0.9543771069849351 0
287 0.639363009853401 0.6861821744107892 0
288 0.3516822500509425 1.180588557063952 0
289 0.7654800584032889 0.3298022956184177 0
290 0.435173468805417 1.829536564438 0
291 0.5648265311950094 0.1704634355620913 0
292 0.9162753641373029 1.173650125174863 0
293 0.9162890056222717 0.8264160028091008 0
294 0.2335430688679731 1.67075875067346 0
295 0.290899926215566 0.4606019922257613 0
296 0.6982652298972959 1.045454779439655 0
297 0.7182324932335794 1.53939928855053 0
298 0.2457349049885023 0.8240217327615001 0
299 0.5558132394049581 0.9597875277571577 0
300 0.7717040737335792 0.8220619403558529 0
301 0.7795423898424625 1.660734072128022 0
302 0.220515758871253 0.3392053483620924 0
303 0.2966726685618829 1.530414969486633 0
304 0.7082804457473952 0.471428995316139 0
305 0.4543461055212559 0.8612110796944168 0
306 0.2604785819579798 0.704807796345584 0
307 0.06664828068679712 0.9929895655195065 0
308 0.5994335587189038 1.129315913995812 0
309 0.706818273795362 1.413134748979482 0
310 0.06284814617810659 1.485241094982738 0
311 0.06310653225702778 0.5120614671959997 0
312 0.9371041673473925 1.485123128471109 0
313 0.9354442678401692 0.512557073397196 0
314 0.4386341185761762 0.4633642273229483 0
315 0.7535567660739091 1.099190821126058 0
316 0.674656199064684 1.760204900252864 0
317 0.3253413105661284 0.2397966579806547 0
318 0.06304991338331742 0.7080136022365917 0
319 0.060625117983431 1.292381706038318 0
320 0.9373320309062325 1.293050901469368 0
321 0.9401375987843428 0.7109657358050749 0
322 0.06852636191793723 1.180378128000811 0
323 0.5625356230986263 1.550370509313155 0
324 0.9417281794012944 1.691172461988794 0
325 0.9409212698430122 0.3110041878574998 0
326 0.05901815859408142 1.689096572798844 0
327 0.05825826480474877 0.3087637238090934 0
328 0.6051767519020803 0.6231162457132254 0
329 0.7050637046498045 1.942701349860499 0
330 0.2949362953502759 0.05729865013962968 0
331 0.2962451753082128 1.944598776415004 0
332 0.7037548246921973 0.0554012235849557 0
333 0.3416807331081209 1.346467196453322 0
334 0.4808544924834435 0.6568605285512302 0
335 0.4969863196480255 1.936144121663808 0
336 0.5030136872672707 0.06385613074813061 0
337 0.4317088562674628 0.157057509492253 0
338 0.4104803565547088 0.3818371520875099 0
339 0.5682905924292621 1.84294550977669 0
340 0.5812216203465536 1.619518152281278 0
341 0.4253344256660306 1.141172686324194 0
342 0.7827979853512836 1.304586265435121 0
343 0.2268112224859627 1.302445664065585 0
344 0.8340565524628036 0.3062917941828946 0
345 0.5392397769976969 1.429084277654341 0
346 0.3353527849446133 1.767077417274407 0
347 0.664611025564396 0.2329579595695222 0
348 0.9567751830152847 0.9999870430576094 0
349 0.2629754955690453 1.414045491540943 0
350 0.9457619939405875 1.754144366779072 0
351 0.9448630319631474 0.2441318077849758 0
352 0.05506821124976503 1.755898712245052 0
353 0.0542102389748787 0.2458186406158664 0
354 0.2819970427269756 0.5676983639975322 0
355 0.8114305590591872 0.556452684999167 0
356 0.1844969983879336 1.004334867626121 0
357 0.4491931136306257 1.345702190487916 0
358 0.1634365318564144 1.694897358098586 0
359 0.5667701774915557 1.944640383961111 0
360 0.4332297267760938 0.05535998926104041 0
361 0.05326787302442088 1.069575773593154 0
362 0.4347645152456072 1.054802481708446 0
363 0.8173115632129835 1.482664196922383 0
364 0.1731084840978502 1.472939222460487 0
365 0.1795806135086635 0.5190160179578661 0
366 0.4866769649869883 1.157840764398383 0
367 0.16045553141841 1.095198530917198 0
368 0.397961560219553 1.692685313877335 0
369 0.6020282810875509 0.3071702420987669 0
370 0.8144555508424568 0.999066847926391 0
371 0.6322288024230269 0.789325808075222 0
372 0.455928360265812 1.271009789386854 0
373 0.3641937262086577 0.2848276662638303 0
374 0.6356105800423445 1.715258756165499 0
375 0.9469447282471835 0.5915016297802415 0
376 0.9464094069047511 1.414805254122226 0
377 0.05360448934674249 1.414934226157492 0
378 0.05311847570106584 0.5870075724866848 0
379 0.3882292119039322 0.7542559003785805 0
380 0.7598013590333225 0.04828575532439452 0
381 0.2401986409670198 1.951714244675566 0
382 0.7600631064702253 1.951330865709144 0
383 0.2399368935296361 0.04866913429100853 0
384 0.3750416583473216 1.246326896572062 0
385 0.2321971104957035 1.83936417130882 0
386 0.7678034280809463 0.1606335708768099 0
387 0.7678121793397079 1.839361168559093 0
388 0.2321883592366972 0.160641089255544 0
389 0.6037297166984027 0.40740211158605 0
390 0.2777344150028364 1.088211129588553 0
391 0.1598958212641173 0.3076990061609658 0
392 0.8402027796681284 1.690383248321337 0
393 0.5688194290703698 1.311551889772772 0
394 0.05298022310002687 0.7914625165175119 0
395 0.5040815871911194 1.856812123071153 0
396 0.4959180606931416 0.1431898971738878 0
397 0.2256508631595411 1.181900535271642 0
398 0.8375768791668952 0.614956789408275 0
399 0.454114286394951 0.7698705278790218 0
400 0.4013734929831881 1.586843944993623 0
401 0.413330839680377 0.6464639630558935 0
402 0.5642426746891147 0.4971093274658382 0
403 0.5366219335982274 0.5988251144515864 0
404 0.7908778481171862 0.4058558912686596 0
405 0.8385536600182572 0.7290225179734839 0
406 0.838378611041789 1.271607824645375 0
407 0.1653698992392424 1.271696634985626 0
408 0.1596161081737442 0.7308370493298045 0
409 0.8588201401849441 0.5002240837660846 0
410 0.8427923847178759 0.2297946794424065 0
411 0.8427923847186696 1.770205320558559 0
412 0.1572152906900532 1.770213574623808 0
413 0.1572152906890883 0.2297864253754124 0
414 0.1423900197094469 0.6131840729438582 0
415 0.8587784232892446 1.387470113411518 0
416 0.6709170748291331 0.4129398345544508 0
417 0.1412264494105557 1.387550590401842 0
418 0.2081698092450184 1.593499731130263 0
419 0.3285023009714096 1.591941849097919 0
420 0.6985334689707753 1.187061699106025 0
421 0.5390013996013761 1.744830243749102 0
422 0.460999001010965 0.2551699238278637 0
423 0.9409577605278379 0.06064113739715828 0
424 0.05904223947224524 1.939358862602741 0
425 0.9409577605279341 1.939358862603114 0
426 0.05904223947187787 0.06064113739714489 0
427 0.5178562179521102 1.646565129095873 0
428 0.4799134108560213 0.3511444500234294 0
429 0.7038610889538649 0.3495250013886871 0
430 0.1581581326474344 0.7894615143662193 0
431 0.1645795763387801 1.208545753803108 0
432 0.848444523367107 1.203969814248916 0
433 0.843972317407886 0.7982654641119417 0
434 0.6741640550228808 0.1074050517726584 0
435 0.3258359449775818 1.892594948227325 0
436 0.6829499891156786 1.886788507007677 0
437 0.3170500108847181 0.1132114929924758 0
438 0.4573350283464721 1.756616316540105 0
439 0.5426316882767622 0.2434446898283265 0
440 0.802104805266434 1.589028639679565 0
441 0.2017555231030519 0.4093507594786236 0
442 0.8862867606339956 0.3282080724997618 0
443 0.6629566702561372 1.356688508596052 0
444 0.6799950757379826 1.300171423811561 0
445 0.7351263420331404 0.5740942904013606 0
446 0.6222842251959807 0.951032914132751 0
447 0.4102869529123012 0.108295900545779 0
448 0.5897124496935187 1.891706273822508 0
449 0.2970559193846282 1.651921848852033 0
450 0.9478141350580223 1.221750668610283 0
451 0.949152771750829 0.7770475892895542 0
452 0.9434437008936929 0.1336902624911276 0
453 0.05655629910636113 1.866309737508796 0
454 0.9434437008938259 1.866309737509795 0
455 0.0565562991061033 0.1336902624910158 0
456 0.05445823506333238 0.8934365410365412 0
457 0.276642210103339 1.206744331919355 0
458 0.1127882107764944 1.672029143289794 0
459 0.3720977543654092 0.4879579515693896 0
460 0.2949381225255444 1.29982092235521 0
461 0.1327793491628217 0.9725909547809348 0
462 0.9407502534057159 1.058288774666313 0
463 0.9380190409297634 0.9410133769911574 0
464 0.2196192088929178 0.6587585676914918 0
465 0.3124081229903117 1.39882919150321 0
466 0.323546977098947 0.5995082693808471 0
467 0.1486275945455187 0.8981417258567527 0
468 0.9550877382622688 0.4488497073492291 0
469 0.955241561276436 1.550985008487963 0
470 0.04476037184448099 1.551009638963476 0
471 0.04474056300861863 0.4488565838691873 0
472 0.8660265133572536 0.05454893496371831 0
473 0.1339734866429825 1.945451065036243 0
474 0.1339734866419963 0.05454893496352584 0
475 0.866026513357638 1.945451065036716 0
476 0.7570880104302955 0.9434193300830885 0
477 0.6241771151876627 1.515613456763969 0
478 0.7691455760686422 0.4607997362697261 0
479 0.789781471886795 0.8861471517655976 0
480 0.2097210418672249 0.8890508390063211 0
481 0.286072082004778 0.3447724635442578 0
482 0.7137807533264682 1.655297838519133 0
483 0.315417788662102 0.3950752447002277 0
484 0.6861939065110461 1.59347631885194 0
485 0.2606151325768835 1.745777024861216 0
486 0.264309839128416 0.250894968913595 0
487 0.7372637281617861 0.2486579494457884 0
488 0.7356956534487314 1.749101491868655 0
489 0.6257827200849796 0.5256934827328789 0
490 0.852521329167905 0.1229967480519806 0
491 0.147478670832261 1.877003251947993 0
492 0.1474786708315229 0.12299674805165 0
493 0.8525213291680507 1.877003251948714 0
494 0.6436668111829174 0.2847055499017374 0
495 0.3562802091709214 1.715434813039403 0
496 0.433333333335139 1.95864289498872 0
497 0.5666666666655237 0.04135710501129534 0
498 0.236876898766106 0.9497411271693326 0
499 0.1116260883703119 0.3283028313866553 0
500 0.6945985921775715 0.6791261537435312 0
501 0.8883799697251054 1.671240839869097 0
502 0.6796372586378663 0.9044185239112184 0
503 0.8688837861898341 1.054424197948353 0
504 0.3272995541617247 1.126627962916898 0
505 0.427639653658925 1.419247407989622 0
506 0.05180045635390619 1.231522766048134 0
507 0.4703826616888719 1.450684464906836 0
508 0.3143004747582172 0.8718608538175616 0
509 0.8480188840929915 0.8954090885309203 0
510 0.394721344694363 0.9486951337924671 0
511 0.4416440647080576 0.9805611141977009 0
512 0.7403202174840394 1.216476626658259 0
513 0.8679892586260822 0.9465736618293841 0
514 0.473646072692911 1.602610790993443 0
515 0.8498010141015604 1.105105618290302 0
516 0.2673531518311488 0.7712762983856978 0
517 0.9508321963508346 1.121557707937332 0
518 0.9505584089349496 0.8783854745586127 0
519 0.1178332368586837 1.161267887676368 0
520 0.7350941750401385 0.773754988696807 0
521 0.792669660038685 0.7045397563287106 0
522 0.5023257618100093 1.5611816362126 0
523 0.2399927439352471 1.548034721613866 0
524 0.5287816956584542 0.3990411170121776 0
525 0.858828125508403 0.4252347733577144 0
526 0.8597356953596222 1.572986451083669 0
527 0.6351592049763667 1.267257420517858 0
528 0.4201772307554091 0.5773181218220929 0
529 0.1412584327477156 1.573108082010652 0
530 0.1403896647614123 0.4267864610019022 0
531 0.463530244850905 0.5330552545242881 0
532 0.8736340026576424 1.501123897741385 0
533 0.127391254673075 1.502061265417767 0
534 0.1268992275252587 0.496842679376114 0
535 0.5069563863347339 0.4478997172793957 0
536 0.5242990128943648 0.5453229218305014 0
537 0.4898295121302805 0.9411639118061109 0
538 0.7780194570137919 1.359822383726599 0
539 0.5319803805325362 0.7666077912103879 0
540 0.5775985738023358 0.8851689286138077 0
541 0.5281015337929701 0.8494653245317593 0
542 0.3447194884144134 1.292513916500255 0
543 0.5292079730004533 1.268810963974937 0
544 0.2218521412450377 1.359980447719558 0
545 0.5498513810442145 1.016497857750195 0
546 0.04152857400372954 1.133650088656446 0
547 0.5865529451305882 0.6957674718861916 0
548 0.5082210482387551 1.058293232520916 0
549 0.5823102535044339 1.195733969201652 0
550 0.8805169774777897 0.6991744954560055 0
551 0.8837329488084805 1.301704105462149 0
552 0.1166803652268786 1.300119141627031 0
553 0.1174406193825133 0.6990259880429894 0
554 0.3676650926195504 1.485173306560786 0
555 0.4408098259283743 1.704447342140025 0
556 0.6333692686504918 1.073462806132726 0
557 0.5591152205194851 0.2954048293921852 0
558 0.5312786682758205 1.111117065527339 0
559 0.3690740710905073 0.8444651259686128 0
560 0.6026657329165731 1.355377466636851 0
561 0.6336329292072823 0.7380689940770045 0
562 0.2290628820209091 0.4656713739270457 0
563 0.2178822291796688 1.786359586501937 0
564 0.2195249256978291 0.2139003066147948 0
565 0.7815557832076246 0.212728103572907 0
566 0.7804806669734419 1.786093332113517 0
567 0.507704698033741 1.359045163197212 0
568 0.3714342723202063 0.5531998297564072 0
569 0.3969938419603706 1.367568815248418 0
570 0.04498666110875159 0.9383597980839434 0
571 0.6310061628624197 0.8464997290004118 0
572 0.0380167075454375 0.6551724137958337 0
573 0.03801670754450739 1.34482758620867 0
574 0.9620116212493959 1.344827586205169 0
575 0.958466335294591 0.6520094852542269 0
576 0.7650263372807304 1.046422696901972 0
577 0.3902710849891905 1.884670453536115 0
578 0.6097289150113738 0.1153295464638914 0
579 0.637868225730883 0.5722922016592997 0
580 0.2041847927460379 0.7048186143930765 0
581 0.6276095852322714 1.454013342096101 0
582 0.3760384299865797 1.050940409820903 0
583 0.7920257659925836 1.181367100091525 0
584 0.7732076718441202 1.535279126501003 0
585 0.3956624969488026 1.791015548856043 0
586 0.6043174658786773 0.2089960836582479 0
587 0.3546452599411771 0.7940214290372727 0
588 0.8023029855608206 0.1284740042933001 0
589 0.1976974337794308 1.871525392920346 0
590 0.1976957120821252 0.1284795528479386 0
591 0.8023047072577656 1.871521049938677 0
592 0.7327056199024762 0.6393701557143835 0
593 0.7320332383533168 1.275672838316448 0
594 0.2649883670254848 1.25822013831071 0
595 0.2206508050716776 1.125169746899849 0
596 0.8051897617203445 0.5013425532365337 0
597 0.8673307336615599 0.8537113673674718 0
598 0.7976629937988725 1.126488291757103 0
599 0.3764120696577545 0.7030535898180892 0
600 0.8740373693823256 1.1468294315036 0
601 0.407526306986138 1.52408989426451 0
602 0.6697765984378364 1.815410952714227 0
603 0.330223262753849 0.1845892644308925 0
604 0.4522342435007431 0.2036225036789901 0
605 0.5477640243832843 1.796385119806268 0
606 0.7875460191903161 0.6555665225427413 0
607 0.7109683278306096 0.1466808485617786 0
608 0.2890317798851109 1.853318699875354 0
609 0.7174625560611413 1.84736182818554 0
610 0.2825375238926162 0.1526386668065697 0
611 0.7420786144200124 1.700327318885706 0
612 0.2579080685833396 0.2996683127176331 0
613 0.6678651090041441 1.543251287774383 0
$EndNodes
$Elements
1228
1 15 2 0 1 1
2 15 2 0 2 2
3 15 2 0 3 3
4 15 2 0 4 4
5 1 2 0 1 1 5
6 1 2 0 1 5 6
7 1 2 0 1 6 7
8 1 2 0 1 7 8
9 1 2 0 1 8 9
10 1 2 0 1 9 10
11 1 2 0 1 10 11
12 1 2 0 1 11 12
13 1 2 0 1 12 13
14 1 2 0 1 13 14
15 1 2 0 1 14 15
16 1 2 0 1 15 16
17 1 2 0 1 16 17
18 1 2 0 1 17 18
19 1 2 0 1 18 2
20 1 2 0 2 2 19
21 1 2 0 2 19 20
22 1 2 0 2 20 21
23 1 2 0 2 21 22
24 1 2 0 2 22 23
25 1 2 0 2 23 24
26 1 2 0 2 24 25
27 1 2 0 2 25 26
28 1 2 0 2 26 27
29 1 2 0 2 27 28
30 1 2 0 2 28 29
31 1 2 0 2 29 30
32 1 2 0 2 30 31
33 1 2 0 2 31 32
34 1 2 0 2 32 33
35 1 2 0 2 33 34
36 1 2 0 2 34 35
37 1 2 0 2 35 36
38 1 2 0 2 36 37
39 1 2 0 2 37 38
40 1 2 0 2 38 39
41 1 2 0 2 39 40
42 1 2 0 2 40 41
43 1 2 0 2 41 42
44 1 2 0 2 42 43
45 1 2 0 2 43 44
46 1 2 0 2 44 45
47 1 2 0 2 45 46
48 1 2 0 2 46 3
49 1 2 0 3 3 47
50 1 2 0 3 47 48
51 1 2 0 3 48 49
52 1 2 0 3 49 50
53 1 2 0 3 50 51
54 1 2 0 3 51 52
55 1 2 0 3 52 53
56 1 2 0 3 53 54
57 1 2 0 3 54 55
58 1 2 0 3 55 56
59 1 2 0 3 56 57
60 1 2 0 3 57 58
61 1 2 0 3 58 59
62 1 2 0 3 59 60
63 1 2 0 3 60 4
64 1 2 0 4 4 61
65 1 2 0 4 61 62
66 1 2 0 4 62 63
67 1 2 0 4 63 64
68 1 2 0 4 64 65
69 1 2 0 4 65 66
70 1 2 0 4 66 67
71 1 2 0 4 67 68
72 1 2 0 4 68 69
73 1 2 0 4 69 70
74 1 2 0 4 70 71
75 1 2 0 4 71 72
76 1 2 0 4 72 73
77 1 2 0 4 73 74
78 1 2 0 4 74 75
79 1 2 0 4 75 76
80 1 2 0 4 76 77
81 1 2 0 4 77 78
82 1 2 0 4 78 79
83 1 2 0 4 79 80
84 1 2 0 4 80 81
85 1 2 0 4 81 82
86 1 2 0 4 82 83
87 1 2 0 4 83 84
88 1 2 0 4 84 85
89 1 2 0 4 85 86
90 1 2 0 4 86 87
91 1 2 0 4 87 88
92 1 2 0 4 88 1
93 2 2 0 6 248 305 537
94 2 2 0 6 537 305 195
95 2 2 0 6 242 345 581
96 2 2 0 6 581 345 133
97 2 2 0 6 188 274 286
98 2 2 0 6 102 309 259
99 2 2 0 6 259 309 538
100 2 2 0 6 362 511 91
101 2 2 0 6 140 459 295
102 2 2 0 6 105 295 216
103 2 2 0 6 548 362 91
104 2 2 0 6 238 367 356
105 2 2 0 6 241 314 531
106 2 2 0 6 101 390 238
107 2 2 0 6 158 232 411
108 2 2 0 6 159 410 231
109 2 2 0 6 161 233 413
110 2 2 0 6 160 412 230
111 2 2 0 6 199 396 336
112 2 2 0 6 198 395 335
113 2 2 0 6 216 295 459
114 2 2 0 6 130 305 248
115 2 2 0 6 99 485 294
116 2 2 0 6 105 354 276
117 2 2 0 6 167 276 354
118 2 2 0 6 508 183 298
119 2 2 0 6 267 508 298
120 2 2 0 6 99 346 485
121 2 2 0 6 531 314 90
122 2 2 0 6 98 347 487
123 2 2 0 6 89 252 601
124 2 2 0 6 89 601 249
125 2 2 0 6 139 221 603
126 2 2 0 6 136 222 602
127 2 2 0 6 44 454 232
128 2 2 0 6 63 230 453
129 2 2 0 6 86 455 233
130 2 2 0 6 21 231 452
131 2 2 0 6 98 487 289
132 2 2 0 6 126 334 403
133 2 2 0 6 178 430 240
134 2 2 0 6 101 274 390
135 2 2 0 6 166 336 396
136 2 2 0 6 165 335 395
137 2 2 0 6 133 345 280
138 2 2 0 6 102 297 223
139 2 2 0 6 504 390 274
140 2 2 0 6 116 240 430
141 2 2 0 6 115 300 433
142 2 2 0 6 205 433 300
143 2 2 0 6 133 309 581
144 2 2 0 6 101 238 356
145 2 2 0 6 549 127 308
146 2 2 0 6 128 504 274
147 2 2 0 6 105 216 354
148 2 2 0 6 78 318 394
149 2 2 0 6 206 298 430
150 2 2 0 6 116 430 298
151 2 2 0 6 303 554 143
152 2 2 0 6 214 289 487
153 2 2 0 6 89 242 323
154 2 2 0 6 102 223 309
155 2 2 0 6 263 549 308
156 2 2 0 6 212 294 485
157 2 2 0 6 162 538 309
158 2 2 0 6 607 219 138
159 2 2 0 6 608 220 137
160 2 2 0 6 266 554 303
161 2 2 0 6 158 350 232
162 2 2 0 6 159 231 351
163 2 2 0 6 219 347 138
164 2 2 0 6 220 346 137
165 2 2 0 6 161 353 233
166 2 2 0 6 160 230 352
167 2 2 0 6 101 286 274
168 2 2 0 6 220 485 346
169 2 2 0 6 219 487 347
170 2 2 0 6 110 231 410
171 2 2 0 6 112 411 232
172 2 2 0 6 111 230 412
173 2 2 0 6 113 413 233
174 2 2 0 6 139 337 221
175 2 2 0 6 136 339 222
176 2 2 0 6 145 373 221
177 2 2 0 6 146 374 222
178 2 2 0 6 208 403 334
179 2 2 0 6 186 230 491
180 2 2 0 6 187 493 232
181 2 2 0 6 185 231 490
182 2 2 0 6 184 492 233
183 2 2 0 6 44 45 454
184 2 2 0 6 62 63 453
185 2 2 0 6 86 87 455
186 2 2 0 6 20 21 452
187 2 2 0 6 65 66 257
188 2 2 0 6 83 84 258
189 2 2 0 6 23 24 255
190 2 2 0 6 41 42 256
191 2 2 0 6 112 232 493
192 2 2 0 6 111 491 230
193 2 2 0 6 110 490 231
194 2 2 0 6 113 233 492
195 2 2 0 6 145 221 422
196 2 2 0 6 146 222 421
197 2 2 0 6 77 240 456
198 2 2 0 6 209 399 305
199 2 2 0 6 109 305 399
200 2 2 0 6 133 443 309
201 2 2 0 6 176 432 292
202 2 2 0 6 177 293 433
203 2 2 0 6 99 227 495
204 2 2 0 6 126 269 334
205 2 2 0 6 149 356 367
206 2 2 0 6 354 216 466
207 2 2 0 6 16 472 244
208 2 2 0 6 49 247 475
209 2 2 0 6 7 246 474
210 2 2 0 6 58 473 245
211 2 2 0 6 98 229 494
212 2 2 0 6 292 432 600
213 2 2 0 6 293 597 433
214 2 2 0 6 99 449 227
215 2 2 0 6 221 317 603
216 2 2 0 6 222 316 602
217 2 2 0 6 130 559 305
218 2 2 0 6 216 568 466
219 2 2 0 6 135 229 389
220 2 2 0 6 167 283 306
221 2 2 0 6 261 524 389
222 2 2 0 6 95 306 283
223 2 2 0 6 100 296 277
224 2 2 0 6 155 277 296
225 2 2 0 6 261 402 535
226 2 2 0 6 149 367 225
227 2 2 0 6 148 462 503
228 2 2 0 6 155 556 262
229 2 2 0 6 148 513 463
230 2 2 0 6 99 495 346
231 2 2 0 6 98 494 347
232 2 2 0 6 18 423 472
233 2 2 0 6 60 424 473
234 2 2 0 6 5 474 426
235 2 2 0 6 47 475 425
236 2 2 0 6 128 341 288
237 2 2 0 6 134 227 400
238 2 2 0 6 149 225 361
239 2 2 0 6 144 296 315
240 2 2 0 6 188 286 510
241 2 2 0 6 524 135 389
242 2 2 0 6 144 263 308
243 2 2 0 6 98 429 229
244 2 2 0 6 262 308 558
245 2 2 0 6 558 308 127
246 2 2 0 6 148 463 348
247 2 2 0 6 148 348 462
248 2 2 0 6 104 266 303
249 2 2 0 6 186 453 230
250 2 2 0 6 185 452 231
251 2 2 0 6 184 233 455
252 2 2 0 6 187 232 454
253 2 2 0 6 174 240 467
254 2 2 0 6 116 467 240
255 2 2 0 6 178 394 318
256 2 2 0 6 535 402 90
257 2 2 0 6 182 297 584
258 2 2 0 6 182 584 440
259 2 2 0 6 154 288 341
260 2 2 0 6 223 581 309
261 2 2 0 6 277 502 476
262 2 2 0 6 51 52 281
263 2 2 0 6 9 10 282
264 2 2 0 6 89 345 242
265 2 2 0 6 78 79 318
266 2 2 0 6 70 71 319
267 2 2 0 6 134 368 227
268 2 2 0 6 205 520 273
269 2 2 0 6 92 273 520
270 2 2 0 6 36 37 320
271 2 2 0 6 28 29 321
272 2 2 0 6 17 18 472
273 2 2 0 6 59 60 473
274 2 2 0 6 5 6 474
275 2 2 0 6 47 48 475
276 2 2 0 6 134 427 264
277 2 2 0 6 135 428 265
278 2 2 0 6 180 268 300
279 2 2 0 6 36 320 450
280 2 2 0 6 29 451 321
281 2 2 0 6 142 304 270
282 2 2 0 6 135 369 229
283 2 2 0 6 13 14 285
284 2 2 0 6 55 56 284
285 2 2 0 6 93 527 263
286 2 2 0 6 262 556 308
287 2 2 0 6 154 366 272
288 2 2 0 6 103 270 304
289 2 2 0 6 280 567 393
290 2 2 0 6 99 294 449
291 2 2 0 6 89 323 522
292 2 2 0 6 180 476 502
293 2 2 0 6 19 452 423
294 2 2 0 6 61 453 424
295 2 2 0 6 88 426 455
296 2 2 0 6 46 425 454
297 2 2 0 6 76 77 456
298 2 2 0 6 66 470 257
299 2 2 0 6 83 258 471
300 2 2 0 6 21 351 231
301 2 2 0 6 44 232 350
302 2 2 0 6 63 352 230
303 2 2 0 6 86 233 353
304 2 2 0 6 41 256 469
305 2 2 0 6 24 468 255
306 2 2 0 6 181 295 562
307 2 2 0 6 48 49 475
308 2 2 0 6 6 7 474
309 2 2 0 6 16 17 472
310 2 2 0 6 58 59 473
311 2 2 0 6 150 375 234
312 2 2 0 6 151 235 376
313 2 2 0 6 132 249 554
314 2 2 0 6 152 377 236
315 2 2 0 6 153 237 378
316 2 2 0 6 272 543 372
317 2 2 0 6 71 506 319
318 2 2 0 6 150 234 398
319 2 2 0 6 181 562 441
320 2 2 0 6 118 398 234
321 2 2 0 6 195 305 541
322 2 2 0 6 252 514 400
323 2 2 0 6 102 259 363
324 2 2 0 6 104 364 260
325 2 2 0 6 514 134 400
326 2 2 0 6 193 263 527
327 2 2 0 6 151 363 259
328 2 2 0 6 152 260 364
329 2 2 0 6 100 277 476
330 2 2 0 6 104 260 349
331 2 2 0 6 154 272 372
332 2 2 0 6 178 240 394
333 2 2 0 6 567 108 393
334 2 2 0 6 299 540 446
335 2 2 0 6 130 248 510
336 2 2 0 6 108 372 543
337 2 2 0 6 290 585 438
338 2 2 0 6 291 586 439
339 2 2 0 6 107 290 438
340 2 2 0 6 106 291 439
341 2 2 0 6 151 415 235
342 2 2 0 6 132 554 266
343 2 2 0 6 152 236 417
344 2 2 0 6 287 547 328
345 2 2 0 6 121 237 414
346 2 2 0 6 174 456 240
347 2 2 0 6 119 235 415
348 2 2 0 6 551 235 119
349 2 2 0 6 118 234 550
350 2 2 0 6 153 414 237
351 2 2 0 6 120 417 236
352 2 2 0 6 296 576 315
353 2 2 0 6 552 120 236
354 2 2 0 6 553 237 121
355 2 2 0 6 132 505 249
356 2 2 0 6 215 392 411
357 2 2 0 6 189 257 470
358 2 2 0 6 190 471 258
359 2 2 0 6 192 469 256
360 2 2 0 6 191 255 468
361 2 2 0 6 89 249 507
362 2 2 0 6 122 255 525
363 2 2 0 6 123 526 256
364 2 2 0 6 124 257 529
365 2 2 0 6 125 530 258
366 2 2 0 6 191 525 255
367 2 2 0 6 192 256 526
368 2 2 0 6 213 391 413
369 2 2 0 6 189 529 257
370 2 2 0 6 190 258 530
371 2 2 0 6 147 287 328
372 2 2 0 6 126 328 547
373 2 2 0 6 121 276 464
374 2 2 0 6 144 315 275
375 2 2 0 6 92 520 268
376 2 2 0 6 128 274 582
377 2 2 0 6 77 394 240
378 2 2 0 6 89 522 252
379 2 2 0 6 90 314 535
380 2 2 0 6 128 362 341
381 2 2 0 6 197 341 362
382 2 2 0 6 140 295 483
383 2 2 0 6 23 255 325
384 2 2 0 6 42 324 256
385 2 2 0 6 95 267 516
386 2 2 0 6 65 257 326
387 2 2 0 6 84 327 258
388 2 2 0 6 193 549 263
389 2 2 0 6 19 20 452
390 2 2 0 6 61 62 453
391 2 2 0 6 87 88 455
392 2 2 0 6 45 46 454
393 2 2 0 6 129 401 283
394 2 2 0 6 156 269 399
395 2 2 0 6 92 268 371
396 2 2 0 6 194 271 539
397 2 2 0 6 109 539 271
398 2 2 0 6 144 420 263
399 2 2 0 6 98 289 429
400 2 2 0 6 16 244 380
401 2 2 0 6 58 245 381
402 2 2 0 6 7 383 246
403 2 2 0 6 49 382 247
404 2 2 0 6 194 269 547
405 2 2 0 6 126 547 269
406 2 2 0 6 121 414 276
407 2 2 0 6 208 401 528
408 2 2 0 6 199 291 396
409 2 2 0 6 198 290 395
410 2 2 0 6 208 334 401
411 2 2 0 6 193 272 549
412 2 2 0 6 127 549 272
413 2 2 0 6 105 276 365
414 2 2 0 6 93 263 420
415 2 2 0 6 153 365 276
416 2 2 0 6 229 429 416
417 2 2 0 6 156 334 269
418 2 2 0 6 95 283 599
419 2 2 0 6 337 396 604
420 2 2 0 6 339 395 605
421 2 2 0 6 168 380 244
422 2 2 0 6 169 381 245
423 2 2 0 6 171 246 383
424 2 2 0 6 170 247 382
425 2 2 0 6 144 275 420
426 2 2 0 6 269 539 399
427 2 2 0 6 194 539 269
428 2 2 0 6 165 395 339
429 2 2 0 6 166 396 337
430 2 2 0 6 104 253 364
431 2 2 0 6 74 75 307
432 2 2 0 6 109 271 541
433 2 2 0 6 145 422 265
434 2 2 0 6 146 421 264
435 2 2 0 6 130 510 286
436 2 2 0 6 180 502 268
437 2 2 0 6 94 457 288
438 2 2 0 6 175 288 457
439 2 2 0 6 193 543 272
440 2 2 0 6 104 349 266
441 2 2 0 6 158 411 392
442 2 2 0 6 127 272 366
443 2 2 0 6 168 244 588
444 2 2 0 6 169 245 589
445 2 2 0 6 171 590 246
446 2 2 0 6 170 591 247
447 2 2 0 6 157 416 429
448 2 2 0 6 161 413 391
449 2 2 0 6 135 265 557
450 2 2 0 6 52 359 281
451 2 2 0 6 10 360 282
452 2 2 0 6 134 264 555
453 2 2 0 6 92 500 273
454 2 2 0 6 134 514 427
455 2 2 0 6 104 523 253
456 2 2 0 6 2 423 18
457 2 2 0 6 1 5 426
458 2 2 0 6 4 424 60
459 2 2 0 6 3 47 425
460 2 2 0 6 51 281 329
461 2 2 0 6 9 282 330
462 2 2 0 6 205 273 521
463 2 2 0 6 147 270 445
464 2 2 0 6 227 368 495
465 2 2 0 6 209 305 559
466 2 2 0 6 140 278 338
467 2 2 0 6 141 279 340
468 2 2 0 6 122 442 255
469 2 2 0 6 109 399 539
470 2 2 0 6 280 345 567
471 2 2 0 6 14 332 285
472 2 2 0 6 56 331 284
473 2 2 0 6 567 345 196
474 2 2 0 6 135 524 428
475 2 2 0 6 124 458 257
476 2 2 0 6 123 256 501
477 2 2 0 6 212 412 358
478 2 2 0 6 73 361 546
479 2 2 0 6 145 338 278
480 2 2 0 6 146 340 279
481 2 2 0 6 125 258 499
482 2 2 0 6 103 355 445
483 2 2 0 6 97 373 278
484 2 2 0 6 96 374 279
485 2 2 0 6 228 445 355
486 2 2 0 6 2 19 423
487 2 2 0 6 4 61 424
488 2 2 0 6 1 426 88
489 2 2 0 6 3 425 46
490 2 2 0 6 142 261 389
491 2 2 0 6 119 415 259
492 2 2 0 6 120 260 417
493 2 2 0 6 194 371 271
494 2 2 0 6 142 270 489
495 2 2 0 6 188 582 274
496 2 2 0 6 229 369 494
497 2 2 0 6 155 262 545
498 2 2 0 6 151 259 415
499 2 2 0 6 119 259 538
500 2 2 0 6 275 598 583
501 2 2 0 6 152 417 260
502 2 2 0 6 95 587 267
503 2 2 0 6 120 544 260
504 2 2 0 6 142 402 261
505 2 2 0 6 167 464 276
506 2 2 0 6 253 529 533
507 2 2 0 6 254 534 530
508 2 2 0 6 140 338 314
509 2 2 0 6 132 266 465
510 2 2 0 6 251 532 526
511 2 2 0 6 191 313 409
512 2 2 0 6 150 409 313
513 2 2 0 6 195 540 299
514 2 2 0 6 55 284 496
515 2 2 0 6 13 285 497
516 2 2 0 6 160 358 412
517 2 2 0 6 183 286 498
518 2 2 0 6 128 288 504
519 2 2 0 6 225 367 519
520 2 2 0 6 94 288 384
521 2 2 0 6 154 384 288
522 2 2 0 6 203 314 338
523 2 2 0 6 146 264 427
524 2 2 0 6 145 265 428
525 2 2 0 6 198 496 284
526 2 2 0 6 199 497 285
527 2 2 0 6 101 498 286
528 2 2 0 6 214 410 344
529 2 2 0 6 214 344 289
530 2 2 0 6 147 579 270
531 2 2 0 6 159 344 410
532 2 2 0 6 157 289 404
533 2 2 0 6 103 445 270
534 2 2 0 6 122 404 289
535 2 2 0 6 122 289 344
536 2 2 0 6 154 341 366
537 2 2 0 6 92 287 500
538 2 2 0 6 107 438 421
539 2 2 0 6 106 439 422
540 2 2 0 6 131 446 540
541 2 2 0 6 133 280 560
542 2 2 0 6 268 502 571
543 2 2 0 6 264 421 438
544 2 2 0 6 265 422 439
545 2 2 0 6 114 583 598
546 2 2 0 6 239 461 467
547 2 2 0 6 182 301 482
548 2 2 0 6 175 595 390
549 2 2 0 6 181 302 481
550 2 2 0 6 268 520 300
551 2 2 0 6 201 328 403
552 2 2 0 6 218 317 486
553 2 2 0 6 217 316 488
554 2 2 0 6 126 403 328
555 2 2 0 6 172 438 585
556 2 2 0 6 173 439 586
557 2 2 0 6 145 278 373
558 2 2 0 6 146 279 374
559 2 2 0 6 267 298 516
560 2 2 0 6 101 356 498
561 2 2 0 6 239 498 356
562 2 2 0 6 97 486 317
563 2 2 0 6 96 488 316
564 2 2 0 6 72 322 506
565 2 2 0 6 357 505 569
566 2 2 0 6 71 72 506
567 2 2 0 6 198 284 577
568 2 2 0 6 199 285 578
569 2 2 0 6 153 276 414
570 2 2 0 6 183 508 286
571 2 2 0 6 212 358 294
572 2 2 0 6 225 546 361
573 2 2 0 6 164 294 418
574 2 2 0 6 95 599 379
575 2 2 0 6 189 533 529
576 2 2 0 6 190 530 534
577 2 2 0 6 124 418 294
578 2 2 0 6 192 526 532
579 2 2 0 6 130 286 508
580 2 2 0 6 136 436 281
581 2 2 0 6 139 437 282
582 2 2 0 6 155 446 277
583 2 2 0 6 92 561 287
584 2 2 0 6 215 301 392
585 2 2 0 6 228 398 606
586 2 2 0 6 74 307 361
587 2 2 0 6 174 467 461
588 2 2 0 6 260 544 349
589 2 2 0 6 213 302 391
590 2 2 0 6 238 390 595
591 2 2 0 6 25 26 313
592 2 2 0 6 39 40 312
593 2 2 0 6 115 479 300
594 2 2 0 6 181 483 295
595 2 2 0 6 67 68 310
596 2 2 0 6 81 82 311
597 2 2 0 6 117 519 367
598 2 2 0 6 182 484 297
599 2 2 0 6 157 429 289
600 2 2 0 6 167 466 283
601 2 2 0 6 164 449 294
602 2 2 0 6 129 283 466
603 2 2 0 6 97 278 481
604 2 2 0 6 96 279 482
605 2 2 0 6 196 505 357
606 2 2 0 6 119 342 406
607 2 2 0 6 73 74 361
608 2 2 0 6 204 406 342
609 2 2 0 6 120 407 343
610 2 2 0 6 207 343 407
611 2 2 0 6 131 571 502
612 2 2 0 6 197 362 548
613 2 2 0 6 140 483 278
614 2 2 0 6 141 484 279
615 2 2 0 6 228 355 398
616 2 2 0 6 182 440 301
617 2 2 0 6 116 298 480
618 2 2 0 6 123 301 440
619 2 2 0 6 141 340 323
620 2 2 0 6 444 593 162
621 2 2 0 6 181 441 302
622 2 2 0 6 125 302 441
623 2 2 0 6 35 450 292
624 2 2 0 6 30 293 451
625 2 2 0 6 222 374 316
626 2 2 0 6 221 373 317
627 2 2 0 6 53 335 359
628 2 2 0 6 11 336 360
629 2 2 0 6 199 578 291
630 2 2 0 6 198 577 290
631 2 2 0 6 593 342 162
632 2 2 0 6 124 294 358
633 2 2 0 6 136 281 448
634 2 2 0 6 139 282 447
635 2 2 0 6 202 522 323
636 2 2 0 6 138 291 578
637 2 2 0 6 137 290 577
638 2 2 0 6 176 450 320
639 2 2 0 6 177 321 451
640 2 2 0 6 202 323 340
641 2 2 0 6 147 500 287
642 2 2 0 6 210 503 462
643 2 2 0 6 100 576 296
644 2 2 0 6 203 535 314
645 2 2 0 6 175 504 288
646 2 2 0 6 219 565 487
647 2 2 0 6 217 488 566
648 2 2 0 6 220 563 485
649 2 2 0 6 218 486 564
650 2 2 0 6 179 322 519
651 2 2 0 6 109 541 305
652 2 2 0 6 35 292 517
653 2 2 0 6 30 518 293
654 2 2 0 6 301 611 482
655 2 2 0 6 149 361 307
656 2 2 0 6 302 612 481
657 2 2 0 6 53 54 335
658 2 2 0 6 11 12 336
659 2 2 0 6 179 519 431
660 2 2 0 6 284 435 577
661 2 2 0 6 285 434 578
662 2 2 0 6 107 395 290
663 2 2 0 6 106 396 291
664 2 2 0 6 90 402 536
665 2 2 0 6 211 463 513
666 2 2 0 6 50 51 329
667 2 2 0 6 8 9 330
668 2 2 0 6 14 15 332
669 2 2 0 6 56 57 331
670 2 2 0 6 162 309 443
671 2 2 0 6 156 399 379
672 2 2 0 6 209 379 399
673 2 2 0 6 145 428 338
674 2 2 0 6 146 427 340
675 2 2 0 6 137 577 435
676 2 2 0 6 138 578 434
677 2 2 0 6 275 315 598
678 2 2 0 6 297 484 613
679 2 2 0 6 200 384 372
680 2 2 0 6 154 372 384
681 2 2 0 6 203 338 428
682 2 2 0 6 202 340 427
683 2 2 0 6 200 372 357
684 2 2 0 6 22 23 325
685 2 2 0 6 42 43 324
686 2 2 0 6 108 357 372
687 2 2 0 6 64 65 326
688 2 2 0 6 84 85 327
689 2 2 0 6 165 359 335
690 2 2 0 6 166 360 336
691 2 2 0 6 163 349 544
692 2 2 0 6 89 507 345
693 2 2 0 6 150 355 409
694 2 2 0 6 150 313 375
695 2 2 0 6 151 376 312
696 2 2 0 6 152 310 377
697 2 2 0 6 153 378 311
698 2 2 0 6 180 300 479
699 2 2 0 6 206 306 516
700 2 2 0 6 95 516 306
701 2 2 0 6 105 365 562
702 2 2 0 6 254 562 365
703 2 2 0 6 283 401 599
704 2 2 0 6 183 480 298
705 2 2 0 6 185 472 423
706 2 2 0 6 186 473 424
707 2 2 0 6 187 425 475
708 2 2 0 6 184 426 474
709 2 2 0 6 97 317 373
710 2 2 0 6 96 316 374
711 2 2 0 6 220 385 563
712 2 2 0 6 218 564 388
713 2 2 0 6 219 386 565
714 2 2 0 6 217 566 387
715 2 2 0 6 137 585 290
716 2 2 0 6 138 586 291
717 2 2 0 6 80 378 572
718 2 2 0 6 69 573 377
719 2 2 0 6 22 325 351
720 2 2 0 6 43 350 324
721 2 2 0 6 25 313 468
722 2 2 0 6 40 469 312
723 2 2 0 6 64 326 352
724 2 2 0 6 85 353 327
725 2 2 0 6 158 324 350
726 2 2 0 6 159 351 325
727 2 2 0 6 38 376 574
728 2 2 0 6 27 575 375
729 2 2 0 6 160 352 326
730 2 2 0 6 161 327 353
731 2 2 0 6 67 310 470
732 2 2 0 6 82 471 311
733 2 2 0 6 129 466 568
734 2 2 0 6 191 468 313
735 2 2 0 6 192 312 469
736 2 2 0 6 189 470 310
737 2 2 0 6 190 311 471
738 2 2 0 6 226 370 476
739 2 2 0 6 100 476 370
740 2 2 0 6 8 330 383
741 2 2 0 6 50 329 382
742 2 2 0 6 176 292 450
743 2 2 0 6 177 451 293
744 2 2 0 6 185 423 452
745 2 2 0 6 184 455 426
746 2 2 0 6 186 424 453
747 2 2 0 6 187 454 425
748 2 2 0 6 243 393 527
749 2 2 0 6 57 381 331
750 2 2 0 6 15 380 332
751 2 2 0 6 193 527 393
752 2 2 0 6 164 303 419
753 2 2 0 6 143 419 303
754 2 2 0 6 207 431 397
755 2 2 0 6 292 210 517
756 2 2 0 6 293 518 211
757 2 2 0 6 106 604 396
758 2 2 0 6 80 81 378
759 2 2 0 6 68 69 377
760 2 2 0 6 107 605 395
761 2 2 0 6 188 511 362
762 2 2 0 6 597 293 211
763 2 2 0 6 600 210 292
764 2 2 0 6 38 39 376
765 2 2 0 6 26 27 375
766 2 2 0 6 21 22 351
767 2 2 0 6 43 44 350
768 2 2 0 6 144 556 296
769 2 2 0 6 32 33 348
770 2 2 0 6 63 64 352
771 2 2 0 6 85 86 353
772 2 2 0 6 137 435 608
773 2 2 0 6 138 434 607
774 2 2 0 6 224 370 503
775 2 2 0 6 123 392 301
776 2 2 0 6 125 391 302
777 2 2 0 6 102 363 584
778 2 2 0 6 251 584 363
779 2 2 0 6 237 572 378
780 2 2 0 6 236 377 573
781 2 2 0 6 91 537 299
782 2 2 0 6 195 299 537
783 2 2 0 6 208 531 536
784 2 2 0 6 235 574 376
785 2 2 0 6 234 375 575
786 2 2 0 6 155 545 299
787 2 2 0 6 208 536 403
788 2 2 0 6 148 503 370
789 2 2 0 6 35 36 450
790 2 2 0 6 29 30 451
791 2 2 0 6 253 533 364
792 2 2 0 6 254 365 534
793 2 2 0 6 251 363 532
794 2 2 0 6 163 460 333
795 2 2 0 6 52 53 359
796 2 2 0 6 10 11 360
797 2 2 0 6 277 446 502
798 2 2 0 6 131 502 446
799 2 2 0 6 227 449 419
800 2 2 0 6 170 382 329
801 2 2 0 6 171 383 330
802 2 2 0 6 164 419 449
803 2 2 0 6 149 307 461
804 2 2 0 6 174 461 307
805 2 2 0 6 169 331 381
806 2 2 0 6 168 332 380
807 2 2 0 6 142 416 304
808 2 2 0 6 104 303 523
809 2 2 0 6 355 596 409
810 2 2 0 6 103 304 478
811 2 2 0 6 136 602 436
812 2 2 0 6 139 603 437
813 2 2 0 6 26 375 313
814 2 2 0 6 39 312 376
815 2 2 0 6 436 602 609
816 2 2 0 6 437 603 610
817 2 2 0 6 68 377 310
818 2 2 0 6 81 311 378
819 2 2 0 6 15 16 380
820 2 2 0 6 57 58 381
821 2 2 0 6 7 8 383
822 2 2 0 6 49 50 382
823 2 2 0 6 33 34 462
824 2 2 0 6 31 32 463
825 2 2 0 6 30 31 518
826 2 2 0 6 34 35 517
827 2 2 0 6 226 513 370
828 2 2 0 6 155 299 446
829 2 2 0 6 164 523 303
830 2 2 0 6 122 525 404
831 2 2 0 6 148 370 513
832 2 2 0 6 250 404 525
833 2 2 0 6 147 445 592
834 2 2 0 6 117 397 431
835 2 2 0 6 157 478 304
836 2 2 0 6 144 308 556
837 2 2 0 6 118 606 398
838 2 2 0 6 105 562 295
839 2 2 0 6 250 525 409
840 2 2 0 6 191 409 525
841 2 2 0 6 157 304 416
842 2 2 0 6 108 543 393
843 2 2 0 6 207 397 457
844 2 2 0 6 77 78 394
845 2 2 0 6 282 360 447
846 2 2 0 6 281 359 448
847 2 2 0 6 223 297 613
848 2 2 0 6 197 366 341
849 2 2 0 6 235 551 320
850 2 2 0 6 234 321 550
851 2 2 0 6 236 319 552
852 2 2 0 6 237 553 318
853 2 2 0 6 284 331 435
854 2 2 0 6 285 332 434
855 2 2 0 6 124 529 418
856 2 2 0 6 253 418 529
857 2 2 0 6 155 296 556
858 2 2 0 6 102 584 297
859 2 2 0 6 281 436 329
860 2 2 0 6 282 437 330
861 2 2 0 6 129 528 401
862 2 2 0 6 239 356 461
863 2 2 0 6 196 345 507
864 2 2 0 6 115 433 597
865 2 2 0 6 229 416 389
866 2 2 0 6 75 76 570
867 2 2 0 6 206 516 298
868 2 2 0 6 167 306 464
869 2 2 0 6 117 367 595
870 2 2 0 6 238 595 367
871 2 2 0 6 205 300 520
872 2 2 0 6 91 299 545
873 2 2 0 6 103 478 596
874 2 2 0 6 34 517 462
875 2 2 0 6 31 463 518
876 2 2 0 6 92 371 561
877 2 2 0 6 114 600 432
878 2 2 0 6 215 611 301
879 2 2 0 6 213 612 302
880 2 2 0 6 192 532 312
881 2 2 0 6 190 534 311
882 2 2 0 6 189 310 533
883 2 2 0 6 151 312 532
884 2 2 0 6 153 311 534
885 2 2 0 6 152 533 310
886 2 2 0 6 122 344 442
887 2 2 0 6 12 497 336
888 2 2 0 6 54 496 335
889 2 2 0 6 333 460 542
890 2 2 0 6 199 336 497
891 2 2 0 6 198 335 496
892 2 2 0 6 202 427 514
893 2 2 0 6 207 457 594
894 2 2 0 6 224 576 370
895 2 2 0 6 179 319 506
896 2 2 0 6 123 440 526
897 2 2 0 6 125 441 530
898 2 2 0 6 251 526 440
899 2 2 0 6 178 318 553
900 2 2 0 6 179 552 319
901 2 2 0 6 266 349 465
902 2 2 0 6 176 320 551
903 2 2 0 6 177 550 321
904 2 2 0 6 254 530 441
905 2 2 0 6 241 459 314
906 2 2 0 6 156 401 334
907 2 2 0 6 124 358 458
908 2 2 0 6 174 307 570
909 2 2 0 6 206 580 306
910 2 2 0 6 100 370 576
911 2 2 0 6 150 398 355
912 2 2 0 6 141 613 484
913 2 2 0 6 75 570 307
914 2 2 0 6 140 314 459
915 2 2 0 6 159 325 442
916 2 2 0 6 132 569 505
917 2 2 0 6 173 347 494
918 2 2 0 6 244 472 490
919 2 2 0 6 247 493 475
920 2 2 0 6 246 492 474
921 2 2 0 6 245 473 491
922 2 2 0 6 203 428 524
923 2 2 0 6 125 499 391
924 2 2 0 6 123 501 392
925 2 2 0 6 172 346 495
926 2 2 0 6 163 333 465
927 2 2 0 6 172 368 555
928 2 2 0 6 166 447 360
929 2 2 0 6 165 448 359
930 2 2 0 6 160 326 458
931 2 2 0 6 185 490 472
932 2 2 0 6 184 474 492
933 2 2 0 6 187 475 493
934 2 2 0 6 186 491 473
935 2 2 0 6 173 369 557
936 2 2 0 6 243 527 444
937 2 2 0 6 93 444 527
938 2 2 0 6 139 447 337
939 2 2 0 6 136 448 339
940 2 2 0 6 255 442 325
941 2 2 0 6 158 501 324
942 2 2 0 6 161 499 327
943 2 2 0 6 168 434 332
944 2 2 0 6 169 435 331
945 2 2 0 6 170 329 436
946 2 2 0 6 171 330 437
947 2 2 0 6 201 579 328
948 2 2 0 6 119 538 342
949 2 2 0 6 120 343 544
950 2 2 0 6 141 323 477
951 2 2 0 6 242 477 323
952 2 2 0 6 143 601 400
953 2 2 0 6 159 442 344
954 2 2 0 6 252 400 601
955 2 2 0 6 228 592 445
956 2 2 0 6 250 596 478
957 2 2 0 6 163 465 349
958 2 2 0 6 257 458 326
959 2 2 0 6 24 25 468
960 2 2 0 6 40 41 469
961 2 2 0 6 66 67 470
962 2 2 0 6 82 83 471
963 2 2 0 6 166 337 447
964 2 2 0 6 165 339 448
965 2 2 0 6 169 589 385
966 2 2 0 6 168 588 386
967 2 2 0 6 171 388 590
968 2 2 0 6 170 387 591
969 2 2 0 6 147 328 579
970 2 2 0 6 205 405 433
971 2 2 0 6 204 432 406
972 2 2 0 6 204 342 593
973 2 2 0 6 201 536 402
974 2 2 0 6 207 407 431
975 2 2 0 6 206 430 408
976 2 2 0 6 214 487 565
977 2 2 0 6 215 566 488
978 2 2 0 6 212 485 563
979 2 2 0 6 213 564 486
980 2 2 0 6 127 366 558
981 2 2 0 6 235 320 574
982 2 2 0 6 234 575 321
983 2 2 0 6 37 574 320
984 2 2 0 6 28 321 575
985 2 2 0 6 237 318 572
986 2 2 0 6 236 573 319
987 2 2 0 6 79 572 318
988 2 2 0 6 70 319 573
989 2 2 0 6 54 55 496
990 2 2 0 6 12 13 497
991 2 2 0 6 132 465 333
992 2 2 0 6 133 560 443
993 2 2 0 6 160 458 358
994 2 2 0 6 243 443 560
995 2 2 0 6 172 555 438
996 2 2 0 6 224 315 576
997 2 2 0 6 173 557 439
998 2 2 0 6 179 506 322
999 2 2 0 6 224 598 315
1000 2 2 0 6 163 343 460
1001 2 2 0 6 207 594 343
1002 2 2 0 6 164 418 523
1003 2 2 0 6 225 519 322
1004 2 2 0 6 142 389 416
1005 2 2 0 6 157 404 478
1006 2 2 0 6 227 419 400
1007 2 2 0 6 239 480 498
1008 2 2 0 6 183 498 480
1009 2 2 0 6 72 546 322
1010 2 2 0 6 143 400 419
1011 2 2 0 6 251 440 584
1012 2 2 0 6 72 73 546
1013 2 2 0 6 225 322 546
1014 2 2 0 6 258 327 499
1015 2 2 0 6 76 456 570
1016 2 2 0 6 256 324 501
1017 2 2 0 6 254 441 562
1018 2 2 0 6 241 568 459
1019 2 2 0 6 275 583 512
1020 2 2 0 6 137 346 585
1021 2 2 0 6 138 347 586
1022 2 2 0 6 217 602 316
1023 2 2 0 6 218 603 317
1024 2 2 0 6 132 333 569
1025 2 2 0 6 175 390 504
1026 2 2 0 6 200 569 333
1027 2 2 0 6 33 462 348
1028 2 2 0 6 32 348 463
1029 2 2 0 6 162 443 444
1030 2 2 0 6 243 444 443
1031 2 2 0 6 149 461 356
1032 2 2 0 6 178 553 408
1033 2 2 0 6 179 407 552
1034 2 2 0 6 176 551 406
1035 2 2 0 6 177 405 550
1036 2 2 0 6 79 80 572
1037 2 2 0 6 69 70 573
1038 2 2 0 6 37 38 574
1039 2 2 0 6 27 28 575
1040 2 2 0 6 167 354 466
1041 2 2 0 6 216 459 568
1042 2 2 0 6 226 476 479
1043 2 2 0 6 180 479 476
1044 2 2 0 6 158 392 501
1045 2 2 0 6 161 391 499
1046 2 2 0 6 204 512 583
1047 2 2 0 6 200 333 542
1048 2 2 0 6 175 397 595
1049 2 2 0 6 178 408 430
1050 2 2 0 6 179 431 407
1051 2 2 0 6 176 406 432
1052 2 2 0 6 177 433 405
1053 2 2 0 6 287 561 547
1054 2 2 0 6 194 547 561
1055 2 2 0 6 210 462 517
1056 2 2 0 6 211 518 463
1057 2 2 0 6 117 431 519
1058 2 2 0 6 162 342 538
1059 2 2 0 6 163 544 343
1060 2 2 0 6 188 510 511
1061 2 2 0 6 248 511 510
1062 2 2 0 6 193 393 543
1063 2 2 0 6 271 571 540
1064 2 2 0 6 197 558 366
1065 2 2 0 6 175 457 397
1066 2 2 0 6 95 379 587
1067 2 2 0 6 96 482 611
1068 2 2 0 6 97 481 612
1069 2 2 0 6 172 495 368
1070 2 2 0 6 173 494 369
1071 2 2 0 6 239 467 480
1072 2 2 0 6 116 480 467
1073 2 2 0 6 130 508 559
1074 2 2 0 6 267 559 508
1075 2 2 0 6 188 362 582
1076 2 2 0 6 131 540 571
1077 2 2 0 6 248 537 511
1078 2 2 0 6 91 511 537
1079 2 2 0 6 221 337 604
1080 2 2 0 6 222 339 605
1081 2 2 0 6 134 555 368
1082 2 2 0 6 103 596 355
1083 2 2 0 6 196 357 567
1084 2 2 0 6 108 567 357
1085 2 2 0 6 135 557 369
1086 2 2 0 6 142 489 402
1087 2 2 0 6 201 402 489
1088 2 2 0 6 172 585 346
1089 2 2 0 6 173 586 347
1090 2 2 0 6 115 509 479
1091 2 2 0 6 226 479 509
1092 2 2 0 6 194 561 371
1093 2 2 0 6 151 532 363
1094 2 2 0 6 152 364 533
1095 2 2 0 6 153 534 365
1096 2 2 0 6 201 489 579
1097 2 2 0 6 200 357 569
1098 2 2 0 6 200 542 384
1099 2 2 0 6 94 384 542
1100 2 2 0 6 250 478 404
1101 2 2 0 6 223 477 581
1102 2 2 0 6 271 371 571
1103 2 2 0 6 242 581 477
1104 2 2 0 6 128 582 362
1105 2 2 0 6 343 594 460
1106 2 2 0 6 275 512 420
1107 2 2 0 6 156 599 401
1108 2 2 0 6 169 385 608
1109 2 2 0 6 168 386 607
1110 2 2 0 6 170 609 387
1111 2 2 0 6 171 610 388
1112 2 2 0 6 204 583 432
1113 2 2 0 6 204 593 512
1114 2 2 0 6 197 548 558
1115 2 2 0 6 262 558 548
1116 2 2 0 6 220 608 385
1117 2 2 0 6 219 607 386
1118 2 2 0 6 217 387 609
1119 2 2 0 6 218 388 610
1120 2 2 0 6 94 542 460
1121 2 2 0 6 90 536 531
1122 2 2 0 6 268 571 371
1123 2 2 0 6 118 405 521
1124 2 2 0 6 205 521 405
1125 2 2 0 6 280 393 560
1126 2 2 0 6 273 592 606
1127 2 2 0 6 243 560 393
1128 2 2 0 6 111 563 385
1129 2 2 0 6 113 388 564
1130 2 2 0 6 110 565 386
1131 2 2 0 6 112 387 566
1132 2 2 0 6 195 541 540
1133 2 2 0 6 271 540 541
1134 2 2 0 6 209 587 379
1135 2 2 0 6 201 403 536
1136 2 2 0 6 112 566 411
1137 2 2 0 6 110 410 565
1138 2 2 0 6 113 564 413
1139 2 2 0 6 111 412 563
1140 2 2 0 6 93 420 512
1141 2 2 0 6 215 411 566
1142 2 2 0 6 214 565 410
1143 2 2 0 6 110 386 588
1144 2 2 0 6 111 385 589
1145 2 2 0 6 112 591 387
1146 2 2 0 6 113 590 388
1147 2 2 0 6 212 563 412
1148 2 2 0 6 213 413 564
1149 2 2 0 6 253 523 418
1150 2 2 0 6 278 483 481
1151 2 2 0 6 279 484 482
1152 2 2 0 6 118 550 405
1153 2 2 0 6 119 406 551
1154 2 2 0 6 181 481 483
1155 2 2 0 6 182 482 484
1156 2 2 0 6 120 552 407
1157 2 2 0 6 121 408 553
1158 2 2 0 6 156 379 599
1159 2 2 0 6 121 580 408
1160 2 2 0 6 174 570 456
1161 2 2 0 6 262 548 545
1162 2 2 0 6 91 545 548
1163 2 2 0 6 117 595 397
1164 2 2 0 6 241 528 568
1165 2 2 0 6 129 568 528
1166 2 2 0 6 241 531 528
1167 2 2 0 6 206 408 580
1168 2 2 0 6 208 528 531
1169 2 2 0 6 210 600 515
1170 2 2 0 6 211 509 597
1171 2 2 0 6 228 606 592
1172 2 2 0 6 264 438 555
1173 2 2 0 6 265 439 557
1174 2 2 0 6 107 421 605
1175 2 2 0 6 106 422 604
1176 2 2 0 6 222 605 421
1177 2 2 0 6 221 604 422
1178 2 2 0 6 114 432 583
1179 2 2 0 6 250 409 596
1180 2 2 0 6 224 503 515
1181 2 2 0 6 306 580 464
1182 2 2 0 6 249 505 507
1183 2 2 0 6 196 507 505
1184 2 2 0 6 213 486 612
1185 2 2 0 6 215 488 611
1186 2 2 0 6 252 522 514
1187 2 2 0 6 226 509 513
1188 2 2 0 6 121 464 580
1189 2 2 0 6 211 513 509
1190 2 2 0 6 210 515 503
1191 2 2 0 6 203 524 535
1192 2 2 0 6 261 535 524
1193 2 2 0 6 93 593 444
1194 2 2 0 6 202 514 522
1195 2 2 0 6 217 609 602
1196 2 2 0 6 218 610 603
1197 2 2 0 6 94 594 457
1198 2 2 0 6 273 606 521
1199 2 2 0 6 168 607 434
1200 2 2 0 6 169 608 435
1201 2 2 0 6 170 436 609
1202 2 2 0 6 171 437 610
1203 2 2 0 6 147 592 500
1204 2 2 0 6 273 500 592
1205 2 2 0 6 94 460 594
1206 2 2 0 6 143 554 601
1207 2 2 0 6 249 601 554
1208 2 2 0 6 270 579 489
1209 2 2 0 6 112 493 591
1210 2 2 0 6 110 588 490
1211 2 2 0 6 111 589 491
1212 2 2 0 6 113 492 590
1213 2 2 0 6 244 490 588
1214 2 2 0 6 245 491 589
1215 2 2 0 6 246 590 492
1216 2 2 0 6 247 591 493
1217 2 2 0 6 209 559 587
1218 2 2 0 6 267 587 559
1219 2 2 0 6 223 613 477
1220 2 2 0 6 224 515 598
1221 2 2 0 6 93 512 593
1222 2 2 0 6 141 477 613
1223 2 2 0 6 114 598 515
1224 2 2 0 6 96 611 488
1225 2 2 0 6 97 612 486
1226 2 2 0 6 115 597 509
1227 2 2 0 6 114 515 600
1228 2 2 0 6 118 521 606
$EndElements
