$MeshFormat
2.2 0 8
$EndMeshFormat
$Nodes
8
1 0 0 0
2 1 0 0
3 0 2 0
4 1 2 0
5 1 0.999999999997388 0
6 0 1.000000000004118 0
7 0.5 0.5000000000003766 0
8 0.5 1.500000000000857 0
$EndNodes
$Elements
18
1 15 2 0 1 1
2 15 2 0 2 2
3 15 2 0 3 3
4 15 2 0 4 4
5 1 2 0 1 1 2
6 1 2 0 2 2 5
7 1 2 0 2 5 4
8 1 2 0 3 4 3
9 1 2 0 4 3 6
10 1 2 0 4 6 1
11 2 2 0 6 8 6 5
12 2 2 0 6 6 7 5
13 2 2 0 6 1 7 6
14 2 2 0 6 4 8 5
15 2 2 0 6 3 8 4
16 2 2 0 6 1 2 7
17 2 2 0 6 2 5 7
18 2 2 0 6 3 6 8
$EndElements
