$MeshFormat
2.2 0 8
$EndMeshFormat
$Nodes
54
1 0 0.5 0
2 0.5 0 0
3 1 0 0
4 0 1 0
5 0.6250000000000004 0 0
6 0.7500000000000009 0 0
7 0.8750000000000007 0 0
8 0 0.8749999999999996 0
9 0 0.7499999999999991 0
10 0 0.6249999999999993 0
11 0.1423148382728438 0.9898214418809962 0
12 0.2817325568407102 0.9594929736147086 0
13 0.4154150130008904 0.9096319953549732 0
14 0.5406408174543399 0.8412535328319894 0
15 0.6548607339439358 0.7557495743554274 0
16 0.7557495743530999 0.654860733946622 0
17 0.8412535328304209 0.5406408174567805 0
18 0.9096319953541212 0.4154150130027562 0
19 0.9594929736143476 0.2817325568419398 0
20 0.9898214418809036 0.142314838273488 0
21 0.1294095225509257 0.4829629131446238 0
22 0.2499999999994048 0.433012701892563 0
23 0.3535533905925979 0.3535533905939495 0
24 0.4330127018919007 0.2500000000005519 0
25 0.4829629131444731 0.1294095225514882 0
26 0.4406904361869956 0.6115144723185019 0
27 0.7093573759933639 0.2351234662200544 0
28 0.2185848696480001 0.6836840172061319 0
29 0.6293282234856029 0.4617538928687875 0
30 0.4228476015938182 0.761100844542604 0
31 0.8129611778727961 0.130919476910215 0
32 0.1517648451421628 0.8325022664944487 0
33 0.5076753917299658 0.3791586505481324 0
34 0.3078662214817557 0.5697810820224345 0
35 0.6069843911991204 0.605057176573446 0
36 0.6222751100385669 0.1396623949786194 0
37 0.7560755598231201 0.4010272710374254 0
38 0.5680638060253156 0.2561616066993075 0
39 0.1274866571644617 0.6106819585940039 0
40 0.3038201724720925 0.8022859122873502 0
41 0.3970891066531577 0.4756859472281002 0
42 0.533204796075642 0.7149351201243936 0
43 0.8355241233642641 0.2684894980016296 0
44 0.110709553322173 0.7271858132291262 0
45 0.5185822126111994 0.5045309280171039 0
46 0.717878256338273 0.5326679783766123 0
47 0.6379474429526718 0.3470414793411984 0
48 0.7139315832978773 0.09916681217654064 0
49 0.2076783007307354 0.550597696217825 0
50 0.3369945140852298 0.6804247259142137 0
51 0.901758190521874 0.09588827491157026 0
52 0.5575595057957601 0.0672679793825269 0
53 0.09101642225193626 0.9077965829332997 0
54 0.9052485833387548 0.1960013424361567 0
$EndNodes
$Elements
106
1 1 2 5 1 2 5
2 1 2 5 1 5 6
3 1 2 5 1 6 7
4 1 2 5 1 7 3
5 1 2 5 2 4 8
6 1 2 5 2 8 9
7 1 2 5 2 9 10
8 1 2 5 2 10 1
9 1 2 5 3 4 11
10 1 2 5 3 11 12
11 1 2 5 3 12 13
12 1 2 5 3 13 14
13 1 2 5 3 14 15
14 1 2 5 3 15 16
15 1 2 5 3 16 17
16 1 2 5 3 17 18
17 1 2 5 3 18 19
18 1 2 5 3 19 20
19 1 2 5 3 20 3
20 1 2 5 4 1 21
21 1 2 5 4 21 22
22 1 2 5 4 22 23
23 1 2 5 4 23 24
24 1 2 5 4 24 25
25 1 2 5 4 25 2
26 2 2 11 10 8 9 32
27 2 2 11 10 1 39 10
28 2 2 11 10 1 21 39
29 2 2 11 10 9 44 32
30 2 2 11 10 11 32 12
31 2 2 11 10 13 30 14
32 2 2 11 10 12 32 40
33 2 2 11 10 6 7 31
34 2 2 11 10 25 36 38
35 2 2 11 10 23 24 33
36 2 2 11 10 24 25 38
37 2 2 11 10 8 32 53
38 2 2 11 10 17 37 18
39 2 2 11 10 18 37 43
40 2 2 11 10 13 40 30
41 2 2 11 10 22 41 34
42 2 2 11 10 17 46 37
43 2 2 11 10 14 30 42
44 2 2 11 10 24 38 33
45 2 2 11 10 28 40 32
46 2 2 11 10 26 42 30
47 2 2 11 10 15 35 16
48 2 2 11 10 23 33 41
49 2 2 11 10 22 23 41
50 2 2 11 10 28 49 34
51 2 2 11 10 27 48 31
52 2 2 11 10 28 50 40
53 2 2 11 10 18 43 19
54 2 2 11 10 11 53 32
55 2 2 11 10 10 39 44
56 2 2 11 10 26 30 50
57 2 2 11 10 9 10 44
58 2 2 11 10 28 32 44
59 2 2 11 10 30 40 50
60 2 2 11 10 28 39 49
61 2 2 11 10 29 33 47
62 2 2 11 10 27 38 36
63 2 2 11 10 29 37 46
64 2 2 11 10 7 51 31
65 2 2 11 10 6 31 48
66 2 2 11 10 27 36 48
67 2 2 11 10 12 40 13
68 2 2 11 10 26 34 41
69 2 2 11 10 26 35 42
70 2 2 11 10 27 31 43
71 2 2 11 10 33 38 47
72 2 2 11 10 15 42 35
73 2 2 11 10 27 43 37
74 2 2 11 10 26 45 35
75 2 2 11 10 29 35 45
76 2 2 11 10 26 50 34
77 2 2 11 10 5 48 36
78 2 2 11 10 16 35 46
79 2 2 11 10 29 46 35
80 2 2 11 10 22 34 49
81 2 2 11 10 29 45 33
82 2 2 11 10 14 42 15
83 2 2 11 10 5 6 48
84 2 2 11 10 3 20 51
85 2 2 11 10 28 34 50
86 2 2 11 10 28 44 39
87 2 2 11 10 3 51 7
88 2 2 11 10 33 45 41
89 2 2 11 10 27 37 47
90 2 2 11 10 29 47 37
91 2 2 11 10 5 36 52
92 2 2 11 10 4 53 11
93 2 2 11 10 4 8 53
94 2 2 11 10 25 52 36
95 2 2 11 10 26 41 45
96 2 2 11 10 27 47 38
97 2 2 11 10 21 22 49
98 2 2 11 10 16 46 17
99 2 2 11 10 21 49 39
100 2 2 11 10 2 52 25
101 2 2 11 10 19 54 20
102 2 2 11 10 2 5 52
103 2 2 11 10 31 54 43
104 2 2 11 10 19 43 54
105 2 2 11 10 31 51 54
106 2 2 11 10 20 54 51
$EndElements
