$MeshFormat
2.2 0 8
$EndMeshFormat
$Nodes
942
1 0 0 0
2 100 0 0
3 0 100 0
4 100 100 0
5 0 80 0
6 50 80 0
7 0 50 0
8 50 50 0
9 15 10 0
10 15 30 0
11 45 30 0
12 45 10 0
13 3.999999999984052 0 0
14 7.999999999968399 0 0
15 11.99999999995462 0 0
16 15.99999999993488 0 0
17 19.99999999991412 0 0
18 23.99999999989335 0 0
19 27.99999999987259 0 0
20 31.99999999985316 0 0
21 35.99999999984654 0 0
22 39.99999999983999 0 0
23 43.99999999983343 0 0
24 47.99999999982686 0 0
25 51.99999999982031 0 0
26 55.99999999981375 0 0
27 59.99999999980719 0 0
28 63.99999999980319 0 0
29 67.99999999982487 0 0
30 71.99999999984675 0 0
31 75.99999999986865 0 0
32 79.99999999989055 0 0
33 83.99999999991243 0 0
34 87.99999999993432 0 0
35 91.9999999999562 0 0
36 95.99999999997809 0 0
37 100 3.999999999984052 0
38 100 7.999999999968399 0
39 100 11.99999999995462 0
40 100 15.99999999993488 0
41 100 19.99999999991412 0
42 100 23.99999999989335 0
43 100 27.99999999987259 0
44 100 31.99999999985316 0
45 100 35.99999999984654 0
46 100 39.99999999983999 0
47 100 43.99999999983343 0
48 100 47.99999999982686 0
49 100 51.99999999982031 0
50 100 55.99999999981375 0
51 100 59.99999999980719 0
52 100 63.99999999980319 0
53 100 67.99999999982487 0
54 100 71.99999999984675 0
55 100 75.99999999986865 0
56 100 79.99999999989055 0
57 100 83.99999999991243 0
58 100 87.99999999993432 0
59 100 91.9999999999562 0
60 100 95.99999999997809 0
61 96.00000000002842 100 0
62 92.00000000005686 100 0
63 88.00000000008528 100 0
64 84.0000000001137 100 0
65 80.00000000014212 100 0
66 76.00000000017056 100 0
67 72.00000000019898 100 0
68 68.0000000002274 100 0
69 64.00000000025561 100 0
70 60.00000000025817 100 0
71 56.00000000025818 100 0
72 52.0000000002582 100 0
73 48.00000000025821 100 0
74 44.00000000025822 100 0
75 40.00000000025823 100 0
76 36.0000000002557 100 0
77 32.00000000022747 100 0
78 28.00000000019905 100 0
79 24.0000000001706 100 0
80 20.00000000014217 100 0
81 16.00000000011374 100 0
82 12.00000000008531 100 0
83 8.000000000056858 100 0
84 4.000000000028436 100 0
85 0 96 0
86 0 92 0
87 0 88 0
88 0 84 0
89 0 76.25 0
90 0 72.5 0
91 0 68.75 0
92 0 65 0
93 0 61.25 0
94 0 57.5 0
95 0 53.75 0
96 0 46.15384615387349 0
97 0 42.30769230774698 0
98 0 38.46153846162046 0
99 0 34.61538461549394 0
100 0 30.76923076935985 0
101 0 26.92307692320602 0
102 0 23.07692307705219 0
103 0 19.23076923089835 0
104 0 15.38461538472475 0
105 0 11.53846153854356 0
106 0 7.692307692362377 0
107 0 3.846153846181188 0
108 18.74999999999098 10 0
109 22.49999999998196 10 0
110 26.24999999993547 10 0
111 29.99999999988273 10 0
112 33.74999999989384 10 0
113 37.49999999992922 10 0
114 41.24999999996461 10 0
115 45 14.00000000000001 0
116 45 18.00000000000002 0
117 45 22.00000000000002 0
118 45 26.00000000000004 0
119 41.25000000002221 30 0
120 37.50000000004442 30 0
121 33.75000000006663 30 0
122 30.00000000008815 30 0
123 26.25000000006663 30 0
124 22.50000000004442 30 0
125 18.75000000002221 30 0
126 15 25.99999999999999 0
127 15 21.99999999999998 0
128 15 17.99999999999998 0
129 15 13.99999999999996 0
130 3.846153846138571 50 0
131 7.69230769227673 50 0
132 11.53846153841061 50 0
133 15.38461538454449 50 0
134 19.23076923069048 50 0
135 23.07692307683803 50 0
136 26.92307692298557 50 0
137 30.76923076913311 50 0
138 34.61538461530041 50 0
139 38.46153846147531 50 0
140 42.30769230765021 50 0
141 46.15384615382511 50 0
142 50 53.74999999995247 0
143 50 57.49999999990494 0
144 50 61.24999999985741 0
145 50 64.99999999983486 0
146 50 68.74999999987614 0
147 50 72.49999999991743 0
148 50 76.24999999995872 0
149 46.15384615387349 80 0
150 42.30769230774698 80 0
151 38.46153846162046 80 0
152 34.61538461549394 80 0
153 30.76923076935985 80 0
154 26.92307692320602 80 0
155 23.07692307705219 80 0
156 19.23076923089835 80 0
157 15.38461538472475 80 0
158 11.53846153854356 80 0
159 7.692307692362377 80 0
160 3.846153846181188 80 0
161 72.65136194936399 33.61718226080842 0
162 75.0326359223701 74.1481763797628 0
163 79.03771170824494 53.73400998718414 0
164 81.84247594539337 18.15752405458862 0
165 63.1597819299651 18.14088092608347 0
166 65.56561381796904 61.99925210047774 0
167 64.94205175410519 47.00286633447435 0
168 64.21401583973341 85.14754052914851 0
169 84.18103349901722 84.26722410965975 0
170 85.6572989891765 40.91497833788498 0
171 58.85655217086297 34.24024731147819 0
172 86.05236271067433 66.59066968068288 0
173 61.89209218675372 73.30021016051005 0
174 88.5055860690333 28.36522706698246 0
175 72.51583855312586 11.64272452132052 0
176 74.66605308140244 88.91743037644639 0
177 49.23568632193291 38.97932222704298 0
178 10.48234552333384 39.51765447666898 0
179 89.01182109340624 50.01934147878729 0
180 54.46396303481558 89.52599257141431 0
181 74.35231770421939 43.96075459044315 0
182 55.58231244555486 10.55238339840158 0
183 72.49665593631836 23.17035676009869 0
184 75.84339304958424 63.98135812396751 0
185 89.49052626751634 10.42892772146633 0
186 20.78489937342906 39.88937808884165 0
187 31.8750000000774 39.94267751480356 0
188 89.55705669220615 75.69742744870722 0
189 55.09932996901145 24.4392932914331 0
190 13.36389072407565 89.54633706328519 0
191 25.05511081603039 89.5630516932389 0
192 36.5384615385572 89.91479289940521 0
193 59.54469306686083 54.61848755485038 0
194 64.38875472379314 27.4327952663958 0
195 45.58959187519395 89.32427342156303 0
196 40.13624906376452 40.89000158488505 0
197 70.23024261572735 54.09869858965002 0
198 91.27792600831526 20.2230394869286 0
199 56.4625186296016 44.08098337210015 0
200 64.47756850611923 8.705282027053963 0
201 79.17600709551533 28.34491022566096 0
202 80.75441555945673 8.518408798094386 0
203 91.37988129602056 58.84297726742405 0
204 58.26029457387162 65.93073167258945 0
205 92.58710498328665 91.40996553412526 0
206 65.71733718082316 38.56370649307252 0
207 68.87386866837645 69.22988472417084 0
208 57.54081268204237 79.91778057484576 0
209 70.99741224755704 81.04210730739796 0
210 91.89422241019193 36.41658288556811 0
211 7.874297517183826 32.27174794741767 0
212 81.48030545391653 77.64447284965378 0
213 67.05651032265388 92.71031956822988 0
214 7.381656804730225 9.615384615452966 0
215 81.29478524677495 92.07429778645597 0
216 7.457103773328593 24.70462176518725 0
217 7.332516482219113 15.65316893308064 0
218 92.93767724369053 83.309589574283 0
219 93.09420646241921 44.0818825570047 0
220 51.86636589196897 18.04328732006752 0
221 79.62324985350651 35.44664534073259 0
222 81.9117254701419 46.99794355030713 0
223 51.46603432290029 32.82123401820981 0
224 93.31943470950075 69.44031847576593 0
225 84.56173162464373 58.73068923215842 0
226 80.86964350307714 70.82176225482024 0
227 6.81694172797526 86.65096848320546 0
228 60.46605328822366 93.35513661473122 0
229 26.24457350798727 36.5655608866428 0
230 26.84625873568915 43.39382329659536 0
231 68.09641057967403 75.81158511974832 0
232 19.22264553512715 86.64649416204993 0
233 19.01864776000225 93.5158142745572 0
234 31.52710996040631 93.39781759727423 0
235 30.67674993388864 86.77183476883754 0
236 50.26571150619946 6.323224246861291 0
237 77.77956036110754 82.9935846486101 0
238 15.21433148985858 43.69161061873547 0
239 37.35838652225379 35.95444784100003 0
240 6.431594638449398 93.75834241735281 0
241 69.57768038065612 16.9814109269881 0
242 43.83712907718435 36.33779739208301 0
243 55.97970531017304 59.98206174358013 0
244 49.71303937279176 93.93470798575626 0
245 15.70967542016726 36.16785814579635 0
246 93.74263685800295 25.8158135427424 0
247 5.886792701354604 43.69514632311911 0
248 56.05155274095595 71.44184213169417 0
249 41.46972586368521 93.85889279431666 0
250 93.78302400065533 5.98044221979805 0
251 83.64527981656038 24.11734415867347 0
252 74.67159947621494 57.99454192319363 0
253 85.55451609937002 34.33303321087926 0
254 75.73287815409965 17.13484428829033 0
255 69.57959801916262 5.962180665335947 0
256 70.43448560373282 48.2192851292055 0
257 94.16312986059752 14.68699229236815 0
258 45.73546727086 44.16368591681288 0
259 56.28796625515254 50.00750654228067 0
260 66.26686646295457 32.43414618300881 0
261 40.71888325970696 85.71140168850205 0
262 35.84391387498929 44.09845426627786 0
263 71.27302444867158 39.48508042156335 0
264 54.87565147747864 38.25923993465442 0
265 86.60902467428981 5.814203627669378 0
266 50.65864777868688 85.35661244967235 0
267 94.32480371765497 53.79306932228562 0
268 59.0519854510939 5.827806756878328 0
269 75.62243391634718 5.912625030126259 0
270 65.19259270449888 52.08975621716719 0
271 63.46110148868041 79.17572705414236 0
272 11.40176779810626 5.629469660570836 0
273 70.37002709469991 28.28389080426174 0
274 63.70892476566364 67.06449167713836 0
275 60.67834472316788 40.97084236265271 0
276 57.95575195255949 15.82742587169646 0
277 78.20065427683416 22.59573592452598 0
278 72.75823041478978 94.32044066932833 0
279 58.69472390839164 85.60711604207957 0
280 5.475349320902492 37.49086491043825 0
281 59.141918586689 28.91133754364297 0
282 50.20973278940351 12 0
283 67.02614870472338 22.37324637506845 0
284 87.00948796655986 15.76520942697902 0
285 69.50520645926196 86.78713327991956 0
286 51.09943496556932 44.72047311148781 0
287 61.04252982570269 21.96515467507844 0
288 79.89584355881199 41.52331222176672 0
289 50.36729177870237 27.48294187621165 0
290 94.30979677900928 63.81431729465408 0
291 84.3043777709658 52.96083964231594 0
292 75.826100760659 49.1792630541953 0
293 94.38301254081708 77.80791059385072 0
294 86.69995954608216 94.68142506115042 0
295 70.54550496621098 64.08045033374742 0
296 81.17835376454244 64.37690750854432 0
297 74.22986729736698 69.08082330555126 0
298 86.72171091703146 45.74572214018671 0
299 86.64546146811684 71.68832661819604 0
300 31.87500000007739 34.79454407635508 0
301 20.67580725155866 34.81344243708533 0
302 21.15384615376426 45.1506115034551 0
303 16.82624153216102 5.212286199259781 0
304 43.30474251848789 5.343112811051765 0
305 94.68738511035235 31.11768229269746 0
306 24.21708772706807 4.760461384828127 0
307 35.78291227277354 4.760461384831538 0
308 94.71767322991144 48.15684108592847 0
309 55.90435084438103 94.90838560162514 0
310 61.06353283720606 59.62816288320729 0
311 86.89353156223902 80.69276698157037 0
312 13.39737999742573 85.26975891065049 0
313 25.00676612691299 85.19083684657555 0
314 29.99999999988255 5.18232070584952 0
315 5.510526869842724 5.770904013619345 0
316 25.83084894145008 95.09846536618493 0
317 66.07079738429316 14.53202171658686 0
318 50.10173082265958 22.02455726079707 0
319 11.54997426429021 94.39790337906302 0
320 94.82388337266606 87.64037623198193 0
321 35.46566671460677 84.16027494935867 0
322 69.69673986427426 58.46345889006269 0
323 55.03231816525021 76.07644190755367 0
324 54.77253546359297 56.01417352506304 0
325 94.74870541082841 94.57473361936538 0
326 35.62710908562191 94.92311278788195 0
327 59.69015697428867 49.93542105721136 0
328 68.59200262870088 43.30951697930405 0
329 30.85508923523464 45.10390610270038 0
330 80.67679491517023 87.55847269804342 0
331 11.19257938795288 45.14571881902372 0
332 77.92538229429495 95.39611105787046 0
333 79.37920183793788 13.33612149352299 0
334 10.31561724858467 28.40046621128141 0
335 3.930677428420857 28.29136362146193 0
336 53.94083786121487 83.03405244395073 0
337 3.829574730368726 13.57618827048889 0
338 95.09915458314521 38.69981655057436 0
339 65.1500017584632 57.12081903915975 0
340 4.035201452686193 21.25651017298472 0
341 79.35814971418661 59.02379528178452 0
342 10.27211365708478 13.40397467556373 0
343 60.52956394956885 11.41033985798955 0
344 10.97401820051661 21.03938698345482 0
345 86.89731820901392 89.49233769834075 0
346 75.52060184610865 79.07798000360849 0
347 12.0225835540643 33.46733913395622 0
348 86.02985982481748 11.87610752146796 0
349 75.93751857390454 39.01045827931312 0
350 94.74106608592933 21.33049571973687 0
351 40.47074085464066 46.55569946163969 0
352 95.26004933776551 72.78759331419253 0
353 88.08844111796365 23.47922838350503 0
354 45.52467757368082 83.92927568767594 0
355 73.9252979100564 29.95657470017339 0
356 63.40625756571846 89.713409340807 0
357 53.93492748605645 66.50399402725992 0
358 61.97663327662481 32.08316324597601 0
359 54.4108004684237 29.26037359825236 0
360 89.18064786755579 55.90211475373366 0
361 83.56096931375248 30.45288690829817 0
362 57.16842011344451 21.52491696760934 0
363 45.64605596655844 95.76870001001114 0
364 54.28166137150659 4.317266226461979 0
365 96.28688090381456 10.94506383127079 0
366 60.0994932690937 44.12093792586123 0
367 89.86669512010852 63.26580150300913 0
368 90.2722414394507 87.76305830482035 0
369 65.89259643594235 3.819566402642148 0
370 89.17360474855388 39.39080134950844 0
371 95.72122347234165 57.60005125626955 0
372 85.01220790536971 20.44769660524469 0
373 64.17645951766747 95.54974012157503 0
374 82.11303216901923 4.304436205164617 0
375 74.01280883207272 54.40062717409509 0
376 78.89062295417249 67.16863958023696 0
377 67.91654378559156 81.62728240603455 0
378 47.33373985483694 33.47168599268966 0
379 77.096538823852 9.815845919913588 0
380 40.75353284073432 34.24955378881727 0
381 90.0541968896722 3.638106560112836 0
382 68.1482432359942 10.15950260710019 0
383 59.66427734174362 69.71546050455656 0
384 71.06484827684582 72.79443534682716 0
385 3.955853808128964 90.09886704528081 0
386 64.52897438512326 42.9844886229472 0
387 79.01030063523102 74.07053202516053 0
388 61.38791653033201 35.63923840052981 0
389 81.40200176597845 81.7511260773697 0
390 45.71781970423699 40.27607982683872 0
391 66.24941833925595 72.30394723570393 0
392 85.3147595716368 75.28222591634575 0
393 15.67172068655745 95.72239851715621 0
394 36.35691863600411 40.28282676451065 0
395 59.20376537903547 76.15837035257324 0
396 61.83418632169798 63.48443751965103 0
397 68.90987757281677 36.09723720436215 0
398 9.119040348205246 90.46251354728319 0
399 10.04336060175237 83.41007605861708 0
400 46.24450797630579 3.414367474745074 0
401 74.47805528943634 85.17552968471539 0
402 90.31664208904731 96.02343278678535 0
403 3.931240986983061 32.32695256111684 0
404 40.9658129688775 89.69530236205563 0
405 50.31741116853936 89.72264348162396 0
406 76.18206017552329 25.99326125217709 0
407 72.6621255522797 77.53476826387109 0
408 20.53794162326167 6.463082655837471 0
409 39.55732942282217 6.445492930454624 0
410 53.14845482974685 62.66381013473571 0
411 3.913100017096026 83.92309873404018 0
412 89.21663803418897 32.67341101065363 0
413 48.72485638467506 15.31009782263452 0
414 69.07329674642412 95.93254977627215 0
415 85.1198928683408 49.85019384376395 0
416 95.54313526026426 35.06533789500402 0
417 61.04516110784587 82.49618286661348 0
418 22.36205773410034 96.6512594308933 0
419 82.97143799786703 95.99187806813758 0
420 17.10565062924347 40.12567321683174 0
421 58.66402096935413 89.38013970516049 0
422 3.75092735500677 9.514178541519144 0
423 76.37641846958411 33.5019380305478 0
424 96.57314892106562 81.97339544499421 0
425 3.366365701981583 40.39317923940889 0
426 8.821822611891413 36.25177251668202 0
427 51.9538129563141 36.72055509635553 0
428 28.05709362689662 39.93033080292515 0
429 3.526771985961411 24.77269222481648 0
430 77.92337198497869 91.25640387808782 0
431 3.764256088393941 17.5476499982818 0
432 10.87153566258946 9.606605058685245 0
433 28.58747434853123 33.38978631477612 0
434 23.99796211020189 33.37653353666717 0
435 71.02204983377011 90.42890502873669 0
436 21.62334742362675 83.44793933349189 0
437 16.89436099628017 83.47813578947488 0
438 96.50519676000761 91.24373042121655 0
439 28.33678941064247 83.44733406627478 0
440 76.97803843632597 70.78837464407525 0
441 97.02744532006147 45.2057987099974 0
442 11.80200613004238 24.92454697569941 0
443 32.66866290055641 90.00887392171261 0
444 82.97318084588662 37.42121622878779 0
445 96.16752865327928 67.20105719084412 0
446 21.14516239266817 89.98816980465479 0
447 72.6899682958739 19.23303832514295 0
448 81.53249142236919 50.90535397230695 0
449 17.33237821373411 89.89749287155682 0
450 17.81853082198068 46.62632650463684 0
451 11.13728025127787 17.11942181439112 0
452 29.20228186926351 89.91473022801796 0
453 24.69999338927749 39.88247017139756 0
454 80.15848336779052 31.72159709919129 0
455 66.96316645209825 49.28274055975475 0
456 90.75333898281208 79.27842647872717 0
457 67.19333021191301 65.43867705161922 0
458 77.53487783617163 46.1579392557088 0
459 82.49731462357049 67.14127575399175 0
460 90.86304047617251 47.01069166764317 0
461 53.73482909264592 13.94294296917657 0
462 86.26388089044561 62.03168948461629 0
463 96.52368311415515 17.55737403734668 0
464 72.61523302697478 61.0675921826633 0
465 52.91673306607232 48.06081438373479 0
466 89.48544947387235 68.18091255369986 0
467 54.99786854364251 34.37973552135103 0
468 48.23810784332686 46.75040247267851 0
469 90.92211576290369 72.09397133003155 0
470 40.23789637065573 37.70125296688907 0
471 24.3659207112176 46.60355907676602 0
472 52.90803499119917 41.48120993833309 0
473 67.06795501135954 25.83363285161221 0
474 88.74318075486768 83.71330802005825 0
475 82.8102244742678 43.30604192644571 0
476 91.92061192584815 29.10066481740824 0
477 58.86627900671627 96.93735502540001 0
478 32.43794444649313 83.31641283235157 0
479 61.62340898659117 3.070242755102641 0
480 3.741071876969218 96.25892812303236 0
481 64.63315112064822 75.82509457252003 0
482 10.54812267988685 87.06793081260828 0
483 35.27082079748465 33.11328805150368 0
484 72.463712969854 4.217013191828597 0
485 81.73408082782689 56.07926108044275 0
486 8.359186516205792 3.625493787515388 0
487 69.63202467450371 13.68405811363325 0
488 90.83472285274848 16.06447000201108 0
489 78.11717546257451 3.182836870193466 0
490 3.538287358591245 46.4617126414097 0
491 38.93220685252218 96.4980241512839 0
492 14.22759526044946 3.266748498138519 0
493 87.84331990012569 59.1638023936647 0
494 17.00005140735264 33.03899359108765 0
495 14.22970372454945 47.0927311884792 0
496 7.175849397536786 40.44134000712285 0
497 55.69978757112757 86.23447204129288 0
498 61.2351967664574 14.73589349088587 0
499 29.19537216845615 96.61122796240961 0
500 53.24485774782409 52.3573034321881 0
501 88.34364166375042 36.11900775646438 0
502 83.0693197504651 14.9540216684205 0
503 53.20785910348876 79.42159112914986 0
504 52.41274606437454 96.43894687756863 0
505 57.33291148520497 46.9404106017605 0
506 48.46695996482024 83.0872311385783 0
507 78.79989755119463 79.69472679850249 0
508 48.73651834422824 30.21676396898216 0
509 58.57009697935888 62.03013685387921 0
510 58.67144908966283 37.6363979802624 0
511 96.44607567196473 3.553924328031053 0
512 72.67401343043892 7.912652241312262 0
513 48.43723713373662 9.333335756061649 0
514 18.9568473023682 42.90663046984113 0
515 23.53579938117748 92.936123660474 0
516 21.40659426570833 2.825947740283151 0
517 38.60701588355766 2.82343492238413 0
518 53.12999523574571 70.34355953620285 0
519 44.25822374973192 46.86042305953743 0
520 52.64105373306146 58.83917423384497 0
521 46.76337617247999 92.37541956368952 0
522 72.62550386107353 51.00638179242309 0
523 78.66243340346485 19.56572059724991 0
524 47.16069119916722 36.79701060865933 0
525 53.57879416863467 21.23753397977804 0
526 96.32275780234586 28.98309619010924 0
527 77.26036584339883 86.58663244160631 0
528 67.05145064890033 29.28811089376467 0
529 9.197994668699899 97.02410330105961 0
530 72.57022812397132 15.34594500886804 0
531 52.54175460128357 9.225960813332589 0
532 80.2871713022967 25.1804043991561 0
533 12.1120704907068 37.25256347905413 0
534 70.93802422384842 45.26345233934127 0
535 66.69240639857533 18.97594953121946 0
536 64.16290356740141 24.13373928202274 0
537 48.13859061986071 19.07558848069983 0
538 33.01452267027798 6.849140415497101 0
539 26.98547732953354 6.849140415487702 0
540 13.19005302033181 40.68446454618567 0
541 69.18967316565103 78.92601833954291 0
542 90.04048940046059 7.203193590123721 0
543 43.61179693461304 32.84600576876726 0
544 50.27105207909248 2.910705239564977 0
545 29.64703325409796 37.04144045544855 0
546 53.23849533624627 92.73125888562053 0
547 96.64007133592364 51.24332013967349 0
548 81.42498285252921 21.53639062233501 0
549 33.87357812906355 37.36861079557933 0
550 62.70927315456932 55.70001706513137 0
551 7.727015957078718 46.76355550923021 0
552 33.6277103680635 46.86651608176342 0
553 69.78296138436266 31.72162430905767 0
554 96.84813930124643 61.7712390885708 0
555 38.26142387153558 92.81539469229205 0
556 59.58273675768308 18.4597569835876 0
557 89.67640670936999 42.97767215639118 0
558 71.22261613679015 67.16293460809413 0
559 84.22518876158911 88.75974260864176 0
560 76.47955546576905 60.55462728698388 0
561 73.66558358204215 37.02815007687828 0
562 18.70471617933454 37.36786904391342 0
563 48.16266687335779 24.83911826099434 0
564 66.94460928798078 88.62860303102967 0
565 48.59989096530506 42.68449339259476 0
566 69.78329250306348 20.80823555747545 0
567 32.7995724904161 3.129209306586113 0
568 27.20042750935216 3.129209306583978 0
569 57.28258203003396 41.09160191897733 0
570 76.14791679205159 13.95279654916438 0
571 22.41060645887309 86.9672983680022 0
572 58.4526825219648 57.59201744540416 0
573 27.95191527485201 47.02025769521235 0
574 42.23589099308999 97.13503404602058 0
575 16.04213109332856 86.96764375940346 0
576 63.2123583793558 69.99494606195552 0
577 27.6555396313476 86.97755752058895 0
578 38.54525186509815 83.2687050210719 0
579 97.39473877571345 14.23788603217502 0
580 61.4764220621352 26.1799772534085 0
581 91.67996203301057 23.3873266536249 0
582 85.08905249138535 27.3212585109575 0
583 55.99061217577373 7.718859226852881 0
584 57.45335690562766 31.55536499766264 0
585 92.29493493121375 12.21839373480722 0
586 52.84277322839037 73.32236871506534 0
587 68.20600012824907 40.38216362317159 0
588 57.99999999981048 2.665668773983539 0
589 61.49922652192603 86.75823482907209 0
590 23.16425542847117 42.69058397118097 0
591 36.93115512593471 46.83147296630055 0
592 22.68510273850583 36.93757139545556 0
593 92.09198629994118 65.99589279565988 0
594 74.67081990315805 96.78969644288355 0
595 92.66404824809625 50.78237136728887 0
596 96.71670398165408 24.37509945315339 0
597 92.78502872807809 75.06188577605023 0
598 18.63981960009627 97.11949904708327 0
599 82.55694446313811 73.69144309012448 0
600 46.062866522452 7.05738235746285 0
601 84.09324669085797 8.336527410188754 0
602 58.36880116274779 73.33846501137754 0
603 14.22233050083833 6.938296236017855 0
604 42.4945885727238 43.0678466670315 0
605 61.42772495932702 8.861815930104388 0
606 56.53335096472863 68.54424283183447 0
607 96.94940254010909 69.88579379609482 0
608 57.00853253912809 53.10395051290232 0
609 72.12797392259296 57.03547336923891 0
610 49.22831652476395 97.00749629163093 0
611 77.44255162178888 56.2569671936137 0
612 67.00314892678176 54.98198800726055 0
613 15.3769934865916 92.55401018048572 0
614 33.02712453565871 42.96732073676478 0
615 96.50167258423562 41.52992210045888 0
616 2.900187945343309 36.37010036975899 0
617 32.86991824299351 96.98643166951315 0
618 67.75938471593392 46.17689588622631 0
619 57.15187107423841 83.17653956519499 0
620 2.952130468322581 93.26601185500681 0
621 96.61044281356317 6.889417309660399 0
622 58.06808577154293 25.66073240568389 0
623 93.55363234735097 2.720820617716809 0
624 8.500141466799327 6.723207321684701 0
625 61.70330488355998 97.30462311548565 0
626 42.53420903061658 83.17777788929914 0
627 92.29380864680964 55.8725571506516 0
628 64.8468879669104 35.51425545889537 0
629 93.4253893017889 17.998659377542 0
630 37.74031222067649 86.79088666636159 0
631 75.30573695315928 21.46439821031498 0
632 69.58718148492612 2.799752051961339 0
633 96.86694190748443 84.98467225022115 0
634 78.7824171931323 6.295659212425004 0
635 73.5351780770005 47.28916486945536 0
636 86.04041304309349 2.548280944368328 0
637 7.221359490022678 29.24659216699161 0
638 51.95343568013159 24.88063637791109 0
639 85.82949396750948 55.91605022295001 0
640 72.60378947563403 26.26962983480768 0
641 2.979649985047137 86.91305244080441 0
642 9.578875694572874 42.40373305444134 0
643 74.89476413979401 92.03652380842085 0
644 60.60306096358975 78.78349608699216 0
645 47.33466515284066 86.39864065775355 0
646 38.70559435467617 43.62105028510754 0
647 7.349577495691931 12.63677289089511 0
648 73.82228159036245 40.87916380641481 0
649 29.9753009595019 42.24866446117677 0
650 63.3689141761467 49.64486250882491 0
651 86.10350060571682 97.52769098478589 0
652 66.65237228481206 7.077576849360937 0
653 97.33721970518407 54.12728814357254 0
654 56.61946153257535 91.856876795735 0
655 2.908182381376653 2.914545935818974 0
656 7.41978409110021 19.86261327662056 0
657 61.39098140549425 52.40259988610977 0
658 82.37407989606123 33.87507575757782 0
659 86.36234571818621 31.42182388074893 0
660 67.35258809207934 84.78448371381272 0
661 63.49898484054157 11.75133093009577 0
662 84.87993889756193 92.1973406880619 0
663 44.08691256935901 92.20451763032719 0
664 78.78994464453891 49.63849942966454 0
665 68.62102169993055 61.74995008568361 0
666 43.68446738042988 86.54392980340806 0
667 33.99740928229001 87.00304388257423 0
668 63.72467009248081 92.75958964881455 0
669 41.98757443938563 2.485307418002155 0
670 17.9999999999245 2.302630778573909 0
671 87.19343181739946 8.584731563032584 0
672 97.14262050704734 97.14262050703273 0
673 2.580144957379628 43.75804580370313 0
674 96.95874521323944 75.62199252978466 0
675 12.78591232991856 11.75264493356223 0
676 27.80296864281368 92.79998139331505 0
677 55.64781632948943 18.17264401531926 0
678 47.31331492344427 12.04689749115861 0
679 89.14781647131728 13.37511330181457 0
680 90.78744760077171 26.02965209285261 0
681 77.22372103434193 42.10641508628478 0
682 66.26768740779876 78.9043116636456 0
683 93.82192324627044 60.80123083126151 0
684 65.90524883359836 68.8659938099938 0
685 73.97154615761443 81.7534356124404 0
686 57.87500486372253 12.63945116660782 0
687 64.4167540852736 21.11779415789452 0
688 97.66070847982954 38.06742381005294 0
689 63.07568446467873 6.193153065977476 0
690 2.433927321245229 5.947618005900204 0
691 92.35653909709916 32.79601078843085 0
692 6.646998913253771 82.76700995887717 0
693 51.13571455409382 82.51971658084393 0
694 5.785607378580239 34.739672786443 0
695 52.84408232862341 87.09244957150473 0
696 76.95060971290728 76.53574200964178 0
697 88.04993195638139 18.68909932426606 0
698 60.98246678619461 67.03238098918523 0
699 12.24177477279935 30.64353080040036 0
700 79.2652932944203 38.86516592320761 0
701 97.78783124776648 93.99999999996729 0
702 94.01515801803068 97.70048654473966 0
703 13.07038799943606 97.30430838300138 0
704 62.70550200459513 38.78228989164496 0
705 34.65699113111462 92.15950435529884 0
706 82.11079140477921 60.87408131624306 0
707 81.98616056455012 27.85640021698957 0
708 51.47707594294492 29.95573722976658 0
709 42.48473655771308 39.65459568754547 0
710 64.83324810207655 82.0333235963241 0
711 80.10047335008539 44.30532519876475 0
712 71.02401325667007 84.16152529704739 0
713 88.6088675274071 91.92792667888067 0
714 77.16365340369394 29.90365626155011 0
715 75.98125232630328 66.93595641750723 0
716 71.30046941295966 97.40853737769679 0
717 72.38143303841518 87.13567037553972 0
718 82.12036823251263 40.40614292761855 0
719 81.76218323551402 11.41280436395549 0
720 16.87499999999549 7.938043251085377 0
721 20.62500000003332 32.04180113596646 0
722 43.12499999998231 7.930253856057329 0
723 83.72434535371538 69.98669547956307 0
724 5.778869123166594 2.365800352108737 0
725 56.04242188720975 63.55062064400658 0
726 31.87500000007739 32.03064437306777 0
727 53.83897643583104 45.22141993290331 0
728 58.40953397417347 9.501776056139091 0
729 69.89131145429977 24.4564986972207 0
730 63.95187694003103 59.58331950975869 0
731 66.8947785395292 59.2517310755958 0
732 24.09810133595614 7.614536891230657 0
733 35.92095287313935 7.611018946156651 0
734 78.72080375847872 62.74878921367296 0
735 87.37564933353653 52.88763562619275 0
736 21.15384615376426 47.95661412232866 0
737 49.55199526896396 35.34761351482043 0
738 11.08789251233982 2.794296300727506 0
739 71.82307773080056 70.02469262136073 0
740 73.18403678184667 64.9194123456044 0
741 73.79669203042234 71.50675322027111 0
742 62.29316225359801 28.98021962860364 0
743 96.99812549853266 78.64539255557968 0
744 66.50137453365423 97.33834112290829 0
745 64.57551377931091 64.49671458722158 0
746 83.83735726071851 64.02806410761238 0
747 84.66101527340491 17.58637386686679 0
748 76.43620407334224 52.2671817765529 0
749 70.023837105765 93.29308195016911 0
750 80.4073323189079 84.55297772582827 0
751 84.18391470574176 79.7806785368186 0
752 47.45329539925768 27.70776482123763 0
753 76.89786452672675 36.63609160709713 0
754 97.24433269519795 64.62089752359699 0
755 13.45648603413985 82.22596698838824 0
756 86.86379253278773 86.79913414830416 0
757 87.29730349360791 77.76410265105373 0
758 93.11489403347818 8.901546058303444 0
759 24.99662275123063 82.21444430012832 0
760 51.94562679485598 55.6249999999287 0
761 92.54857866286639 40.72195688611912 0
762 26.00000000018483 97.95434946957678 0
763 79.59281525932285 16.44129806307081 0
764 38.32088206608847 32.59604611917624 0
765 61.95863422774151 76.64857964534757 0
766 61.76730808134648 46.88129588652813 0
767 64.39537347317416 30.04368704354979 0
768 97.19196674056361 32.47241322503747 0
769 86.20867091423314 37.6773510764214 0
770 71.04633641348991 42.21114177071298 0
771 68.99982067438052 51.49600607074579 0
772 1.923076923090594 81.99999999999986 0
773 90.80846315117655 53.2095149498233 0
774 29.99999999987531 2.288147863803922 0
775 94.07384631607388 80.46905676508939 0
776 6.192068781452444 97.57247768377967 0
777 74.9776615120448 2.686867431242837 0
778 13.00460727484647 27.99679020279399 0
779 34.99519230769261 64.99999999999756 0
780 15.00480769230817 65.00000000000229 0
781 24.89502127290719 60.87430618538986 0
782 25.10819088173084 70.19373544630197 0
783 41.25845190475974 58.7709171785722 0
784 8.741548095255803 58.77091717856177 0
785 41.25845190473402 71.22908282144508 0
786 8.741548095250593 71.22908282143159 0
787 32.10290241172683 58.47491338893663 0
788 17.81209039079283 58.12443273273421 0
789 17.8383138387178 72.42987431474616 0
790 32.16168616144957 72.42987431482055 0
791 43.44127594473107 64.68725753601538 0
792 6.528560115618504 64.66472341279497 0
793 20.93656559471097 65.72056142903706 0
794 29.12953489439866 65.25328469175329 0
795 27.08440049662275 55.55510662132451 0
796 13.02806554494014 55.1963638233544 0
797 36.9719344550509 55.19636382337263 0
798 12.69247856336472 74.80059596010867 0
799 37.30752143675664 74.80059596018138 0
800 45.14033175655311 55.00644969220484 0
801 4.859668243446862 55.00644969219594 0
802 45.15994931887508 75.00375892630186 0
803 4.840050681140587 75.00375892628554 0
804 22.10845089702801 74.83601996722946 0
805 27.89154910319195 74.83601996723716 0
806 22.23317621931852 54.58897899998338 0
807 36.79136395633363 60.32326212609863 0
808 13.20863604367432 60.32326212610351 0
809 13.39018649526223 69.63987330217445 0
810 36.60981350481138 69.63987330208903 0
811 45.24634314306037 60.80122023941383 0
812 5.128781467096267 60.89114698430045 0
813 45.354856053356 69.36064637472492 0
814 4.597796138396088 69.3490788710303 0
815 18.85620657595697 62.07498538213248 0
816 30.67149612721647 62.17849265151747 0
817 38.77252843871482 63.67297833135225 0
818 11.22477835239595 63.67096635607201 0
819 32.42020806382544 68.28166296088082 0
820 16.99300549797406 68.38609907047685 0
821 9.201705096516296 54.35437543980239 0
822 40.79829490344816 54.35437543981128 0
823 16.97112324203228 53.77620109470604 0
824 33.18846632708347 54.06379177123915 0
825 9.084954579776813 75.78874237261371 0
826 40.91504542028802 75.78874237264688 0
827 33.12659746687358 76.27050026880724 0
828 16.87340253333231 76.2705002687665 0
829 21.37347494592955 70.90049697778842 0
830 28.61938536070286 71.71057390448208 0
831 25.0502543592077 64.61779534352127 0
832 40.00189553541382 67.80998988211348 0
833 9.994751694326954 67.80748517819482 0
834 21.36936717997854 58.6934311608904 0
835 28.12509641709642 59.00222546854354 0
836 25.00000000010711 76.96653347383534 0
837 46.63407016926118 66.21199914626996 0
838 2.828427527871217 63.75357382473683 0
839 25.19150309048432 53.20628529202072 0
840 22.04842214625725 62.30264708615226 0
841 29.36354708896747 53.06724735256932 0
842 41.72443423271774 61.82377324614369 0
843 8.324461118948024 61.83311333848052 0
844 46.94964813095191 57.9181390441139 0
845 3.095009560738086 57.92884460899998 0
846 2.935859031656861 72.07445969685702 0
847 47.0562496669678 72.07638761411012 0
848 27.57428061416529 62.38522086814509 0
849 24.60599018011584 57.31362466165712 0
850 23.7967177463129 67.73509804657857 0
851 25.0085927882086 73.41447600705067 0
852 47.19315673484201 63.43235420974054 0
853 2.846862449682039 66.80771547144973 0
854 27.07785933978107 68.14268260142117 0
855 47.07664575276807 52.90092546065591 0
856 2.923354247222891 52.90092546066629 0
857 47.07664575278361 77.09907453932807 0
858 2.923354247226612 77.09907453934038 0
859 32.14357144892352 64.8546552938603 0
860 17.75510373005761 64.90243137319895 0
861 12.5614637064974 66.75061632396803 0
862 37.43853629352788 66.75061632389142 0
863 36.60839651706442 52.41905782105895 0
864 13.37526138414928 52.44086785217809 0
865 28.95752588368689 77.38516231764855 0
866 21.04247411655668 77.38516231764319 0
867 13.21385564614435 77.4654227347835 0
868 36.786144354021 77.46542273481609 0
869 11.61544026359639 57.84378031714719 0
870 38.38455973640021 57.84378031715207 0
871 38.38978866154781 72.02675308358393 0
872 11.61021133842355 72.02675308358052 0
873 14.69764368559158 57.91295695140096 0
874 35.2379385960112 57.73061499842113 0
875 44.23542988358831 52.29230874453858 0
876 5.785661153589969 77.76401212188402 0
877 5.764570116376749 52.29230874453777 0
878 44.21433884645895 77.7640121218796 0
879 14.78889560216189 72.32569739115421 0
880 35.14124886957573 72.3132645210375 0
881 20.10637162740683 52.78549144028967 0
882 29.96702908520108 55.99321124306636 0
883 39.38626765378523 60.48694223986377 0
884 10.6229727747741 60.48840786327301 0
885 43.89073028301469 57.59189647923856 0
886 6.154883617138039 57.55132192621227 0
887 43.91634854287572 72.43067784316875 0
888 6.079625282951447 72.42969421189332 0
889 15.53956327422597 62.08403553851115 0
890 34.43344870584063 62.09243538190545 0
891 30.30130741793771 74.51727781124467 0
892 19.46004843087882 74.46056787963121 0
893 43.08494634700688 67.71449673838835 0
894 6.915053652984586 67.71449673836175 0
895 19.44407046734105 55.48093649567776 0
896 47.83332512805462 55.41510283936641 0
897 2.175606410281568 55.41724395237245 0
898 2.139852792004812 74.58545863249658 0
899 47.8585689477253 74.58584421592325 0
900 28.0506763708255 19.99917834135528 0
901 36.46731606452151 21.66522546553242 0
902 21.71436865592608 16.42391537603877 0
903 22.36149245344277 23.80776457831361 0
904 33.32357994396701 16.46143908754929 0
905 39.207592051578 15.82951490326103 0
906 31.62613774598276 24.42838276114234 0
907 28.12499999990909 14.82421874999858 0
908 39.72947908769602 25.25962574159671 0
909 26.53396130461712 25.38840695487276 0
910 40.69261763878991 19.64956784857311 0
911 36.40722370918404 25.97663427505889 0
912 19.20070434671054 20.29538126896382 0
913 32.39442438232759 20.54385385166271 0
914 19.1600575348505 25.85775856107538 0
915 24.81224671683157 13.25751655582274 0
916 18.86809142552458 13.88286899246985 0
917 35.94225696922926 13.63477766294795 0
918 23.78790436829852 19.96292243406832 0
919 36.33796450840221 17.96406313658775 0
920 31.33875345183289 13.48289739726611 0
921 23.75184983189489 26.89879531851003 0
922 25.9017105495393 16.93228017413729 0
923 41.62680418248089 13.40455857892083 0
924 29.97801558321662 17.22258653077634 0
925 18.18802605584743 17.09027714872975 0
926 29.55223518739113 26.83897098018098 0
927 28.97292017675353 23.04872142657241 0
928 42.30540277456976 16.176728266151 0
929 25.94139093478748 22.44139874703648 0
930 32.60915610881904 26.78393986266301 0
931 42.07418236690488 26.99980008829705 0
932 41.94863711723464 23.72000998272275 0
933 38.90421772347733 12.6165527453773 0
934 17.78439621314649 23.16931668648585 0
935 34.21040404392847 23.5689691738649 0
936 21.50248092994372 12.69869218625198 0
937 39.38125985161384 27.78909442093078 0
938 28.1249999999091 12.0477369053738 0
939 39.14215844728678 22.71833533041593 0
940 17.14227728272778 27.74942754745163 0
941 16.90452285637889 11.97071724811745 0
942 21.19750976334933 27.63257463449971 0
$EndNodes
$Elements
1954
1 15 2 0 1 1
2 15 2 0 2 2
3 15 2 0 3 3
4 15 2 0 4 4
5 15 2 0 5 5
6 15 2 0 6 6
7 15 2 0 7 7
8 15 2 0 8 8
9 15 2 0 9 9
10 15 2 0 10 10
11 15 2 0 11 11
12 15 2 0 12 12
13 1 2 0 1 1 13
14 1 2 0 1 13 14
15 1 2 0 1 14 15
16 1 2 0 1 15 16
17 1 2 0 1 16 17
18 1 2 0 1 17 18
19 1 2 0 1 18 19
20 1 2 0 1 19 20
21 1 2 0 1 20 21
22 1 2 0 1 21 22
23 1 2 0 1 22 23
24 1 2 0 1 23 24
25 1 2 0 1 24 25
26 1 2 0 1 25 26
27 1 2 0 1 26 27
28 1 2 0 1 27 28
29 1 2 0 1 28 29
30 1 2 0 1 29 30
31 1 2 0 1 30 31
32 1 2 0 1 31 32
33 1 2 0 1 32 33
34 1 2 0 1 33 34
35 1 2 0 1 34 35
36 1 2 0 1 35 36
37 1 2 0 1 36 2
38 1 2 0 2 2 37
39 1 2 0 2 37 38
40 1 2 0 2 38 39
41 1 2 0 2 39 40
42 1 2 0 2 40 41
43 1 2 0 2 41 42
44 1 2 0 2 42 43
45 1 2 0 2 43 44
46 1 2 0 2 44 45
47 1 2 0 2 45 46
48 1 2 0 2 46 47
49 1 2 0 2 47 48
50 1 2 0 2 48 49
51 1 2 0 2 49 50
52 1 2 0 2 50 51
53 1 2 0 2 51 52
54 1 2 0 2 52 53
55 1 2 0 2 53 54
56 1 2 0 2 54 55
57 1 2 0 2 55 56
58 1 2 0 2 56 57
59 1 2 0 2 57 58
60 1 2 0 2 58 59
61 1 2 0 2 59 60
62 1 2 0 2 60 4
63 1 2 0 3 4 61
64 1 2 0 3 61 62
65 1 2 0 3 62 63
66 1 2 0 3 63 64
67 1 2 0 3 64 65
68 1 2 0 3 65 66
69 1 2 0 3 66 67
70 1 2 0 3 67 68
71 1 2 0 3 68 69
72 1 2 0 3 69 70
73 1 2 0 3 70 71
74 1 2 0 3 71 72
75 1 2 0 3 72 73
76 1 2 0 3 73 74
77 1 2 0 3 74 75
78 1 2 0 3 75 76
79 1 2 0 3 76 77
80 1 2 0 3 77 78
81 1 2 0 3 78 79
82 1 2 0 3 79 80
83 1 2 0 3 80 81
84 1 2 0 3 81 82
85 1 2 0 3 82 83
86 1 2 0 3 83 84
87 1 2 0 3 84 3
88 1 2 0 4 3 85
89 1 2 0 4 85 86
90 1 2 0 4 86 87
91 1 2 0 4 87 88
92 1 2 0 4 88 5
93 1 2 0 5 5 89
94 1 2 0 5 89 90
95 1 2 0 5 90 91
96 1 2 0 5 91 92
97 1 2 0 5 92 93
98 1 2 0 5 93 94
99 1 2 0 5 94 95
100 1 2 0 5 95 7
101 1 2 0 6 7 96
102 1 2 0 6 96 97
103 1 2 0 6 97 98
104 1 2 0 6 98 99
105 1 2 0 6 99 100
106 1 2 0 6 100 101
107 1 2 0 6 101 102
108 1 2 0 6 102 103
109 1 2 0 6 103 104
110 1 2 0 6 104 105
111 1 2 0 6 105 106
112 1 2 0 6 106 107
113 1 2 0 6 107 1
114 1 2 0 7 9 108
115 1 2 0 7 108 109
116 1 2 0 7 109 110
117 1 2 0 7 110 111
118 1 2 0 7 111 112
119 1 2 0 7 112 113
120 1 2 0 7 113 114
121 1 2 0 7 114 12
122 1 2 0 8 12 115
123 1 2 0 8 115 116
124 1 2 0 8 116 117
125 1 2 0 8 117 118
126 1 2 0 8 118 11
127 1 2 0 9 11 119
128 1 2 0 9 119 120
129 1 2 0 9 120 121
130 1 2 0 9 121 122
131 1 2 0 9 122 123
132 1 2 0 9 123 124
133 1 2 0 9 124 125
134 1 2 0 9 125 10
135 1 2 0 10 10 126
136 1 2 0 10 126 127
137 1 2 0 10 127 128
138 1 2 0 10 128 129
139 1 2 0 10 129 9
140 1 2 0 11 7 130
141 1 2 0 11 130 131
142 1 2 0 11 131 132
143 1 2 0 11 132 133
144 1 2 0 11 133 134
145 1 2 0 11 134 135
146 1 2 0 11 135 136
147 1 2 0 11 136 137
148 1 2 0 11 137 138
149 1 2 0 11 138 139
150 1 2 0 11 139 140
151 1 2 0 11 140 141
152 1 2 0 11 141 8
153 1 2 0 12 8 142
154 1 2 0 12 142 143
155 1 2 0 12 143 144
156 1 2 0 12 144 145
157 1 2 0 12 145 146
158 1 2 0 12 146 147
159 1 2 0 12 147 148
160 1 2 0 12 148 6
161 1 2 0 13 6 149
162 1 2 0 13 149 150
163 1 2 0 13 150 151
164 1 2 0 13 151 152
165 1 2 0 13 152 153
166 1 2 0 13 153 154
167 1 2 0 13 154 155
168 1 2 0 13 155 156
169 1 2 0 13 156 157
170 1 2 0 13 157 158
171 1 2 0 13 158 159
172 1 2 0 13 159 160
173 1 2 0 13 160 5
174 2 2 0 16 687 287 165
175 2 2 0 16 287 556 165
176 2 2 0 16 345 368 713
177 2 2 0 16 713 368 205
178 2 2 0 16 48 308 441
179 2 2 0 16 127 344 128
180 2 2 0 16 259 327 608
181 2 2 0 16 197 322 612
182 2 2 0 16 214 422 315
183 2 2 0 16 287 622 362
184 2 2 0 16 205 368 320
185 2 2 0 16 179 415 298
186 2 2 0 16 227 398 385
187 2 2 0 16 697 353 372
188 2 2 0 16 414 744 213
189 2 2 0 16 165 317 535
190 2 2 0 16 241 535 317
191 2 2 0 16 65 66 332
192 2 2 0 16 218 320 368
193 2 2 0 16 190 319 398
194 2 2 0 16 100 101 335
195 2 2 0 16 23 400 669
196 2 2 0 16 198 353 697
197 2 2 0 16 189 362 622
198 2 2 0 16 240 385 398
199 2 2 0 16 304 669 400
200 2 2 0 16 236 364 531
201 2 2 0 16 188 392 299
202 2 2 0 16 240 398 319
203 2 2 0 16 161 553 355
204 2 2 0 16 71 504 309
205 2 2 0 16 346 685 407
206 2 2 0 16 273 355 553
207 2 2 0 16 322 731 612
208 2 2 0 16 238 331 540
209 2 2 0 16 58 438 320
210 2 2 0 16 355 406 714
211 2 2 0 16 222 475 298
212 2 2 0 16 170 298 475
213 2 2 0 16 152 578 321
214 2 2 0 16 327 657 608
215 2 2 0 16 222 298 415
216 2 2 0 16 248 602 323
217 2 2 0 16 169 751 311
218 2 2 0 16 364 583 531
219 2 2 0 16 41 596 350
220 2 2 0 16 744 373 213
221 2 2 0 16 128 344 451
222 2 2 0 16 685 209 407
223 2 2 0 16 386 618 167
224 2 2 0 16 41 42 596
225 2 2 0 16 328 618 386
226 2 2 0 16 189 359 638
227 2 2 0 16 172 299 723
228 2 2 0 16 170 557 298
229 2 2 0 16 205 320 438
230 2 2 0 16 714 406 201
231 2 2 0 16 207 384 391
232 2 2 0 16 366 386 766
233 2 2 0 16 189 622 359
234 2 2 0 16 199 472 569
235 2 2 0 16 403 637 211
236 2 2 0 16 102 103 340
237 2 2 0 16 231 391 384
238 2 2 0 16 172 466 299
239 2 2 0 16 179 298 460
240 2 2 0 16 766 386 167
241 2 2 0 16 218 633 320
242 2 2 0 16 219 308 460
243 2 2 0 16 223 359 467
244 2 2 0 16 245 540 533
245 2 2 0 16 100 335 403
246 2 2 0 16 104 105 337
247 2 2 0 16 188 299 469
248 2 2 0 16 205 325 402
249 2 2 0 16 71 309 477
250 2 2 0 16 111 539 314
251 2 2 0 16 111 314 538
252 2 2 0 16 335 637 403
253 2 2 0 16 245 420 540
254 2 2 0 16 130 490 551
255 2 2 0 16 171 584 358
256 2 2 0 16 48 547 308
257 2 2 0 16 205 438 325
258 2 2 0 16 65 332 419
259 2 2 0 16 224 352 469
260 2 2 0 16 132 551 331
261 2 2 0 16 215 430 330
262 2 2 0 16 219 441 308
263 2 2 0 16 281 358 584
264 2 2 0 16 294 419 662
265 2 2 0 16 289 638 359
266 2 2 0 16 281 359 622
267 2 2 0 16 25 26 364
268 2 2 0 16 10 494 347
269 2 2 0 16 208 503 323
270 2 2 0 16 310 572 550
271 2 2 0 16 654 228 309
272 2 2 0 16 130 551 131
273 2 2 0 16 199 569 366
274 2 2 0 16 245 347 494
275 2 2 0 16 148 323 503
276 2 2 0 16 220 318 537
277 2 2 0 16 228 421 356
278 2 2 0 16 212 696 387
279 2 2 0 16 465 727 505
280 2 2 0 16 275 366 569
281 2 2 0 16 208 323 395
282 2 2 0 16 339 612 731
283 2 2 0 16 507 696 212
284 2 2 0 16 291 485 448
285 2 2 0 16 129 451 342
286 2 2 0 16 331 642 540
287 2 2 0 16 309 228 477
288 2 2 0 16 197 609 322
289 2 2 0 16 220 413 461
290 2 2 0 16 214 315 624
291 2 2 0 16 282 461 413
292 2 2 0 16 163 448 485
293 2 2 0 16 172 367 466
294 2 2 0 16 275 386 366
295 2 2 0 16 193 550 572
296 2 2 0 16 251 372 353
297 2 2 0 16 763 254 570
298 2 2 0 16 195 405 521
299 2 2 0 16 219 761 615
300 2 2 0 16 169 389 751
301 2 2 0 16 211 334 699
302 2 2 0 16 608 193 572
303 2 2 0 16 243 520 324
304 2 2 0 16 169 311 474
305 2 2 0 16 333 763 570
306 2 2 0 16 323 602 395
307 2 2 0 16 190 613 319
308 2 2 0 16 28 29 369
309 2 2 0 16 324 608 572
310 2 2 0 16 220 525 318
311 2 2 0 16 280 426 496
312 2 2 0 16 63 651 402
313 2 2 0 16 18 568 306
314 2 2 0 16 21 307 567
315 2 2 0 16 215 419 332
316 2 2 0 16 259 465 505
317 2 2 0 16 208 336 503
318 2 2 0 16 178 496 426
319 2 2 0 16 203 367 493
320 2 2 0 16 3 85 480
321 2 2 0 16 3 480 84
322 2 2 0 16 151 578 152
323 2 2 0 16 243 324 572
324 2 2 0 16 190 482 312
325 2 2 0 16 199 727 472
326 2 2 0 16 44 768 526
327 2 2 0 16 190 312 575
328 2 2 0 16 266 336 695
329 2 2 0 16 195 645 405
330 2 2 0 16 43 44 526
331 2 2 0 16 219 615 441
332 2 2 0 16 210 416 338
333 2 2 0 16 165 498 317
334 2 2 0 16 25 364 544
335 2 2 0 16 38 39 365
336 2 2 0 16 240 319 529
337 2 2 0 16 76 326 491
338 2 2 0 16 211 699 347
339 2 2 0 16 313 191 571
340 2 2 0 16 577 191 313
341 2 2 0 16 241 317 487
342 2 2 0 16 23 24 400
343 2 2 0 16 18 306 516
344 2 2 0 16 21 517 307
345 2 2 0 16 117 537 318
346 2 2 0 16 117 318 563
347 2 2 0 16 343 498 686
348 2 2 0 16 359 584 467
349 2 2 0 16 73 74 363
350 2 2 0 16 647 214 432
351 2 2 0 16 139 351 140
352 2 2 0 16 152 321 478
353 2 2 0 16 210 338 761
354 2 2 0 16 686 498 276
355 2 2 0 16 169 330 750
356 2 2 0 16 101 429 335
357 2 2 0 16 58 320 633
358 2 2 0 16 7 96 490
359 2 2 0 16 7 490 130
360 2 2 0 16 279 421 497
361 2 2 0 16 169 559 330
362 2 2 0 16 102 340 429
363 2 2 0 16 180 497 421
364 2 2 0 16 192 404 555
365 2 2 0 16 352 597 469
366 2 2 0 16 149 354 626
367 2 2 0 16 264 467 510
368 2 2 0 16 32 33 374
369 2 2 0 16 148 586 323
370 2 2 0 16 342 647 432
371 2 2 0 16 8 468 465
372 2 2 0 16 207 457 558
373 2 2 0 16 145 357 146
374 2 2 0 16 301 562 494
375 2 2 0 16 104 337 431
376 2 2 0 16 248 323 586
377 2 2 0 16 127 442 344
378 2 2 0 16 294 651 419
379 2 2 0 16 187 394 614
380 2 2 0 16 171 358 388
381 2 2 0 16 215 332 430
382 2 2 0 16 647 422 214
383 2 2 0 16 211 637 334
384 2 2 0 16 137 329 552
385 2 2 0 16 286 465 468
386 2 2 0 16 317 661 382
387 2 2 0 16 200 382 661
388 2 2 0 16 333 379 719
389 2 2 0 16 336 497 695
390 2 2 0 16 192 630 404
391 2 2 0 16 234 326 617
392 2 2 0 16 202 719 379
393 2 2 0 16 82 529 703
394 2 2 0 16 367 462 493
395 2 2 0 16 150 578 151
396 2 2 0 16 216 637 335
397 2 2 0 16 337 422 647
398 2 2 0 16 696 407 162
399 2 2 0 16 230 329 573
400 2 2 0 16 105 422 337
401 2 2 0 16 259 505 327
402 2 2 0 16 62 63 402
403 2 2 0 16 322 609 464
404 2 2 0 16 218 424 633
405 2 2 0 16 284 348 679
406 2 2 0 16 150 626 578
407 2 2 0 16 367 593 466
408 2 2 0 16 346 407 696
409 2 2 0 16 216 334 637
410 2 2 0 16 338 615 761
411 2 2 0 16 185 679 348
412 2 2 0 16 234 705 326
413 2 2 0 16 216 335 429
414 2 2 0 16 131 551 132
415 2 2 0 16 294 402 651
416 2 2 0 16 132 331 495
417 2 2 0 16 330 430 527
418 2 2 0 16 47 48 441
419 2 2 0 16 177 427 472
420 2 2 0 16 29 632 369
421 2 2 0 16 217 431 337
422 2 2 0 16 299 392 599
423 2 2 0 16 252 464 609
424 2 2 0 16 215 662 419
425 2 2 0 16 230 649 329
426 2 2 0 16 375 522 748
427 2 2 0 16 266 693 336
428 2 2 0 16 210 761 370
429 2 2 0 16 103 431 340
430 2 2 0 16 168 564 356
431 2 2 0 16 145 410 357
432 2 2 0 16 215 330 559
433 2 2 0 16 264 472 427
434 2 2 0 16 58 59 438
435 2 2 0 16 310 550 730
436 2 2 0 16 265 381 542
437 2 2 0 16 300 483 549
438 2 2 0 16 128 451 129
439 2 2 0 16 137 573 329
440 2 2 0 16 187 549 394
441 2 2 0 16 76 617 326
442 2 2 0 16 66 594 332
443 2 2 0 16 295 558 457
444 2 2 0 16 217 337 647
445 2 2 0 16 50 51 371
446 2 2 0 16 656 431 217
447 2 2 0 16 260 628 358
448 2 2 0 16 245 494 562
449 2 2 0 16 71 72 504
450 2 2 0 16 299 599 723
451 2 2 0 16 340 431 656
452 2 2 0 16 269 379 512
453 2 2 0 16 238 495 331
454 2 2 0 16 216 429 340
455 2 2 0 16 276 498 556
456 2 2 0 16 303 670 408
457 2 2 0 16 304 409 669
458 2 2 0 16 175 382 512
459 2 2 0 16 208 619 336
460 2 2 0 16 217 647 342
461 2 2 0 16 212 392 751
462 2 2 0 16 201 406 532
463 2 2 0 16 10 347 699
464 2 2 0 16 251 353 582
465 2 2 0 16 408 670 516
466 2 2 0 16 409 517 669
467 2 2 0 16 129 342 675
468 2 2 0 16 356 421 589
469 2 2 0 16 174 582 353
470 2 2 0 16 293 456 597
471 2 2 0 16 392 757 751
472 2 2 0 16 209 712 377
473 2 2 0 16 33 636 374
474 2 2 0 16 2 37 511
475 2 2 0 16 2 511 36
476 2 2 0 16 255 512 382
477 2 2 0 16 216 442 334
478 2 2 0 16 149 626 150
479 2 2 0 16 82 83 529
480 2 2 0 16 231 384 407
481 2 2 0 16 162 407 384
482 2 2 0 16 211 347 426
483 2 2 0 16 216 340 656
484 2 2 0 16 38 365 621
485 2 2 0 16 224 607 352
486 2 2 0 16 226 440 376
487 2 2 0 16 264 569 472
488 2 2 0 16 748 522 292
489 2 2 0 16 216 656 344
490 2 2 0 16 585 488 679
491 2 2 0 16 161 355 423
492 2 2 0 16 377 712 660
493 2 2 0 16 257 488 585
494 2 2 0 16 175 512 379
495 2 2 0 16 216 344 442
496 2 2 0 16 191 676 515
497 2 2 0 16 265 542 671
498 2 2 0 16 236 600 400
499 2 2 0 16 41 350 463
500 2 2 0 16 54 674 352
501 2 2 0 16 217 342 451
502 2 2 0 16 251 548 372
503 2 2 0 16 164 372 548
504 2 2 0 16 239 549 483
505 2 2 0 16 358 628 388
506 2 2 0 16 707 454 201
507 2 2 0 16 236 544 364
508 2 2 0 16 254 523 631
509 2 2 0 16 361 454 707
510 2 2 0 16 202 374 601
511 2 2 0 16 171 510 467
512 2 2 0 16 141 519 468
513 2 2 0 16 265 601 374
514 2 2 0 16 239 470 394
515 2 2 0 16 332 594 643
516 2 2 0 16 236 513 600
517 2 2 0 16 388 704 510
518 2 2 0 16 196 394 470
519 2 2 0 16 203 683 367
520 2 2 0 16 339 730 550
521 2 2 0 16 290 367 683
522 2 2 0 16 287 362 556
523 2 2 0 16 276 677 461
524 2 2 0 16 217 451 656
525 2 2 0 16 34 35 381
526 2 2 0 16 270 771 612
527 2 2 0 16 199 505 727
528 2 2 0 16 193 608 657
529 2 2 0 16 276 461 686
530 2 2 0 16 246 526 476
531 2 2 0 16 305 476 526
532 2 2 0 16 278 643 594
533 2 2 0 16 376 440 715
534 2 2 0 16 270 455 771
535 2 2 0 16 302 590 471
536 2 2 0 16 315 422 690
537 2 2 0 16 316 676 499
538 2 2 0 16 344 656 451
539 2 2 0 16 390 604 709
540 2 2 0 16 188 597 456
541 2 2 0 16 275 704 386
542 2 2 0 16 277 532 406
543 2 2 0 16 524 737 177
544 2 2 0 16 296 459 376
545 2 2 0 16 265 374 636
546 2 2 0 16 169 750 389
547 2 2 0 16 198 350 581
548 2 2 0 16 246 581 350
549 2 2 0 16 98 616 425
550 2 2 0 16 86 87 385
551 2 2 0 16 42 43 596
552 2 2 0 16 737 427 177
553 2 2 0 16 6 148 503
554 2 2 0 16 310 509 572
555 2 2 0 16 170 370 557
556 2 2 0 16 254 631 447
557 2 2 0 16 43 526 596
558 2 2 0 16 242 470 380
559 2 2 0 16 247 642 551
560 2 2 0 16 316 515 676
561 2 2 0 16 269 634 379
562 2 2 0 16 275 510 704
563 2 2 0 16 73 363 610
564 2 2 0 16 203 627 371
565 2 2 0 16 176 527 430
566 2 2 0 16 264 427 467
567 2 2 0 16 267 371 627
568 2 2 0 16 158 399 159
569 2 2 0 16 228 373 625
570 2 2 0 16 244 521 405
571 2 2 0 16 161 561 397
572 2 2 0 16 146 357 518
573 2 2 0 16 168 660 564
574 2 2 0 16 169 756 559
575 2 2 0 16 97 98 425
576 2 2 0 16 171 388 510
577 2 2 0 16 357 606 518
578 2 2 0 16 263 397 561
579 2 2 0 16 220 537 413
580 2 2 0 16 253 658 361
581 2 2 0 16 223 708 359
582 2 2 0 16 273 640 355
583 2 2 0 16 258 604 390
584 2 2 0 16 284 502 348
585 2 2 0 16 243 572 509
586 2 2 0 16 237 346 507
587 2 2 0 16 331 551 642
588 2 2 0 16 199 366 505
589 2 2 0 16 144 410 145
590 2 2 0 16 161 397 553
591 2 2 0 16 255 369 632
592 2 2 0 16 166 396 730
593 2 2 0 16 149 506 354
594 2 2 0 16 262 614 394
595 2 2 0 16 186 562 592
596 2 2 0 16 8 465 500
597 2 2 0 16 249 663 363
598 2 2 0 16 319 703 529
599 2 2 0 16 165 556 498
600 2 2 0 16 237 685 346
601 2 2 0 16 273 729 640
602 2 2 0 16 266 405 645
603 2 2 0 16 260 553 397
604 2 2 0 16 189 525 362
605 2 2 0 16 245 533 347
606 2 2 0 16 258 468 519
607 2 2 0 16 185 348 671
608 2 2 0 16 205 402 713
609 2 2 0 16 172 723 459
610 2 2 0 16 333 570 379
611 2 2 0 16 126 442 127
612 2 2 0 16 198 629 350
613 2 2 0 16 70 71 477
614 2 2 0 16 161 423 561
615 2 2 0 16 273 473 729
616 2 2 0 16 172 462 367
617 2 2 0 16 297 715 440
618 2 2 0 16 308 595 460
619 2 2 0 16 182 461 531
620 2 2 0 16 279 417 589
621 2 2 0 16 123 433 434
622 2 2 0 16 230 471 590
623 2 2 0 16 202 379 634
624 2 2 0 16 186 590 514
625 2 2 0 16 322 464 665
626 2 2 0 16 324 520 760
627 2 2 0 16 345 756 368
628 2 2 0 16 170 769 370
629 2 2 0 16 341 485 706
630 2 2 0 16 289 359 708
631 2 2 0 16 181 458 635
632 2 2 0 16 228 356 668
633 2 2 0 16 310 730 396
634 2 2 0 16 28 369 479
635 2 2 0 16 174 476 412
636 2 2 0 16 282 531 461
637 2 2 0 16 246 350 596
638 2 2 0 16 168 589 417
639 2 2 0 16 140 351 519
640 2 2 0 16 115 413 116
641 2 2 0 16 99 100 403
642 2 2 0 16 48 49 547
643 2 2 0 16 462 746 706
644 2 2 0 16 68 414 716
645 2 2 0 16 177 565 390
646 2 2 0 16 206 587 386
647 2 2 0 16 75 76 491
648 2 2 0 16 280 425 616
649 2 2 0 16 328 386 587
650 2 2 0 16 225 462 706
651 2 2 0 16 319 613 393
652 2 2 0 16 458 681 711
653 2 2 0 16 341 611 485
654 2 2 0 16 252 375 611
655 2 2 0 16 168 356 589
656 2 2 0 16 249 555 404
657 2 2 0 16 218 368 474
658 2 2 0 16 108 408 109
659 2 2 0 16 113 409 114
660 2 2 0 16 248 518 606
661 2 2 0 16 226 376 459
662 2 2 0 16 54 352 607
663 2 2 0 16 139 591 351
664 2 2 0 16 54 55 674
665 2 2 0 16 258 390 565
666 2 2 0 16 162 440 387
667 2 2 0 16 203 493 360
668 2 2 0 16 230 453 428
669 2 2 0 16 184 734 376
670 2 2 0 16 213 668 356
671 2 2 0 16 37 621 511
672 2 2 0 16 101 102 429
673 2 2 0 16 375 748 611
674 2 2 0 16 206 397 587
675 2 2 0 16 223 378 508
676 2 2 0 16 225 706 485
677 2 2 0 16 174 353 680
678 2 2 0 16 226 387 440
679 2 2 0 16 67 68 716
680 2 2 0 16 296 376 734
681 2 2 0 16 187 545 549
682 2 2 0 16 257 365 579
683 2 2 0 16 263 587 397
684 2 2 0 16 234 499 676
685 2 2 0 16 224 445 607
686 2 2 0 16 39 579 365
687 2 2 0 16 198 581 353
688 2 2 0 16 213 356 564
689 2 2 0 16 50 371 653
690 2 2 0 16 259 500 465
691 2 2 0 16 122 433 123
692 2 2 0 16 260 358 767
693 2 2 0 16 197 375 609
694 2 2 0 16 261 404 630
695 2 2 0 16 163 664 448
696 2 2 0 16 345 559 756
697 2 2 0 16 244 363 521
698 2 2 0 16 249 363 574
699 2 2 0 16 252 609 375
700 2 2 0 16 291 448 415
701 2 2 0 16 37 38 621
702 2 2 0 16 79 80 418
703 2 2 0 16 164 747 372
704 2 2 0 16 292 635 458
705 2 2 0 16 295 665 464
706 2 2 0 16 229 434 433
707 2 2 0 16 244 610 363
708 2 2 0 16 34 381 636
709 2 2 0 16 181 681 458
710 2 2 0 16 105 106 422
711 2 2 0 16 281 742 358
712 2 2 0 16 268 364 588
713 2 2 0 16 221 423 454
714 2 2 0 16 133 450 134
715 2 2 0 16 163 748 664
716 2 2 0 16 158 755 399
717 2 2 0 16 64 65 419
718 2 2 0 16 196 709 604
719 2 2 0 16 267 653 371
720 2 2 0 16 74 574 363
721 2 2 0 16 173 391 481
722 2 2 0 16 423 753 561
723 2 2 0 16 32 374 489
724 2 2 0 16 239 394 549
725 2 2 0 16 204 357 725
726 2 2 0 16 285 435 564
727 2 2 0 16 302 514 590
728 2 2 0 16 253 361 659
729 2 2 0 16 179 735 415
730 2 2 0 16 210 370 501
731 2 2 0 16 26 588 364
732 2 2 0 16 265 636 381
733 2 2 0 16 311 456 474
734 2 2 0 16 231 481 391
735 2 2 0 16 301 592 562
736 2 2 0 16 239 380 470
737 2 2 0 16 163 485 611
738 2 2 0 16 163 611 748
739 2 2 0 16 213 564 435
740 2 2 0 16 103 104 431
741 2 2 0 16 218 474 456
742 2 2 0 16 281 584 359
743 2 2 0 16 11 378 543
744 2 2 0 16 177 390 524
745 2 2 0 16 56 57 424
746 2 2 0 16 242 524 390
747 2 2 0 16 203 360 627
748 2 2 0 16 204 606 357
749 2 2 0 16 242 543 378
750 2 2 0 16 268 583 364
751 2 2 0 16 209 541 407
752 2 2 0 16 316 499 762
753 2 2 0 16 179 460 595
754 2 2 0 16 300 549 545
755 2 2 0 16 40 41 463
756 2 2 0 16 175 487 382
757 2 2 0 16 292 522 635
758 2 2 0 16 111 538 112
759 2 2 0 16 110 539 111
760 2 2 0 16 212 389 507
761 2 2 0 16 237 507 389
762 2 2 0 16 310 396 509
763 2 2 0 16 257 585 365
764 2 2 0 16 18 19 568
765 2 2 0 16 20 21 567
766 2 2 0 16 294 713 402
767 2 2 0 16 213 373 668
768 2 2 0 16 190 398 482
769 2 2 0 16 197 522 375
770 2 2 0 16 119 543 380
771 2 2 0 16 228 625 477
772 2 2 0 16 224 593 445
773 2 2 0 16 317 382 487
774 2 2 0 16 312 399 755
775 2 2 0 16 290 445 593
776 2 2 0 16 123 434 124
777 2 2 0 16 444 718 700
778 2 2 0 16 137 552 138
779 2 2 0 16 222 415 448
780 2 2 0 16 183 631 406
781 2 2 0 16 221 444 700
782 2 2 0 16 194 536 473
783 2 2 0 16 277 406 631
784 2 2 0 16 206 386 704
785 2 2 0 16 255 652 369
786 2 2 0 16 45 416 768
787 2 2 0 16 212 387 599
788 2 2 0 16 210 691 416
789 2 2 0 16 133 495 450
790 2 2 0 16 228 668 373
791 2 2 0 16 301 494 721
792 2 2 0 16 305 416 691
793 2 2 0 16 184 376 715
794 2 2 0 16 283 473 536
795 2 2 0 16 227 692 399
796 2 2 0 16 212 599 392
797 2 2 0 16 290 593 367
798 2 2 0 16 155 436 156
799 2 2 0 16 278 435 643
800 2 2 0 16 156 437 157
801 2 2 0 16 153 439 154
802 2 2 0 16 208 417 619
803 2 2 0 16 247 551 490
804 2 2 0 16 279 619 417
805 2 2 0 16 51 554 371
806 2 2 0 16 203 371 683
807 2 2 0 16 253 412 501
808 2 2 0 16 156 436 437
809 2 2 0 16 286 468 565
810 2 2 0 16 202 634 374
811 2 2 0 16 227 411 692
812 2 2 0 16 258 565 468
813 2 2 0 16 355 640 406
814 2 2 0 16 210 501 412
815 2 2 0 16 227 385 641
816 2 2 0 16 11 508 378
817 2 2 0 16 119 380 764
818 2 2 0 16 229 428 453
819 2 2 0 16 52 53 754
820 2 2 0 16 44 45 768
821 2 2 0 16 207 684 457
822 2 2 0 16 232 437 436
823 2 2 0 16 302 471 736
824 2 2 0 16 88 411 641
825 2 2 0 16 81 393 598
826 2 2 0 16 770 181 534
827 2 2 0 16 648 181 770
828 2 2 0 16 361 658 454
829 2 2 0 16 300 726 483
830 2 2 0 16 53 445 754
831 2 2 0 16 239 764 380
832 2 2 0 16 234 452 443
833 2 2 0 16 132 495 133
834 2 2 0 16 710 271 682
835 2 2 0 16 312 482 399
836 2 2 0 16 227 482 398
837 2 2 0 16 209 377 541
838 2 2 0 16 8 141 468
839 2 2 0 16 99 403 616
840 2 2 0 16 140 519 141
841 2 2 0 16 242 378 524
842 2 2 0 16 69 625 373
843 2 2 0 16 116 537 117
844 2 2 0 16 69 373 744
845 2 2 0 16 361 582 659
846 2 2 0 16 377 710 682
847 2 2 0 16 117 563 118
848 2 2 0 16 233 393 613
849 2 2 0 16 174 659 582
850 2 2 0 16 227 399 482
851 2 2 0 16 235 443 452
852 2 2 0 16 232 446 449
853 2 2 0 16 152 478 153
854 2 2 0 16 138 552 591
855 2 2 0 16 312 437 575
856 2 2 0 16 233 449 446
857 2 2 0 16 223 467 427
858 2 2 0 16 313 571 436
859 2 2 0 16 138 591 139
860 2 2 0 16 270 612 550
861 2 2 0 16 293 775 456
862 2 2 0 16 173 383 576
863 2 2 0 16 339 550 612
864 2 2 0 16 332 643 430
865 2 2 0 16 79 418 762
866 2 2 0 16 178 533 540
867 2 2 0 16 313 439 577
868 2 2 0 16 412 476 691
869 2 2 0 16 316 762 418
870 2 2 0 16 370 769 501
871 2 2 0 16 338 416 688
872 2 2 0 16 192 667 630
873 2 2 0 16 144 520 410
874 2 2 0 16 27 28 479
875 2 2 0 16 301 434 592
876 2 2 0 16 279 589 421
877 2 2 0 16 230 573 471
878 2 2 0 16 252 611 560
879 2 2 0 16 9 432 603
880 2 2 0 16 366 766 505
881 2 2 0 16 242 380 543
882 2 2 0 16 166 745 396
883 2 2 0 16 301 721 434
884 2 2 0 16 243 410 520
885 2 2 0 16 228 654 421
886 2 2 0 16 255 484 512
887 2 2 0 16 250 542 381
888 2 2 0 16 8 500 142
889 2 2 0 16 269 512 484
890 2 2 0 16 276 556 677
891 2 2 0 16 341 560 611
892 2 2 0 16 362 677 556
893 2 2 0 16 282 413 678
894 2 2 0 16 87 88 641
895 2 2 0 16 234 617 499
896 2 2 0 16 235 439 478
897 2 2 0 16 189 638 525
898 2 2 0 16 238 514 450
899 2 2 0 16 109 408 732
900 2 2 0 16 113 733 409
901 2 2 0 16 312 755 437
902 2 2 0 16 114 409 722
903 2 2 0 16 177 472 565
904 2 2 0 16 108 720 408
905 2 2 0 16 302 450 514
906 2 2 0 16 313 759 439
907 2 2 0 16 66 67 594
908 2 2 0 16 313 436 759
909 2 2 0 16 204 509 396
910 2 2 0 16 248 383 602
911 2 2 0 16 223 737 378
912 2 2 0 16 135 471 136
913 2 2 0 16 24 544 400
914 2 2 0 16 243 725 410
915 2 2 0 16 305 526 768
916 2 2 0 16 298 557 460
917 2 2 0 16 299 466 469
918 2 2 0 16 175 379 570
919 2 2 0 16 286 565 472
920 2 2 0 16 280 496 425
921 2 2 0 16 115 678 413
922 2 2 0 16 227 641 411
923 2 2 0 16 176 643 435
924 2 2 0 16 64 419 651
925 2 2 0 16 51 52 554
926 2 2 0 16 219 460 557
927 2 2 0 16 206 628 397
928 2 2 0 16 173 602 383
929 2 2 0 16 178 540 642
930 2 2 0 16 224 469 466
931 2 2 0 16 300 545 433
932 2 2 0 16 160 692 411
933 2 2 0 16 196 646 394
934 2 2 0 16 229 433 545
935 2 2 0 16 242 709 470
936 2 2 0 16 260 397 628
937 2 2 0 16 287 687 536
938 2 2 0 16 186 592 453
939 2 2 0 16 21 22 517
940 2 2 0 16 17 18 516
941 2 2 0 16 220 461 677
942 2 2 0 16 233 598 393
943 2 2 0 16 296 746 459
944 2 2 0 16 237 527 401
945 2 2 0 16 272 603 432
946 2 2 0 16 81 703 393
947 2 2 0 16 262 394 646
948 2 2 0 16 291 415 735
949 2 2 0 16 238 450 495
950 2 2 0 16 176 401 527
951 2 2 0 16 303 408 720
952 2 2 0 16 235 478 667
953 2 2 0 16 233 515 418
954 2 2 0 16 383 698 576
955 2 2 0 16 304 722 409
956 2 2 0 16 248 606 383
957 2 2 0 16 240 776 480
958 2 2 0 16 307 409 733
959 2 2 0 16 306 732 408
960 2 2 0 16 297 740 715
961 2 2 0 16 204 383 606
962 2 2 0 16 187 428 545
963 2 2 0 16 153 478 439
964 2 2 0 16 31 32 489
965 2 2 0 16 1 13 655
966 2 2 0 16 30 31 777
967 2 2 0 16 403 694 616
968 2 2 0 16 6 506 149
969 2 2 0 16 136 573 137
970 2 2 0 16 250 381 623
971 2 2 0 16 297 558 740
972 2 2 0 16 363 663 521
973 2 2 0 16 85 86 620
974 2 2 0 16 35 623 381
975 2 2 0 16 1 655 107
976 2 2 0 16 263 561 648
977 2 2 0 16 116 413 537
978 2 2 0 16 11 543 119
979 2 2 0 16 120 483 121
980 2 2 0 16 106 690 422
981 2 2 0 16 349 648 561
982 2 2 0 16 57 58 633
983 2 2 0 16 87 641 385
984 2 2 0 16 80 81 598
985 2 2 0 16 147 586 148
986 2 2 0 16 207 739 384
987 2 2 0 16 230 590 453
988 2 2 0 16 72 73 610
989 2 2 0 16 240 529 776
990 2 2 0 16 173 576 391
991 2 2 0 16 247 425 496
992 2 2 0 16 236 531 513
993 2 2 0 16 241 530 447
994 2 2 0 16 180 546 405
995 2 2 0 16 230 428 649
996 2 2 0 16 254 447 530
997 2 2 0 16 182 531 583
998 2 2 0 16 240 620 385
999 2 2 0 16 200 652 382
1000 2 2 0 16 182 686 461
1001 2 2 0 16 286 472 727
1002 2 2 0 16 124 434 721
1003 2 2 0 16 328 534 618
1004 2 2 0 16 76 77 617
1005 2 2 0 16 162 384 741
1006 2 2 0 16 333 502 763
1007 2 2 0 16 256 618 534
1008 2 2 0 16 208 644 417
1009 2 2 0 16 14 15 738
1010 2 2 0 16 255 382 652
1011 2 2 0 16 214 624 432
1012 2 2 0 16 232 436 571
1013 2 2 0 16 242 390 709
1014 2 2 0 16 226 599 387
1015 2 2 0 16 321 667 478
1016 2 2 0 16 232 575 437
1017 2 2 0 16 229 592 434
1018 2 2 0 16 244 405 546
1019 2 2 0 16 236 400 544
1020 2 2 0 16 256 635 522
1021 2 2 0 16 204 698 383
1022 2 2 0 16 282 513 531
1023 2 2 0 16 162 387 696
1024 2 2 0 16 271 417 644
1025 2 2 0 16 204 396 698
1026 2 2 0 16 186 514 420
1027 2 2 0 16 15 16 492
1028 2 2 0 16 341 706 734
1029 2 2 0 16 155 759 436
1030 2 2 0 16 235 577 439
1031 2 2 0 16 10 125 494
1032 2 2 0 16 157 437 755
1033 2 2 0 16 238 420 514
1034 2 2 0 16 241 566 535
1035 2 2 0 16 154 439 759
1036 2 2 0 16 274 698 396
1037 2 2 0 16 212 751 389
1038 2 2 0 16 24 25 544
1039 2 2 0 16 347 533 426
1040 2 2 0 16 306 408 516
1041 2 2 0 16 307 517 409
1042 2 2 0 16 316 418 515
1043 2 2 0 16 237 389 750
1044 2 2 0 16 274 576 698
1045 2 2 0 16 311 751 757
1046 2 2 0 16 272 432 624
1047 2 2 0 16 86 385 620
1048 2 2 0 16 388 628 704
1049 2 2 0 16 119 764 120
1050 2 2 0 16 178 426 533
1051 2 2 0 16 357 410 725
1052 2 2 0 16 225 493 462
1053 2 2 0 16 231 407 541
1054 2 2 0 16 159 692 160
1055 2 2 0 16 30 777 484
1056 2 2 0 16 206 704 628
1057 2 2 0 16 77 78 499
1058 2 2 0 16 207 391 684
1059 2 2 0 16 237 401 685
1060 2 2 0 16 190 575 449
1061 2 2 0 16 191 446 571
1062 2 2 0 16 35 36 623
1063 2 2 0 16 171 467 584
1064 2 2 0 16 233 446 515
1065 2 2 0 16 191 577 452
1066 2 2 0 16 233 613 449
1067 2 2 0 16 303 492 670
1068 2 2 0 16 4 672 60
1069 2 2 0 16 4 61 672
1070 2 2 0 16 188 757 392
1071 2 2 0 16 6 503 693
1072 2 2 0 16 173 395 602
1073 2 2 0 16 262 552 614
1074 2 2 0 16 85 620 480
1075 2 2 0 16 191 515 446
1076 2 2 0 16 234 443 705
1077 2 2 0 16 329 614 552
1078 2 2 0 16 233 418 598
1079 2 2 0 16 244 546 504
1080 2 2 0 16 309 504 546
1081 2 2 0 16 175 530 487
1082 2 2 0 16 278 749 435
1083 2 2 0 16 188 469 597
1084 2 2 0 16 327 505 766
1085 2 2 0 16 248 586 518
1086 2 2 0 16 191 452 676
1087 2 2 0 16 304 400 600
1088 2 2 0 16 122 726 433
1089 2 2 0 16 321 630 667
1090 2 2 0 16 16 670 492
1091 2 2 0 16 319 393 703
1092 2 2 0 16 196 604 646
1093 2 2 0 16 186 453 590
1094 2 2 0 16 166 665 457
1095 2 2 0 16 336 693 503
1096 2 2 0 16 325 702 402
1097 2 2 0 16 300 433 726
1098 2 2 0 16 62 402 702
1099 2 2 0 16 208 395 644
1100 2 2 0 16 295 457 665
1101 2 2 0 16 135 736 471
1102 2 2 0 16 351 646 604
1103 2 2 0 16 192 443 667
1104 2 2 0 16 146 518 147
1105 2 2 0 16 238 540 420
1106 2 2 0 16 143 520 144
1107 2 2 0 16 283 535 566
1108 2 2 0 16 318 525 638
1109 2 2 0 16 277 631 523
1110 2 2 0 16 173 765 395
1111 2 2 0 16 14 738 486
1112 2 2 0 16 274 396 745
1113 2 2 0 16 81 82 703
1114 2 2 0 16 226 723 599
1115 2 2 0 16 164 763 502
1116 2 2 0 16 261 666 404
1117 2 2 0 16 229 545 428
1118 2 2 0 16 245 562 420
1119 2 2 0 16 72 610 504
1120 2 2 0 16 243 509 725
1121 2 2 0 16 195 404 666
1122 2 2 0 16 343 605 661
1123 2 2 0 16 186 420 562
1124 2 2 0 16 370 761 557
1125 2 2 0 16 272 492 603
1126 2 2 0 16 303 603 492
1127 2 2 0 16 74 75 574
1128 2 2 0 16 324 500 608
1129 2 2 0 16 333 719 502
1130 2 2 0 16 219 557 761
1131 2 2 0 16 350 629 463
1132 2 2 0 16 259 608 500
1133 2 2 0 16 268 588 479
1134 2 2 0 16 195 663 404
1135 2 2 0 16 285 564 660
1136 2 2 0 16 241 447 566
1137 2 2 0 16 293 597 674
1138 2 2 0 16 352 674 597
1139 2 2 0 16 239 483 764
1140 2 2 0 16 159 399 692
1141 2 2 0 16 121 483 726
1142 2 2 0 16 200 661 605
1143 2 2 0 16 288 711 681
1144 2 2 0 16 315 486 624
1145 2 2 0 16 224 466 593
1146 2 2 0 16 209 685 712
1147 2 2 0 16 27 479 588
1148 2 2 0 16 280 694 426
1149 2 2 0 16 266 695 405
1150 2 2 0 16 267 595 547
1151 2 2 0 16 308 547 595
1152 2 2 0 16 274 457 684
1153 2 2 0 16 211 694 403
1154 2 2 0 16 96 97 673
1155 2 2 0 16 169 474 756
1156 2 2 0 16 211 426 694
1157 2 2 0 16 401 712 685
1158 2 2 0 16 53 54 607
1159 2 2 0 16 257 579 463
1160 2 2 0 16 277 523 548
1161 2 2 0 16 247 496 642
1162 2 2 0 16 40 463 579
1163 2 2 0 16 164 548 523
1164 2 2 0 16 183 406 640
1165 2 2 0 16 78 762 499
1166 2 2 0 16 29 30 632
1167 2 2 0 16 180 405 695
1168 2 2 0 16 125 721 494
1169 2 2 0 16 342 432 675
1170 2 2 0 16 176 717 401
1171 2 2 0 16 423 714 454
1172 2 2 0 16 160 411 772
1173 2 2 0 16 223 508 708
1174 2 2 0 16 56 424 743
1175 2 2 0 16 334 442 778
1176 2 2 0 16 247 673 425
1177 2 2 0 16 80 598 418
1178 2 2 0 16 225 485 639
1179 2 2 0 16 45 688 416
1180 2 2 0 16 302 736 450
1181 2 2 0 16 291 639 485
1182 2 2 0 16 277 548 532
1183 2 2 0 16 311 757 456
1184 2 2 0 16 67 716 594
1185 2 2 0 16 188 456 757
1186 2 2 0 16 369 652 689
1187 2 2 0 16 251 532 548
1188 2 2 0 16 249 491 555
1189 2 2 0 16 134 450 736
1190 2 2 0 16 174 412 659
1191 2 2 0 16 249 404 663
1192 2 2 0 16 53 607 445
1193 2 2 0 16 172 459 746
1194 2 2 0 16 253 659 412
1195 2 2 0 16 36 511 623
1196 2 2 0 16 175 570 530
1197 2 2 0 16 326 555 491
1198 2 2 0 16 200 689 652
1199 2 2 0 16 185 542 758
1200 2 2 0 16 252 560 464
1201 2 2 0 16 273 528 473
1202 2 2 0 16 222 448 664
1203 2 2 0 16 184 464 560
1204 2 2 0 16 194 473 528
1205 2 2 0 16 264 510 569
1206 2 2 0 16 39 40 579
1207 2 2 0 16 297 440 741
1208 2 2 0 16 162 741 440
1209 2 2 0 16 11 118 752
1210 2 2 0 16 275 569 510
1211 2 2 0 16 354 666 626
1212 2 2 0 16 213 749 414
1213 2 2 0 16 46 47 615
1214 2 2 0 16 143 760 520
1215 2 2 0 16 185 758 585
1216 2 2 0 16 261 626 666
1217 2 2 0 16 26 27 588
1218 2 2 0 16 285 717 435
1219 2 2 0 16 183 566 447
1220 2 2 0 16 278 414 749
1221 2 2 0 16 210 412 691
1222 2 2 0 16 305 691 476
1223 2 2 0 16 88 772 411
1224 2 2 0 16 262 591 552
1225 2 2 0 16 232 571 446
1226 2 2 0 16 222 664 458
1227 2 2 0 16 424 775 743
1228 2 2 0 16 176 435 717
1229 2 2 0 16 9 129 675
1230 2 2 0 16 271 710 417
1231 2 2 0 16 278 716 414
1232 2 2 0 16 126 778 442
1233 2 2 0 16 260 528 553
1234 2 2 0 16 305 768 416
1235 2 2 0 16 321 578 630
1236 2 2 0 16 241 487 530
1237 2 2 0 16 261 630 578
1238 2 2 0 16 273 553 528
1239 2 2 0 16 270 650 455
1240 2 2 0 16 232 449 575
1241 2 2 0 16 167 455 650
1242 2 2 0 16 57 633 424
1243 2 2 0 16 47 441 615
1244 2 2 0 16 68 744 414
1245 2 2 0 16 168 417 710
1246 2 2 0 16 235 452 577
1247 2 2 0 16 49 50 653
1248 2 2 0 16 10 778 126
1249 2 2 0 16 180 421 654
1250 2 2 0 16 296 734 706
1251 2 2 0 16 266 645 506
1252 2 2 0 16 250 511 621
1253 2 2 0 16 12 678 115
1254 2 2 0 16 377 660 710
1255 2 2 0 16 168 710 660
1256 2 2 0 16 52 754 554
1257 2 2 0 16 194 580 536
1258 2 2 0 16 75 491 574
1259 2 2 0 16 268 479 689
1260 2 2 0 16 354 506 645
1261 2 2 0 16 261 578 626
1262 2 2 0 16 69 70 625
1263 2 2 0 16 346 696 507
1264 2 2 0 16 368 756 474
1265 2 2 0 16 68 69 744
1266 2 2 0 16 176 430 643
1267 2 2 0 16 280 616 694
1268 2 2 0 16 174 680 476
1269 2 2 0 16 187 649 428
1270 2 2 0 16 229 453 592
1271 2 2 0 16 287 536 580
1272 2 2 0 16 354 645 666
1273 2 2 0 16 55 56 743
1274 2 2 0 16 98 99 616
1275 2 2 0 16 341 734 560
1276 2 2 0 16 362 525 677
1277 2 2 0 16 97 425 673
1278 2 2 0 16 306 568 539
1279 2 2 0 16 307 538 567
1280 2 2 0 16 30 484 632
1281 2 2 0 16 289 563 638
1282 2 2 0 16 220 677 525
1283 2 2 0 16 96 673 490
1284 2 2 0 16 195 666 645
1285 2 2 0 16 136 471 573
1286 2 2 0 16 314 539 568
1287 2 2 0 16 314 567 538
1288 2 2 0 16 218 775 424
1289 2 2 0 16 256 771 455
1290 2 2 0 16 348 502 719
1291 2 2 0 16 318 638 563
1292 2 2 0 16 285 660 712
1293 2 2 0 16 33 34 636
1294 2 2 0 16 355 714 423
1295 2 2 0 16 218 456 775
1296 2 2 0 16 221 753 423
1297 2 2 0 16 221 658 444
1298 2 2 0 16 295 464 740
1299 2 2 0 16 9 675 432
1300 2 2 0 16 251 707 532
1301 2 2 0 16 246 596 526
1302 2 2 0 16 5 772 88
1303 2 2 0 16 336 619 497
1304 2 2 0 16 184 740 464
1305 2 2 0 16 257 463 629
1306 2 2 0 16 190 449 613
1307 2 2 0 16 142 500 760
1308 2 2 0 16 63 64 651
1309 2 2 0 16 223 427 737
1310 2 2 0 16 221 454 658
1311 2 2 0 16 279 497 619
1312 2 2 0 16 324 760 500
1313 2 2 0 16 185 585 679
1314 2 2 0 16 253 769 444
1315 2 2 0 16 197 612 771
1316 2 2 0 16 271 765 481
1317 2 2 0 16 348 601 671
1318 2 2 0 16 22 23 669
1319 2 2 0 16 16 17 670
1320 2 2 0 16 167 618 455
1321 2 2 0 16 183 447 631
1322 2 2 0 16 296 706 746
1323 2 2 0 16 262 646 591
1324 2 2 0 16 325 438 701
1325 2 2 0 16 351 591 646
1326 2 2 0 16 12 600 513
1327 2 2 0 16 234 676 452
1328 2 2 0 16 13 14 724
1329 2 2 0 16 59 701 438
1330 2 2 0 16 256 455 618
1331 2 2 0 16 249 574 491
1332 2 2 0 16 374 634 489
1333 2 2 0 16 240 480 620
1334 2 2 0 16 348 719 601
1335 2 2 0 16 365 758 621
1336 2 2 0 16 202 601 719
1337 2 2 0 16 45 46 688
1338 2 2 0 16 288 700 718
1339 2 2 0 16 251 582 707
1340 2 2 0 16 250 621 758
1341 2 2 0 16 106 107 690
1342 2 2 0 16 254 763 523
1343 2 2 0 16 270 657 650
1344 2 2 0 16 235 667 443
1345 2 2 0 16 59 60 701
1346 2 2 0 16 61 62 702
1347 2 2 0 16 253 444 658
1348 2 2 0 16 247 490 673
1349 2 2 0 16 19 20 774
1350 2 2 0 16 237 750 527
1351 2 2 0 16 293 743 775
1352 2 2 0 16 124 721 125
1353 2 2 0 16 134 736 135
1354 2 2 0 16 180 654 546
1355 2 2 0 16 121 726 122
1356 2 2 0 16 330 527 750
1357 2 2 0 16 78 79 762
1358 2 2 0 16 377 682 541
1359 2 2 0 16 181 635 534
1360 2 2 0 16 213 435 749
1361 2 2 0 16 83 84 776
1362 2 2 0 16 360 639 735
1363 2 2 0 16 12 114 722
1364 2 2 0 16 9 720 108
1365 2 2 0 16 142 760 143
1366 2 2 0 16 157 755 158
1367 2 2 0 16 112 733 113
1368 2 2 0 16 109 732 110
1369 2 2 0 16 154 759 155
1370 2 2 0 16 291 735 639
1371 2 2 0 16 258 519 604
1372 2 2 0 16 185 671 542
1373 2 2 0 16 17 516 670
1374 2 2 0 16 22 669 517
1375 2 2 0 16 254 530 570
1376 2 2 0 16 309 546 654
1377 2 2 0 16 257 629 488
1378 2 2 0 16 351 604 519
1379 2 2 0 16 201 454 714
1380 2 2 0 16 5 160 772
1381 2 2 0 16 292 458 664
1382 2 2 0 16 192 705 443
1383 2 2 0 16 183 640 729
1384 2 2 0 16 147 518 586
1385 2 2 0 16 170 718 444
1386 2 2 0 16 70 477 625
1387 2 2 0 16 338 688 615
1388 2 2 0 16 287 580 622
1389 2 2 0 16 268 689 605
1390 2 2 0 16 272 624 486
1391 2 2 0 16 46 615 688
1392 2 2 0 16 327 650 657
1393 2 2 0 16 192 555 705
1394 2 2 0 16 290 754 445
1395 2 2 0 16 255 632 484
1396 2 2 0 16 170 444 769
1397 2 2 0 16 288 718 475
1398 2 2 0 16 256 522 771
1399 2 2 0 16 246 476 680
1400 2 2 0 16 326 705 555
1401 2 2 0 16 170 475 718
1402 2 2 0 16 244 504 610
1403 2 2 0 16 198 488 629
1404 2 2 0 16 269 489 634
1405 2 2 0 16 11 752 508
1406 2 2 0 16 360 493 639
1407 2 2 0 16 166 457 745
1408 2 2 0 16 77 499 617
1409 2 2 0 16 222 458 711
1410 2 2 0 16 226 459 723
1411 2 2 0 16 274 745 457
1412 2 2 0 16 225 639 493
1413 2 2 0 16 369 689 479
1414 2 2 0 16 271 481 682
1415 2 2 0 16 253 501 769
1416 2 2 0 16 172 746 462
1417 2 2 0 16 231 682 481
1418 2 2 0 16 283 729 473
1419 2 2 0 16 268 728 583
1420 2 2 0 16 195 521 663
1421 2 2 0 16 178 642 496
1422 2 2 0 16 288 475 711
1423 2 2 0 16 343 661 498
1424 2 2 0 16 222 711 475
1425 2 2 0 16 286 727 465
1426 2 2 0 16 196 470 709
1427 2 2 0 16 284 488 697
1428 2 2 0 16 198 697 488
1429 2 2 0 16 49 653 547
1430 2 2 0 16 250 623 511
1431 2 2 0 16 268 605 728
1432 2 2 0 16 266 506 693
1433 2 2 0 16 12 513 678
1434 2 2 0 16 284 679 488
1435 2 2 0 16 284 697 747
1436 2 2 0 16 317 498 661
1437 2 2 0 16 271 644 765
1438 2 2 0 16 173 481 765
1439 2 2 0 16 269 484 777
1440 2 2 0 16 31 489 777
1441 2 2 0 16 270 550 657
1442 2 2 0 16 14 486 724
1443 2 2 0 16 372 747 697
1444 2 2 0 16 269 777 489
1445 2 2 0 16 256 534 635
1446 2 2 0 16 343 686 728
1447 2 2 0 16 289 708 508
1448 2 2 0 16 315 724 486
1449 2 2 0 16 349 700 681
1450 2 2 0 16 349 561 753
1451 2 2 0 16 112 538 733
1452 2 2 0 16 110 732 539
1453 2 2 0 16 282 678 513
1454 2 2 0 16 288 681 700
1455 2 2 0 16 345 713 662
1456 2 2 0 16 391 576 684
1457 2 2 0 16 272 486 738
1458 2 2 0 16 294 662 713
1459 2 2 0 16 84 480 776
1460 2 2 0 16 180 695 497
1461 2 2 0 16 120 764 483
1462 2 2 0 16 371 554 683
1463 2 2 0 16 281 622 580
1464 2 2 0 16 6 693 506
1465 2 2 0 16 267 773 595
1466 2 2 0 16 260 767 528
1467 2 2 0 16 272 738 492
1468 2 2 0 16 182 728 686
1469 2 2 0 16 179 773 735
1470 2 2 0 16 345 662 559
1471 2 2 0 16 215 559 662
1472 2 2 0 16 307 733 538
1473 2 2 0 16 306 539 732
1474 2 2 0 16 267 547 653
1475 2 2 0 16 292 664 748
1476 2 2 0 16 15 492 738
1477 2 2 0 16 284 747 502
1478 2 2 0 16 378 737 524
1479 2 2 0 16 193 657 550
1480 2 2 0 16 267 627 773
1481 2 2 0 16 328 587 770
1482 2 2 0 16 283 687 535
1483 2 2 0 16 164 502 747
1484 2 2 0 16 231 541 682
1485 2 2 0 16 263 770 587
1486 2 2 0 16 194 528 767
1487 2 2 0 16 204 725 509
1488 2 2 0 16 246 680 581
1489 2 2 0 16 289 508 752
1490 2 2 0 16 165 535 687
1491 2 2 0 16 283 536 687
1492 2 2 0 16 281 580 742
1493 2 2 0 16 201 532 707
1494 2 2 0 16 290 683 554
1495 2 2 0 16 360 735 773
1496 2 2 0 16 187 614 649
1497 2 2 0 16 283 566 729
1498 2 2 0 16 314 774 567
1499 2 2 0 16 314 568 774
1500 2 2 0 16 55 743 674
1501 2 2 0 16 184 715 740
1502 2 2 0 16 329 649 614
1503 2 2 0 16 290 554 754
1504 2 2 0 16 274 684 576
1505 2 2 0 16 353 581 680
1506 2 2 0 16 181 648 681
1507 2 2 0 16 349 681 648
1508 2 2 0 16 20 567 774
1509 2 2 0 16 19 774 568
1510 2 2 0 16 197 771 522
1511 2 2 0 16 164 523 763
1512 2 2 0 16 265 671 601
1513 2 2 0 16 278 594 716
1514 2 2 0 16 289 752 563
1515 2 2 0 16 83 776 529
1516 2 2 0 16 343 728 605
1517 2 2 0 16 361 707 582
1518 2 2 0 16 328 770 534
1519 2 2 0 16 250 758 542
1520 2 2 0 16 183 729 566
1521 2 2 0 16 184 560 734
1522 2 2 0 16 207 558 739
1523 2 2 0 16 200 605 689
1524 2 2 0 16 295 740 558
1525 2 2 0 16 297 739 558
1526 2 2 0 16 349 753 700
1527 2 2 0 16 179 595 773
1528 2 2 0 16 182 583 728
1529 2 2 0 16 221 700 753
1530 2 2 0 16 12 722 600
1531 2 2 0 16 325 701 672
1532 2 2 0 16 325 672 702
1533 2 2 0 16 194 742 580
1534 2 2 0 16 60 672 701
1535 2 2 0 16 61 702 672
1536 2 2 0 16 107 655 690
1537 2 2 0 16 118 563 752
1538 2 2 0 16 9 603 720
1539 2 2 0 16 365 585 758
1540 2 2 0 16 315 690 655
1541 2 2 0 16 263 648 770
1542 2 2 0 16 304 600 722
1543 2 2 0 16 303 720 603
1544 2 2 0 16 315 655 724
1545 2 2 0 16 327 766 650
1546 2 2 0 16 166 731 665
1547 2 2 0 16 167 650 766
1548 2 2 0 16 322 665 731
1549 2 2 0 16 339 731 730
1550 2 2 0 16 166 730 731
1551 2 2 0 16 13 724 655
1552 2 2 0 16 360 773 627
1553 2 2 0 16 194 767 742
1554 2 2 0 16 395 765 644
1555 2 2 0 16 293 674 743
1556 2 2 0 16 285 712 717
1557 2 2 0 16 401 717 712
1558 2 2 0 16 10 699 778
1559 2 2 0 16 384 739 741
1560 2 2 0 16 297 741 739
1561 2 2 0 16 334 778 699
1562 2 2 0 16 358 742 767
1563 2 2 0 18 862 819 779
1564 2 2 0 18 861 780 820
1565 2 2 0 18 880 790 819
1566 2 2 0 18 879 820 789
1567 2 2 0 18 810 819 862
1568 2 2 0 18 809 861 820
1569 2 2 0 18 810 880 819
1570 2 2 0 18 809 820 879
1571 2 2 0 18 785 826 871
1572 2 2 0 18 786 872 825
1573 2 2 0 18 793 829 820
1574 2 2 0 18 787 874 890
1575 2 2 0 18 788 889 873
1576 2 2 0 18 798 879 828
1577 2 2 0 18 799 827 880
1578 2 2 0 18 794 819 854
1579 2 2 0 18 785 887 826
1580 2 2 0 18 786 825 888
1581 2 2 0 18 784 821 869
1582 2 2 0 18 783 870 822
1583 2 2 0 18 819 830 854
1584 2 2 0 18 784 886 821
1585 2 2 0 18 783 822 885
1586 2 2 0 18 146 847 813
1587 2 2 0 18 93 845 812
1588 2 2 0 18 91 814 846
1589 2 2 0 18 144 811 844
1590 2 2 0 18 806 135 839
1591 2 2 0 18 787 890 816
1592 2 2 0 18 788 815 889
1593 2 2 0 18 881 135 806
1594 2 2 0 18 804 829 851
1595 2 2 0 18 805 851 830
1596 2 2 0 18 809 872 833
1597 2 2 0 18 810 832 871
1598 2 2 0 18 785 871 832
1599 2 2 0 18 786 833 872
1600 2 2 0 18 808 889 818
1601 2 2 0 18 807 817 890
1602 2 2 0 18 780 818 889
1603 2 2 0 18 779 890 817
1604 2 2 0 18 158 825 867
1605 2 2 0 18 151 868 826
1606 2 2 0 18 793 850 829
1607 2 2 0 18 782 851 829
1608 2 2 0 18 782 830 851
1609 2 2 0 18 788 834 815
1610 2 2 0 18 139 822 863
1611 2 2 0 18 132 864 821
1612 2 2 0 18 807 890 874
1613 2 2 0 18 808 873 889
1614 2 2 0 18 799 871 826
1615 2 2 0 18 798 825 872
1616 2 2 0 18 797 874 824
1617 2 2 0 18 796 823 873
1618 2 2 0 18 93 812 838
1619 2 2 0 18 146 813 837
1620 2 2 0 18 791 811 852
1621 2 2 0 18 139 140 822
1622 2 2 0 18 131 132 821
1623 2 2 0 18 798 828 867
1624 2 2 0 18 799 868 827
1625 2 2 0 18 158 159 825
1626 2 2 0 18 150 151 826
1627 2 2 0 18 146 147 847
1628 2 2 0 18 93 94 845
1629 2 2 0 18 90 91 846
1630 2 2 0 18 143 144 844
1631 2 2 0 18 789 828 879
1632 2 2 0 18 790 880 827
1633 2 2 0 18 798 867 825
1634 2 2 0 18 799 826 868
1635 2 2 0 18 801 821 886
1636 2 2 0 18 800 885 822
1637 2 2 0 18 796 869 821
1638 2 2 0 18 797 822 870
1639 2 2 0 18 802 826 887
1640 2 2 0 18 803 888 825
1641 2 2 0 18 792 894 853
1642 2 2 0 18 795 835 849
1643 2 2 0 18 797 863 822
1644 2 2 0 18 796 821 864
1645 2 2 0 18 787 816 835
1646 2 2 0 18 144 852 811
1647 2 2 0 18 91 853 814
1648 2 2 0 18 791 832 817
1649 2 2 0 18 792 818 833
1650 2 2 0 18 797 824 863
1651 2 2 0 18 796 864 823
1652 2 2 0 18 787 824 874
1653 2 2 0 18 788 873 823
1654 2 2 0 18 781 849 835
1655 2 2 0 18 789 820 829
1656 2 2 0 18 790 830 819
1657 2 2 0 18 792 838 812
1658 2 2 0 18 136 841 839
1659 2 2 0 18 791 842 811
1660 2 2 0 18 792 812 843
1661 2 2 0 18 783 811 842
1662 2 2 0 18 784 843 812
1663 2 2 0 18 785 893 813
1664 2 2 0 18 786 814 894
1665 2 2 0 18 783 885 811
1666 2 2 0 18 784 812 886
1667 2 2 0 18 785 813 887
1668 2 2 0 18 786 888 814
1669 2 2 0 18 814 853 894
1670 2 2 0 18 133 134 823
1671 2 2 0 18 137 138 824
1672 2 2 0 18 791 852 837
1673 2 2 0 18 792 853 838
1674 2 2 0 18 806 839 849
1675 2 2 0 18 794 848 816
1676 2 2 0 18 152 153 827
1677 2 2 0 18 156 157 828
1678 2 2 0 18 92 93 838
1679 2 2 0 18 145 146 837
1680 2 2 0 18 815 834 840
1681 2 2 0 18 795 849 839
1682 2 2 0 18 804 892 829
1683 2 2 0 18 805 830 891
1684 2 2 0 18 795 839 841
1685 2 2 0 18 793 815 840
1686 2 2 0 18 807 883 817
1687 2 2 0 18 808 818 884
1688 2 2 0 18 791 817 842
1689 2 2 0 18 792 843 818
1690 2 2 0 18 793 860 815
1691 2 2 0 18 794 816 859
1692 2 2 0 18 780 861 818
1693 2 2 0 18 779 817 862
1694 2 2 0 18 789 829 892
1695 2 2 0 18 790 891 830
1696 2 2 0 18 133 823 864
1697 2 2 0 18 138 863 824
1698 2 2 0 18 782 829 850
1699 2 2 0 18 809 833 861
1700 2 2 0 18 810 862 832
1701 2 2 0 18 8 142 855
1702 2 2 0 18 7 856 95
1703 2 2 0 18 5 89 858
1704 2 2 0 18 6 857 148
1705 2 2 0 18 8 855 141
1706 2 2 0 18 7 130 856
1707 2 2 0 18 5 858 160
1708 2 2 0 18 6 149 857
1709 2 2 0 18 152 827 868
1710 2 2 0 18 157 867 828
1711 2 2 0 18 153 865 827
1712 2 2 0 18 156 828 866
1713 2 2 0 18 781 831 840
1714 2 2 0 18 793 840 831
1715 2 2 0 18 794 854 831
1716 2 2 0 18 795 882 835
1717 2 2 0 18 816 848 835
1718 2 2 0 18 136 137 841
1719 2 2 0 18 134 135 881
1720 2 2 0 18 801 877 821
1721 2 2 0 18 800 822 875
1722 2 2 0 18 794 859 819
1723 2 2 0 18 793 820 860
1724 2 2 0 18 788 895 834
1725 2 2 0 18 806 834 895
1726 2 2 0 18 154 155 836
1727 2 2 0 18 131 821 877
1728 2 2 0 18 140 875 822
1729 2 2 0 18 779 819 859
1730 2 2 0 18 780 860 820
1731 2 2 0 18 137 824 841
1732 2 2 0 18 785 832 893
1733 2 2 0 18 786 894 833
1734 2 2 0 18 135 136 839
1735 2 2 0 18 831 854 850
1736 2 2 0 18 787 882 824
1737 2 2 0 18 781 840 834
1738 2 2 0 18 828 892 866
1739 2 2 0 18 827 865 891
1740 2 2 0 18 803 825 876
1741 2 2 0 18 802 878 826
1742 2 2 0 18 806 849 834
1743 2 2 0 18 787 835 882
1744 2 2 0 18 159 876 825
1745 2 2 0 18 150 826 878
1746 2 2 0 18 781 848 831
1747 2 2 0 18 794 831 848
1748 2 2 0 18 813 893 837
1749 2 2 0 18 791 837 893
1750 2 2 0 18 788 823 895
1751 2 2 0 18 805 865 836
1752 2 2 0 18 804 836 866
1753 2 2 0 18 154 836 865
1754 2 2 0 18 155 866 836
1755 2 2 0 18 818 861 833
1756 2 2 0 18 817 832 862
1757 2 2 0 18 134 881 823
1758 2 2 0 18 781 834 849
1759 2 2 0 18 781 835 848
1760 2 2 0 18 782 854 830
1761 2 2 0 18 793 831 850
1762 2 2 0 18 789 892 828
1763 2 2 0 18 790 827 891
1764 2 2 0 18 91 92 853
1765 2 2 0 18 144 145 852
1766 2 2 0 18 791 893 832
1767 2 2 0 18 792 833 894
1768 2 2 0 18 138 139 863
1769 2 2 0 18 132 133 864
1770 2 2 0 18 153 154 865
1771 2 2 0 18 155 156 866
1772 2 2 0 18 157 158 867
1773 2 2 0 18 151 152 868
1774 2 2 0 18 805 836 851
1775 2 2 0 18 804 851 836
1776 2 2 0 18 140 141 875
1777 2 2 0 18 130 131 877
1778 2 2 0 18 149 150 878
1779 2 2 0 18 159 160 876
1780 2 2 0 18 779 859 890
1781 2 2 0 18 780 889 860
1782 2 2 0 18 816 890 859
1783 2 2 0 18 815 860 889
1784 2 2 0 18 147 148 899
1785 2 2 0 18 94 95 897
1786 2 2 0 18 89 90 898
1787 2 2 0 18 142 143 896
1788 2 2 0 18 824 882 841
1789 2 2 0 18 92 838 853
1790 2 2 0 18 145 837 852
1791 2 2 0 18 811 885 844
1792 2 2 0 18 812 845 886
1793 2 2 0 18 814 888 846
1794 2 2 0 18 813 847 887
1795 2 2 0 18 782 850 854
1796 2 2 0 18 804 866 892
1797 2 2 0 18 805 891 865
1798 2 2 0 18 783 842 883
1799 2 2 0 18 784 884 843
1800 2 2 0 18 817 883 842
1801 2 2 0 18 818 843 884
1802 2 2 0 18 795 841 882
1803 2 2 0 18 807 874 870
1804 2 2 0 18 808 869 873
1805 2 2 0 18 797 870 874
1806 2 2 0 18 796 873 869
1807 2 2 0 18 800 896 844
1808 2 2 0 18 801 845 897
1809 2 2 0 18 803 898 846
1810 2 2 0 18 802 847 899
1811 2 2 0 18 143 844 896
1812 2 2 0 18 94 897 845
1813 2 2 0 18 90 846 898
1814 2 2 0 18 147 899 847
1815 2 2 0 18 800 844 885
1816 2 2 0 18 801 886 845
1817 2 2 0 18 803 846 888
1818 2 2 0 18 802 887 847
1819 2 2 0 18 810 871 880
1820 2 2 0 18 809 879 872
1821 2 2 0 18 800 875 855
1822 2 2 0 18 803 876 858
1823 2 2 0 18 801 856 877
1824 2 2 0 18 802 857 878
1825 2 2 0 18 130 877 856
1826 2 2 0 18 141 855 875
1827 2 2 0 18 149 878 857
1828 2 2 0 18 160 858 876
1829 2 2 0 18 784 869 884
1830 2 2 0 18 783 883 870
1831 2 2 0 18 808 884 869
1832 2 2 0 18 807 870 883
1833 2 2 0 18 798 872 879
1834 2 2 0 18 799 880 871
1835 2 2 0 18 800 855 896
1836 2 2 0 18 801 897 856
1837 2 2 0 18 803 858 898
1838 2 2 0 18 802 899 857
1839 2 2 0 18 142 896 855
1840 2 2 0 18 95 856 897
1841 2 2 0 18 89 898 858
1842 2 2 0 18 148 857 899
1843 2 2 0 18 806 895 881
1844 2 2 0 18 823 881 895
1845 2 2 0 19 903 912 918
1846 2 2 0 19 902 918 912
1847 2 2 0 19 901 919 910
1848 2 2 0 19 905 910 919
1849 2 2 0 19 123 909 926
1850 2 2 0 19 127 128 912
1851 2 2 0 19 901 939 911
1852 2 2 0 19 120 121 911
1853 2 2 0 19 907 920 924
1854 2 2 0 19 123 921 909
1855 2 2 0 19 908 911 939
1856 2 2 0 19 116 117 910
1857 2 2 0 19 900 922 924
1858 2 2 0 19 901 913 919
1859 2 2 0 19 904 919 913
1860 2 2 0 19 12 923 114
1861 2 2 0 19 903 934 912
1862 2 2 0 19 904 924 920
1863 2 2 0 19 903 909 921
1864 2 2 0 19 907 924 922
1865 2 2 0 19 903 929 909
1866 2 2 0 19 12 115 923
1867 2 2 0 19 903 914 934
1868 2 2 0 19 128 925 912
1869 2 2 0 19 901 910 939
1870 2 2 0 19 112 917 920
1871 2 2 0 19 109 110 915
1872 2 2 0 19 122 123 926
1873 2 2 0 19 112 113 917
1874 2 2 0 19 129 916 925
1875 2 2 0 19 904 917 919
1876 2 2 0 19 900 913 927
1877 2 2 0 19 121 930 911
1878 2 2 0 19 906 927 913
1879 2 2 0 19 901 911 935
1880 2 2 0 19 905 919 917
1881 2 2 0 19 128 129 925
1882 2 2 0 19 120 911 937
1883 2 2 0 19 116 910 928
1884 2 2 0 19 904 920 917
1885 2 2 0 19 903 942 914
1886 2 2 0 19 905 928 910
1887 2 2 0 19 908 937 911
1888 2 2 0 19 110 938 915
1889 2 2 0 19 900 918 922
1890 2 2 0 19 123 124 921
1891 2 2 0 19 902 912 925
1892 2 2 0 19 117 932 910
1893 2 2 0 19 907 915 938
1894 2 2 0 19 118 931 932
1895 2 2 0 19 902 936 915
1896 2 2 0 19 903 921 942
1897 2 2 0 19 900 924 913
1898 2 2 0 19 904 913 924
1899 2 2 0 19 902 916 936
1900 2 2 0 19 901 935 913
1901 2 2 0 19 907 938 920
1902 2 2 0 19 121 122 930
1903 2 2 0 19 127 912 934
1904 2 2 0 19 906 913 935
1905 2 2 0 19 122 926 930
1906 2 2 0 19 117 118 932
1907 2 2 0 19 902 915 922
1908 2 2 0 19 108 936 916
1909 2 2 0 19 126 934 914
1910 2 2 0 19 907 922 915
1911 2 2 0 19 11 931 118
1912 2 2 0 19 902 925 916
1913 2 2 0 19 111 112 920
1914 2 2 0 19 11 119 931
1915 2 2 0 19 908 932 931
1916 2 2 0 19 902 922 918
1917 2 2 0 19 108 109 936
1918 2 2 0 19 126 127 934
1919 2 2 0 19 125 940 942
1920 2 2 0 19 903 918 929
1921 2 2 0 19 126 914 940
1922 2 2 0 19 909 927 926
1923 2 2 0 19 906 926 927
1924 2 2 0 19 109 915 936
1925 2 2 0 19 111 920 938
1926 2 2 0 19 113 114 933
1927 2 2 0 19 914 942 940
1928 2 2 0 19 115 116 928
1929 2 2 0 19 108 916 941
1930 2 2 0 19 900 929 918
1931 2 2 0 19 905 917 933
1932 2 2 0 19 113 933 917
1933 2 2 0 19 10 126 940
1934 2 2 0 19 129 941 916
1935 2 2 0 19 9 941 129
1936 2 2 0 19 906 935 930
1937 2 2 0 19 124 125 942
1938 2 2 0 19 911 930 935
1939 2 2 0 19 114 923 933
1940 2 2 0 19 10 940 125
1941 2 2 0 19 115 928 923
1942 2 2 0 19 110 111 938
1943 2 2 0 19 119 120 937
1944 2 2 0 19 9 108 941
1945 2 2 0 19 906 930 926
1946 2 2 0 19 905 933 923
1947 2 2 0 19 905 923 928
1948 2 2 0 19 900 927 929
1949 2 2 0 19 124 942 921
1950 2 2 0 19 909 929 927
1951 2 2 0 19 119 937 931
1952 2 2 0 19 908 931 937
1953 2 2 0 19 908 939 932
1954 2 2 0 19 910 932 939
$EndElements
