$MeshFormat
2.2 0 8
$EndMeshFormat
$Nodes
441
1 0 0 0
2 100 0 0
3 0 100 0
4 100 100 0
5 0 80 0
6 50 80 0
7 0 50 0
8 50 50 0
9 15 10 0
10 15 30 0
11 45 30 0
12 45 10 0
13 5.882352941152521 0 0
14 11.76470588230848 0 0
15 17.64705882345575 0 0
16 23.5294117646017 0 0
17 29.41176470574767 0 0
18 35.29411764690659 0 0
19 41.17647058807342 0 0
20 47.05882352924025 0 0
21 52.94117647040708 0 0
22 58.82352941157392 0 0
23 64.70588235274811 0 0
24 70.58823529395674 0 0
25 76.47058823516538 0 0
26 82.35294117637403 0 0
27 88.23529411758267 0 0
28 94.11764705879131 0 0
29 100 5.882352941152521 0
30 100 11.76470588230848 0
31 100 17.64705882345575 0
32 100 23.5294117646017 0
33 100 29.41176470574767 0
34 100 35.29411764690659 0
35 100 41.17647058807342 0
36 100 47.05882352924025 0
37 100 52.94117647040708 0
38 100 58.82352941157392 0
39 100 64.70588235274811 0
40 100 70.58823529395674 0
41 100 76.47058823516538 0
42 100 82.35294117637403 0
43 100 88.23529411758267 0
44 100 94.11764705879131 0
45 94.11764705886533 100 0
46 88.23529411773065 100 0
47 82.35294117659599 100 0
48 76.47058823546132 100 0
49 70.58823529432664 100 0
50 64.70588235319195 100 0
51 58.82352941202284 100 0
52 52.94117647084638 100 0
53 47.05882352966992 100 0
54 41.17647058849347 100 0
55 35.29411764730966 100 0
56 29.41176470609139 100 0
57 23.52941176487312 100 0
58 17.64705882365486 100 0
59 11.76470588243662 100 0
60 5.882352941218343 100 0
61 0 95 0
62 0 90 0
63 0 85 0
64 0 74 0
65 0 68 0
66 0 61.99999999999999 0
67 0 55.99999999999996 0
68 0 44.44444444448392 0
69 0 38.88888888896784 0
70 0 33.33333333345175 0
71 0 27.77777777790685 0
72 0 22.22222222235131 0
73 0 16.66666666678512 0
74 0 11.11111111119008 0
75 0 5.555555555595063 0
76 20.99999999998557 10 0
77 26.9999999999248 10 0
78 32.99999999988678 10 0
79 38.99999999994342 10 0
80 45 15.00000000000001 0
81 45 20.00000000000002 0
82 45 25.00000000000002 0
83 39.00000000003554 30 0
84 33.00000000007107 30 0
85 27.00000000007109 30 0
86 21.00000000003558 30 0
87 15 24.99999999999999 0
88 15 19.99999999999998 0
89 15 14.99999999999998 0
90 5.55555555553445 50 0
91 11.11111111106241 50 0
92 16.66666666659216 50 0
93 22.22222222213861 50 0
94 27.77777777768506 50 0
95 33.33333333324216 50 0
96 38.88888888882809 50 0
97 44.44444444441403 50 0
98 50 55.99999999992395 0
99 50 61.99999999984791 0
100 50 67.99999999986791 0
101 50 73.99999999993398 0
102 44.44444444448392 80 0
103 38.88888888896784 80 0
104 33.33333333345175 80 0
105 27.77777777790685 80 0
106 22.22222222235131 80 0
107 16.66666666678512 80 0
108 11.11111111119008 80 0
109 5.555555555595063 80 0
110 71.9063385442073 28.04471953099108 0
111 75.31171777800577 52.73198058154591 0
112 76.11000681356948 78.45342676396852 0
113 60.43233946974382 17.50000000000001 0
114 59.33566725651202 36.09732207385064 0
115 83.93801211408021 38.94456700878639 0
116 83.84292098913363 15.89611092656918 0
117 65.34654304294202 64.73100368682948 0
118 64.10611223138983 85.03443304786093 0
119 84.60019162525236 64.03926571556103 0
120 84.36746842042027 86.5268257578017 0
121 62.66093955290701 49.28088522429739 0
122 71.55587358349317 39.88567065881837 0
123 71.90999674715614 12.4639875211021 0
124 87.5517109155881 50.91010974612661 0
125 88.01335999421465 27.51322756080873 0
126 54.50435664614227 28.37337090570147 0
127 89.02079051697845 75.37644068778935 0
128 49.98524857184242 38.73739377859165 0
129 74.9838794845239 89.61692629948955 0
130 9.591163996469485 39.35463000558482 0
131 54.11755048271008 89.92806711160837 0
132 60.16563380605502 75.10376400230925 0
133 8.558147236963974 88.76601894870446 0
134 36.11111111103514 39.98425925924523 0
135 25.00000000012907 89.86116450937386 0
136 26.30635035643309 40.77821916014351 0
137 35.53879513947596 89.11253234244145 0
138 54.7048592027935 9.480384493070845 0
139 75.04655296314435 62.39312759239812 0
140 90.70674379512651 9.293256204850623 0
141 45.24672916315946 89.69337129995816 0
142 63.92817404840528 29.47608478756757 0
143 63.6324076497709 9.195863846007748 0
144 59.08654933126935 57.93779006182647 0
145 52.78775910433036 17.7812164300097 0
146 79.69324120773709 8.378373092181889 0
147 68.42410251540601 20.11669290990473 0
148 80.67860243505321 30.91616325018119 0
149 91.51887500995487 43.29990579187201 0
150 56.20079886016082 44.72625614330592 0
151 7.49241336964816 11.95405580909581 0
152 76.36649914097198 19.89473078329801 0
153 7.705761316870035 27.49999999999999 0
154 91.44664785798831 18.62058409198854 0
155 67.41417932223237 56.25915834800053 0
156 91.53400517346734 58.45683747499022 0
157 7.491052433251238 20.00034885659064 0
158 78.87201744942966 45.73807728160562 0
159 17.85562408201967 37.17108838800549 0
160 91.23863907815941 34.7278832864986 0
161 69.01085376007943 72.07403840474136 0
162 91.91212633927771 91.76750717418155 0
163 92.67205979885057 67.50939972808683 0
164 69.06414248558836 92.15417491355755 0
165 17.52028377115607 87.73032728746665 0
166 81.74585468248073 56.53644302039343 0
167 51.4757199435755 32.82186566878909 0
168 42.4906929152246 36.72185048641501 0
169 57.91586235380789 67.50969656199375 0
170 79.02039917486771 68.6003407830997 0
171 70.49133098376451 81.81579083486911 0
172 56.80947504962634 80.67335527461697 0
173 64.26607513981133 42.62924729597992 0
174 92.32755480472552 81.53515345953988 0
175 81.9543064622803 92.11316172112151 0
176 70.98352983978072 48.44363052724253 0
177 80.44342767337545 82.5511519210567 0
178 6.821405562590444 33.75019548574638 0
179 69.10133768911007 33.17189200869857 0
180 43.85955158836883 43.36692616293783 0
181 9.4741271031982 6.332154889065724 0
182 59.94865814250861 92.96809663089418 0
183 16.34887332854919 43.64910187223172 0
184 30.34775491605074 44.88575276887555 0
185 83.86191358154454 23.43713041499474 0
186 30.55555555567931 86.09006127863881 0
187 61.6227703208423 23.71215157632095 0
188 56.69410338835222 51.84520751045923 0
189 50.1733645936761 22.64023545116135 0
190 75.67309956200256 38.09197373957659 0
191 49.69783082177787 5.75526274699897 0
192 73.47851073476271 5.995574396987408 0
193 31.13609526992387 93.67611129112309 0
194 29.53328192863638 35.07894885868811 0
195 16.09956860836889 93.97439200455698 0
196 49.75081057876746 94.02174792916877 0
197 93.77814358932747 49.27439300512977 0
198 6.137829349246967 43.86217065075108 0
199 84.92163680190875 44.7435654751392 0
200 82.89871124120623 76.72939669331777 0
201 5.381157126518206 85.3383500277986 0
202 94.48500710378703 26.73925635594646 0
203 65.62111980820363 78.86342239330351 0
204 77.9443557041854 14.26419806113994 0
205 85.10165021534996 5.364753817883245 0
206 41.42140790098721 93.92958902424439 0
207 66.06652714247541 14.88056577168364 0
208 50.10684020779857 12.78647526046054 0
209 4.834266293650117 92.47585219371597 0
210 81.34579415948856 50.61356283847439 0
211 85.94904956111009 33.19922464887357 0
212 94.75482844156728 14.59452609708654 0
213 40.76009170772848 85.39493550098838 0
214 94.75518463953878 72.33088753805406 0
215 72.94968923302226 95.61673105011612 0
216 73.10853935533801 68.14371404680807 0
217 85.09126576317219 69.85934372398971 0
218 56.33617296470536 22.03829622564296 0
219 58.88926588119395 31.4886972068146 0
220 21.34622438611014 94.62349543473213 0
221 50.06990493567281 85.82191646393531 0
222 78.03084690273083 25.52132322222833 0
223 13.23535779881731 34.73324115802072 0
224 59.02369499164088 6.416718724524275 0
225 67.43959990084221 4.917692954074217 0
226 21.39303178353498 45.0295068798595 0
227 54.84791448500102 37.39410779742261 0
228 65.99996130017445 38.23610573494537 0
229 75.39026827061704 32.45031812280128 0
230 14.77576915707994 4.590298756134003 0
231 67.20035967842357 24.8474497834331 0
232 43.3614031760875 5.05866259162937 0
233 54.54969978100459 76.16595342645563 0
234 49.89180163802479 44.07259718414654 0
235 49.35778872040108 28.42619909687187 0
236 95.1701123795295 86.70926396138059 0
237 12.73228235986462 85.14475833330279 0
238 4.107457861485167 8.533646790075181 0
239 59.36288138151079 12.74378360605457 0
240 87.14000308843163 94.91414023786417 0
241 35.93399396133277 44.50060229918157 0
242 55.11634501737107 95.38358233433426 0
243 25.19896041596725 84.03237381218497 0
244 22.90980832438994 35.15178256206529 0
245 69.29083401785311 87.09081816539999 0
246 86.57390210005714 81.35246051789092 0
247 69.51812450712306 62.41094230156259 0
248 55.97404702100845 62.15985808240899 0
249 9.306541701321748 94.52247357248365 0
250 46.70537335290582 34.32706330003282 0
251 59.31731878545841 86.35995595841536 0
252 63.78371317379465 69.30953981704553 0
253 94.56370387998258 5.436296120013208 0
254 5.070928296357416 38.90472305637358 0
255 88.91188881010767 14.50899091908684 0
256 95.04002014274772 62.46605849906937 0
257 37.61305219871439 4.842759716999713 0
258 94.74697349435449 38.45041625867086 0
259 31.71864066780238 4.813860421081738 0
260 25.75022254982374 4.826767505226413 0
261 19.98364127955321 4.778998749862192 0
262 36.58905422202476 35.33800050301567 0
263 11.1285303154952 45.04362038061594 0
264 9.625511650053586 15.94176845295981 0
265 84.33493224708386 10.85115306359019 0
266 10.10450050474611 23.95266213241642 0
267 35.64235376360487 84.37910568168705 0
268 72.79074713923789 57.53499698280317 0
269 72.43363002501758 17.40648568722785 0
270 4.645330659166206 24.33100087197026 0
271 80.20236355760385 61.53080215738384 0
272 86.90704672874966 56.20385336082909 0
273 36.55212260184094 94.7483632836845 0
274 66.7409815611486 51.39355201473666 0
275 5.307354472675131 16.15774324063358 0
276 95.27882714832614 55.00422654976633 0
277 62.72664374780987 54.37344262848064 0
278 63.85506995009529 59.96173155110066 0
279 72.39362946779288 22.63856698618051 0
280 54.27971126544905 71.07143630891142 0
281 95.25283641176942 32.54693677648019 0
282 70.300070901194 76.55738849309357 0
283 3.906226475023673 29.92394519731874 0
284 59.51699943740633 41.08066612500222 0
285 88.80667583009691 38.98830239715534 0
286 26.08469922542552 95.63215424704582 0
287 26.03960597503917 45.52018787550072 0
288 54.36246482532466 4.845300696686027 0
289 79.67113175405792 87.47953963346254 0
290 89.0252930726038 63.4775704052588 0
291 86.60295327123832 19.27192373247433 0
292 64.2201145571361 20.31252104548053 0
293 83.28192400631897 27.56546554342555 0
294 45.58397577192444 84.52769637417246 0
295 48.613592781161 17.64158542832632 0
296 54.68523535756145 14.10726980870937 0
297 96.17242026729647 44.04849742723775 0
298 10.99401845011439 29.90066579518772 0
299 95.37639956244615 95.37639956243025 0
300 74.03358372336723 43.72825838827088 0
301 20.43924652376971 84.21064327291231 0
302 68.23083243820031 9.665762194189995 0
303 77.74228091837675 95.46936381414542 0
304 60.79471963613031 63.48407622032672 0
305 54.7297917558416 56.20421288521203 0
306 45.32183605881474 95.6226178633177 0
307 64.36731551507832 89.85278526335208 0
308 79.41176470576977 3.677673755017282 0
309 95.53804623351613 20.78166047144292 0
310 90.18275556496363 4.246078024771393 0
311 95.22070599224854 77.61320221938453 0
312 11.31841042457999 11.84559583022426 0
313 54.54938395881013 84.99243463504038 0
314 40.35462403610943 40.67105502662013 0
315 95.88405799775876 9.690796286696655 0
316 58.49357057104377 47.91184112352351 0
317 63.14576683145924 4.23705683172818 0
318 75.16204594800254 84.21925418637487 0
319 79.29269711613094 73.26395198943871 0
320 54.04142608047101 48.10127586679268 0
321 40.73576680317309 45.91882007264206 0
322 74.47376118686326 72.84881008019165 0
323 75.53822819580103 9.919411263606579 0
324 91.00994671109174 53.9698840273684 0
325 46.49969132055581 46.51089069463155 0
326 64.3054141940038 95.31184302089297 0
327 61.52418486985331 81.20894401566456 0
328 96.49172765625067 91.24122237487326 0
329 18.00004113939584 33.07707059552897 0
330 79.82386072125337 41.09749381915405 0
331 53.02053915394844 41.36346983667713 0
332 80.24214877735274 35.78329009822884 0
333 91.35629403335028 96.41160939489518 0
334 89.25152452915435 46.98411298765397 0
335 63.45088123507915 33.69402036237535 0
336 65.88633076736103 46.67234727141323 0
337 3.892787581167178 4.084271446947193 0
338 68.29131597338581 67.51105750371974 0
339 75.23153784012439 48.07885524672765 0
340 68.03405249003654 28.88503652767258 0
341 3.849364662744978 96.43154330336183 0
342 81.042230773987 19.55170582746502 0
343 89.99132134038149 22.72729710460929 0
344 87.37595185115062 90.15330869989185 0
345 77.01944722409451 58.14547006690489 0
346 20.4546228393458 40.22784125652475 0
347 96.68830789952722 67.64705882335238 0
348 91.03113943245924 30.73292296128826 0
349 14.56714594874502 39.5696528520326 0
350 59.28109630537305 27.28342162084609 0
351 68.78755905899797 43.26587664611171 0
352 56.46383689137407 17.74448925395122 0
353 42.00000000001778 32.78114083289718 0
354 55.49597055337442 33.50607198313349 0
355 3.488747513018515 19.87559637166618 0
356 70.64823112808106 53.27266369086576 0
357 89.83954997141542 86.07076506922654 0
358 45.54788201707931 39.64948098979066 0
359 20.55408288132997 90.23387725324231 0
360 72.60622398084156 35.95032659554625 0
361 65.58703837001602 74.4451462705308 0
362 89.60606467263722 70.27039770667835 0
363 61.3841251826266 45.34915335678352 0
364 8.909353266370481 83.6030298490642 0
365 11.2489236485505 20.00179127358264 0
366 3.381445140761691 12.88464472355595 0
367 3.309599552577554 46.69040044742984 0
368 49.59904635077243 89.88363801377263 0
369 3.671940227171235 88.81057007103446 0
370 2.734178170528317 82.58458750694963 0
371 84.49614993333807 60.35758693188524 0
372 12.84336473553506 90.0275940293029 0
373 53.81463698905817 66.11719044826563 0
374 32.01962940827896 40.05693463428774 0
375 68.51156549483007 96.42226569413434 0
376 40.09009265161681 89.98819742758789 0
377 30.83927648920358 64.92371457793617 0
378 15.32127033382228 65.08724089748199 0
379 40.074467213583 59.57365749477847 0
380 39.96420901894015 70.61027388969565 0
381 23.03333333346584 59.36419753085542 0
382 23.33114467240992 70.57846920072245 0
383 8.65830777915181 59.58589386128483 0
384 8.177149276400707 70.92916900785241 0
385 30.55555555546361 57.24279835391938 0
386 30.55555555567931 72.75720164609959 0
387 16.57413284102336 57.30866742019962 0
388 16.0747897185254 73.5770098249444 0
389 6.09329653983154 65.36451810152998 0
390 43.81091737321366 65.5945478228135 0
391 44.21865077697808 74.21197853757943 0
392 35.474905255663 54.87273690659518 0
393 24.45370306836589 65.25947360286189 0
394 44.26182958277498 55.77791169029068 0
395 37.24242666578886 65.04490639988575 0
396 35.48654632897102 75.01751739522676 0
397 26.0771039675211 74.89389164683919 0
398 25.83442583246893 54.89938926958393 0
399 20.47808655734559 75.13169858039889 0
400 20.86615617913778 54.3144508441278 0
401 33.92535655490012 60.3906061778322 0
402 5.380810650585201 54.84664366343198 0
403 5.282748894536963 75.08571988839843 0
404 19.09869331980049 62.93465861954601 0
405 33.98396028978555 69.40513328667899 0
406 11.24389481808585 63.84872310206833 0
407 27.77229183552161 69.07583977830302 0
408 27.61938543130061 61.12139917705105 0
409 11.81752797045347 55.10643794357345 0
410 11.658600130088 75.10263754547736 0
411 18.81314999954867 68.79321348455427 0
412 45.1763502746641 60.8200997689219 0
413 12.93436232657115 68.98394366592431 0
414 4.107559705464588 59.73488481577393 0
415 3.910638942153843 70.67588139955618 0
416 45.70545972839727 70.002880803354 0
417 40.17601668312545 75.88073067989626 0
418 40.35871355173518 54.00787390173741 0
419 30.55555555567931 76.91127127759387 0
420 30.5555555554636 53.08872872241466 0
421 14.03447680525679 60.92486854405067 0
422 47.16577380536551 77.05299463437836 0
423 47.22222222220702 52.99999999996199 0
424 34.9145775379533 19.60832551638174 0
425 23.7216552958506 19.76197537499471 0
426 30.41659793953905 24.69302664104493 0
427 30.28281159371389 15.22784011753103 0
428 19.55791111675089 22.18092861689064 0
429 39.91666666666091 22.50000000000002 0
430 39.47809330706747 15.09910943919459 0
431 19.42703785767452 17.46175789972582 0
432 24.24563292392732 24.71103683071459 0
433 24.1745632758543 15.08419142020962 0
434 36.110674051072 25.46511065509224 0
435 34.86941306999694 14.30462009206454 0
436 18.96070880814276 26.37839308952105 0
437 41.12843642612066 26.45412371132966 0
438 28.54658609413336 19.86316659675902 0
439 18.92032022670288 13.50918986398708 0
440 41.99999999997171 12.5 0
441 41.17311941147565 18.79621936744683 0
$EndNodes
$Elements
933
1 15 2 0 1 1
2 15 2 0 2 2
3 15 2 0 3 3
4 15 2 0 4 4
5 15 2 0 5 5
6 15 2 0 6 6
7 15 2 0 7 7
8 15 2 0 8 8
9 15 2 0 9 9
10 15 2 0 10 10
11 15 2 0 11 11
12 15 2 0 12 12
13 1 2 0 1 1 13
14 1 2 0 1 13 14
15 1 2 0 1 14 15
16 1 2 0 1 15 16
17 1 2 0 1 16 17
18 1 2 0 1 17 18
19 1 2 0 1 18 19
20 1 2 0 1 19 20
21 1 2 0 1 20 21
22 1 2 0 1 21 22
23 1 2 0 1 22 23
24 1 2 0 1 23 24
25 1 2 0 1 24 25
26 1 2 0 1 25 26
27 1 2 0 1 26 27
28 1 2 0 1 27 28
29 1 2 0 1 28 2
30 1 2 0 2 2 29
31 1 2 0 2 29 30
32 1 2 0 2 30 31
33 1 2 0 2 31 32
34 1 2 0 2 32 33
35 1 2 0 2 33 34
36 1 2 0 2 34 35
37 1 2 0 2 35 36
38 1 2 0 2 36 37
39 1 2 0 2 37 38
40 1 2 0 2 38 39
41 1 2 0 2 39 40
42 1 2 0 2 40 41
43 1 2 0 2 41 42
44 1 2 0 2 42 43
45 1 2 0 2 43 44
46 1 2 0 2 44 4
47 1 2 0 3 4 45
48 1 2 0 3 45 46
49 1 2 0 3 46 47
50 1 2 0 3 47 48
51 1 2 0 3 48 49
52 1 2 0 3 49 50
53 1 2 0 3 50 51
54 1 2 0 3 51 52
55 1 2 0 3 52 53
56 1 2 0 3 53 54
57 1 2 0 3 54 55
58 1 2 0 3 55 56
59 1 2 0 3 56 57
60 1 2 0 3 57 58
61 1 2 0 3 58 59
62 1 2 0 3 59 60
63 1 2 0 3 60 3
64 1 2 0 4 3 61
65 1 2 0 4 61 62
66 1 2 0 4 62 63
67 1 2 0 4 63 5
68 1 2 0 5 5 64
69 1 2 0 5 64 65
70 1 2 0 5 65 66
71 1 2 0 5 66 67
72 1 2 0 5 67 7
73 1 2 0 6 7 68
74 1 2 0 6 68 69
75 1 2 0 6 69 70
76 1 2 0 6 70 71
77 1 2 0 6 71 72
78 1 2 0 6 72 73
79 1 2 0 6 73 74
80 1 2 0 6 74 75
81 1 2 0 6 75 1
82 1 2 0 7 9 76
83 1 2 0 7 76 77
84 1 2 0 7 77 78
85 1 2 0 7 78 79
86 1 2 0 7 79 12
87 1 2 0 8 12 80
88 1 2 0 8 80 81
89 1 2 0 8 81 82
90 1 2 0 8 82 11
91 1 2 0 9 11 83
92 1 2 0 9 83 84
93 1 2 0 9 84 85
94 1 2 0 9 85 86
95 1 2 0 9 86 10
96 1 2 0 10 10 87
97 1 2 0 10 87 88
98 1 2 0 10 88 89
99 1 2 0 10 89 9
100 1 2 0 11 7 90
101 1 2 0 11 90 91
102 1 2 0 11 91 92
103 1 2 0 11 92 93
104 1 2 0 11 93 94
105 1 2 0 11 94 95
106 1 2 0 11 95 96
107 1 2 0 11 96 97
108 1 2 0 11 97 8
109 1 2 0 12 8 98
110 1 2 0 12 98 99
111 1 2 0 12 99 100
112 1 2 0 12 100 101
113 1 2 0 12 101 6
114 1 2 0 13 6 102
115 1 2 0 13 102 103
116 1 2 0 13 103 104
117 1 2 0 13 104 105
118 1 2 0 13 105 106
119 1 2 0 13 106 107
120 1 2 0 13 107 108
121 1 2 0 13 108 109
122 1 2 0 13 109 5
123 2 2 0 16 179 360 228
124 2 2 0 16 166 210 272
125 2 2 0 16 272 210 124
126 2 2 0 16 107 165 237
127 2 2 0 16 360 122 228
128 2 2 0 16 112 318 171
129 2 2 0 16 70 178 254
130 2 2 0 16 129 215 164
131 2 2 0 16 85 194 244
132 2 2 0 16 119 290 217
133 2 2 0 16 217 290 362
134 2 2 0 16 87 298 266
135 2 2 0 16 129 164 245
136 2 2 0 16 107 301 165
137 2 2 0 16 135 186 193
138 2 2 0 16 190 330 300
139 2 2 0 16 55 56 193
140 2 2 0 16 137 193 186
141 2 2 0 16 122 190 300
142 2 2 0 16 111 210 166
143 2 2 0 16 119 170 271
144 2 2 0 16 55 193 273
145 2 2 0 16 139 271 170
146 2 2 0 16 92 263 183
147 2 2 0 16 112 177 318
148 2 2 0 16 127 311 174
149 2 2 0 16 120 177 246
150 2 2 0 16 132 280 169
151 2 2 0 16 358 128 234
152 2 2 0 16 92 183 226
153 2 2 0 16 68 254 198
154 2 2 0 16 118 203 171
155 2 2 0 16 111 166 345
156 2 2 0 16 12 191 208
157 2 2 0 16 81 189 82
158 2 2 0 16 8 188 305
159 2 2 0 16 42 236 174
160 2 2 0 16 122 351 228
161 2 2 0 16 12 79 232
162 2 2 0 16 126 167 235
163 2 2 0 16 47 175 240
164 2 2 0 16 129 175 303
165 2 2 0 16 6 233 172
166 2 2 0 16 69 70 254
167 2 2 0 16 149 199 285
168 2 2 0 16 91 263 92
169 2 2 0 16 168 314 262
170 2 2 0 16 90 198 263
171 2 2 0 16 68 69 254
172 2 2 0 16 180 358 234
173 2 2 0 16 34 258 281
174 2 2 0 16 127 200 217
175 2 2 0 16 38 256 276
176 2 2 0 16 132 169 252
177 2 2 0 16 227 284 331
178 2 2 0 16 6 172 313
179 2 2 0 16 123 269 207
180 2 2 0 16 126 354 167
181 2 2 0 16 136 244 194
182 2 2 0 16 81 295 189
183 2 2 0 16 139 170 216
184 2 2 0 16 119 217 170
185 2 2 0 16 112 200 177
186 2 2 0 16 125 185 343
187 2 2 0 16 10 298 87
188 2 2 0 16 147 207 269
189 2 2 0 16 185 291 343
190 2 2 0 16 8 305 98
191 2 2 0 16 90 263 91
192 2 2 0 16 128 250 167
193 2 2 0 16 128 167 227
194 2 2 0 16 11 235 250
195 2 2 0 16 160 281 258
196 2 2 0 16 9 230 261
197 2 2 0 16 129 289 175
198 2 2 0 16 177 200 246
199 2 2 0 16 115 285 199
200 2 2 0 16 112 171 282
201 2 2 0 16 138 208 191
202 2 2 0 16 173 228 351
203 2 2 0 16 110 222 229
204 2 2 0 16 9 312 181
205 2 2 0 16 134 262 314
206 2 2 0 16 180 234 325
207 2 2 0 16 13 14 181
208 2 2 0 16 127 214 311
209 2 2 0 16 156 276 256
210 2 2 0 16 118 171 245
211 2 2 0 16 127 174 246
212 2 2 0 16 163 362 290
213 2 2 0 16 92 226 93
214 2 2 0 16 200 319 217
215 2 2 0 16 342 222 152
216 2 2 0 16 169 304 252
217 2 2 0 16 149 334 199
218 2 2 0 16 148 229 222
219 2 2 0 16 117 252 304
220 2 2 0 16 142 187 231
221 2 2 0 16 139 216 247
222 2 2 0 16 120 175 289
223 2 2 0 16 114 284 227
224 2 2 0 16 132 327 172
225 2 2 0 16 9 261 76
226 2 2 0 16 94 184 95
227 2 2 0 16 167 250 235
228 2 2 0 16 104 186 105
229 2 2 0 16 216 338 247
230 2 2 0 16 116 204 265
231 2 2 0 16 42 174 311
232 2 2 0 16 132 172 233
233 2 2 0 16 2 29 253
234 2 2 0 16 2 253 28
235 2 2 0 16 120 344 175
236 2 2 0 16 142 179 335
237 2 2 0 16 151 181 312
238 2 2 0 16 185 222 342
239 2 2 0 16 190 229 332
240 2 2 0 16 47 303 175
241 2 2 0 16 332 229 148
242 2 2 0 16 76 261 260
243 2 2 0 16 131 251 182
244 2 2 0 16 146 265 204
245 2 2 0 16 142 340 179
246 2 2 0 16 113 187 218
247 2 2 0 16 156 290 272
248 2 2 0 16 113 239 207
249 2 2 0 16 350 126 218
250 2 2 0 16 102 213 103
251 2 2 0 16 58 59 195
252 2 2 0 16 114 228 284
253 2 2 0 16 84 194 85
254 2 2 0 16 79 257 232
255 2 2 0 16 76 260 77
256 2 2 0 16 272 290 371
257 2 2 0 16 158 300 330
258 2 2 0 16 187 350 218
259 2 2 0 16 51 182 326
260 2 2 0 16 130 178 223
261 2 2 0 16 129 303 215
262 2 2 0 16 153 266 298
263 2 2 0 16 243 135 301
264 2 2 0 16 120 289 177
265 2 2 0 16 173 284 228
266 2 2 0 16 111 356 176
267 2 2 0 16 77 260 259
268 2 2 0 16 143 207 239
269 2 2 0 16 77 259 78
270 2 2 0 16 111 176 339
271 2 2 0 16 135 359 301
272 2 2 0 16 99 305 248
273 2 2 0 16 124 210 199
274 2 2 0 16 121 277 188
275 2 2 0 16 150 331 284
276 2 2 0 16 145 189 295
277 2 2 0 16 13 181 337
278 2 2 0 16 78 259 257
279 2 2 0 16 24 25 192
280 2 2 0 16 78 257 79
281 2 2 0 16 153 298 178
282 2 2 0 16 126 235 189
283 2 2 0 16 132 233 280
284 2 2 0 16 52 53 196
285 2 2 0 16 9 181 230
286 2 2 0 16 187 292 231
287 2 2 0 16 12 232 191
288 2 2 0 16 58 195 220
289 2 2 0 16 82 189 235
290 2 2 0 16 54 273 206
291 2 2 0 16 130 254 178
292 2 2 0 16 110 229 179
293 2 2 0 16 159 223 329
294 2 2 0 16 158 199 210
295 2 2 0 16 168 262 353
296 2 2 0 16 36 37 197
297 2 2 0 16 59 249 195
298 2 2 0 16 144 188 277
299 2 2 0 16 20 21 191
300 2 2 0 16 51 242 182
301 2 2 0 16 98 305 99
302 2 2 0 16 136 374 184
303 2 2 0 16 46 47 240
304 2 2 0 16 42 43 236
305 2 2 0 16 372 249 133
306 2 2 0 16 179 228 335
307 2 2 0 16 145 218 189
308 2 2 0 16 149 297 197
309 2 2 0 16 131 182 242
310 2 2 0 16 102 294 213
311 2 2 0 16 54 55 273
312 2 2 0 16 151 238 181
313 2 2 0 16 153 178 283
314 2 2 0 16 136 194 374
315 2 2 0 16 159 349 223
316 2 2 0 16 110 179 340
317 2 2 0 16 95 184 241
318 2 2 0 16 105 186 243
319 2 2 0 16 126 189 218
320 2 2 0 16 88 365 89
321 2 2 0 16 149 197 334
322 2 2 0 16 365 88 87
323 2 2 0 16 71 270 283
324 2 2 0 16 195 249 372
325 2 2 0 16 138 224 239
326 2 2 0 16 126 219 354
327 2 2 0 16 26 27 205
328 2 2 0 16 107 237 108
329 2 2 0 16 50 51 326
330 2 2 0 16 135 243 186
331 2 2 0 16 61 62 209
332 2 2 0 16 266 365 87
333 2 2 0 16 32 33 202
334 2 2 0 16 365 264 89
335 2 2 0 16 12 208 80
336 2 2 0 16 123 302 192
337 2 2 0 16 143 239 224
338 2 2 0 16 30 31 212
339 2 2 0 16 70 283 178
340 2 2 0 16 24 192 225
341 2 2 0 16 170 319 322
342 2 2 0 16 133 201 364
343 2 2 0 16 8 320 188
344 2 2 0 16 57 58 220
345 2 2 0 16 140 265 205
346 2 2 0 16 133 369 201
347 2 2 0 16 6 101 233
348 2 2 0 16 6 313 221
349 2 2 0 16 133 209 369
350 2 2 0 16 52 196 242
351 2 2 0 16 31 309 212
352 2 2 0 16 165 359 195
353 2 2 0 16 146 192 308
354 2 2 0 16 10 329 223
355 2 2 0 16 153 283 270
356 2 2 0 16 14 230 181
357 2 2 0 16 141 196 306
358 2 2 0 16 130 349 263
359 2 2 0 16 121 188 316
360 2 2 0 16 104 267 186
361 2 2 0 16 25 308 192
362 2 2 0 16 20 191 232
363 2 2 0 16 130 198 254
364 2 2 0 16 115 211 285
365 2 2 0 16 131 242 196
366 2 2 0 16 130 263 198
367 2 2 0 16 165 195 372
368 2 2 0 16 135 193 286
369 2 2 0 16 11 82 235
370 2 2 0 16 137 186 267
371 2 2 0 16 48 49 215
372 2 2 0 16 94 287 184
373 2 2 0 16 110 279 222
374 2 2 0 16 136 184 287
375 2 2 0 16 133 364 237
376 2 2 0 16 140 255 265
377 2 2 0 16 160 285 211
378 2 2 0 16 123 207 302
379 2 2 0 16 40 41 214
380 2 2 0 16 152 269 204
381 2 2 0 16 127 246 200
382 2 2 0 16 170 322 216
383 2 2 0 16 115 199 330
384 2 2 0 16 158 330 199
385 2 2 0 16 182 251 307
386 2 2 0 16 125 293 185
387 2 2 0 16 123 204 269
388 2 2 0 16 183 263 349
389 2 2 0 16 36 197 297
390 2 2 0 16 137 273 193
391 2 2 0 16 152 222 279
392 2 2 0 16 154 212 309
393 2 2 0 16 132 203 327
394 2 2 0 16 141 306 206
395 2 2 0 16 26 205 308
396 2 2 0 16 84 262 194
397 2 2 0 16 184 374 241
398 2 2 0 16 183 349 346
399 2 2 0 16 21 22 288
400 2 2 0 16 146 308 205
401 2 2 0 16 141 368 196
402 2 2 0 16 142 350 187
403 2 2 0 16 97 321 325
404 2 2 0 16 124 334 197
405 2 2 0 16 22 224 288
406 2 2 0 16 122 360 190
407 2 2 0 16 129 245 318
408 2 2 0 16 6 221 294
409 2 2 0 16 202 343 309
410 2 2 0 16 113 292 187
411 2 2 0 16 123 192 323
412 2 2 0 16 148 293 211
413 2 2 0 16 113 207 292
414 2 2 0 16 85 244 86
415 2 2 0 16 113 218 352
416 2 2 0 16 134 241 374
417 2 2 0 16 38 39 256
418 2 2 0 16 134 374 262
419 2 2 0 16 125 211 293
420 2 2 0 16 6 294 102
421 2 2 0 16 176 356 274
422 2 2 0 16 194 262 374
423 2 2 0 16 146 323 192
424 2 2 0 16 180 325 321
425 2 2 0 16 147 292 207
426 2 2 0 16 154 255 212
427 2 2 0 16 21 288 191
428 2 2 0 16 34 35 258
429 2 2 0 16 71 72 270
430 2 2 0 16 32 202 309
431 2 2 0 16 162 357 236
432 2 2 0 16 147 231 292
433 2 2 0 16 103 213 267
434 2 2 0 16 23 24 225
435 2 2 0 16 195 359 220
436 2 2 0 16 56 286 193
437 2 2 0 16 192 302 225
438 2 2 0 16 63 201 369
439 2 2 0 16 171 203 282
440 2 2 0 16 163 347 214
441 2 2 0 16 241 314 321
442 2 2 0 16 171 318 245
443 2 2 0 16 111 339 210
444 2 2 0 16 162 344 357
445 2 2 0 16 16 260 261
446 2 2 0 16 153 270 266
447 2 2 0 16 157 266 270
448 2 2 0 16 144 305 188
449 2 2 0 16 4 45 299
450 2 2 0 16 4 299 44
451 2 2 0 16 159 346 349
452 2 2 0 16 80 208 295
453 2 2 0 16 158 210 339
454 2 2 0 16 117 247 338
455 2 2 0 16 376 273 137
456 2 2 0 16 51 52 242
457 2 2 0 16 37 276 197
458 2 2 0 16 113 352 239
459 2 2 0 16 116 342 204
460 2 2 0 16 134 314 241
461 2 2 0 16 206 273 376
462 2 2 0 16 175 344 240
463 2 2 0 16 145 208 296
464 2 2 0 16 170 217 319
465 2 2 0 16 74 75 238
466 2 2 0 16 54 206 306
467 2 2 0 16 138 191 288
468 2 2 0 16 163 214 362
469 2 2 0 16 146 205 265
470 2 2 0 16 239 352 296
471 2 2 0 16 131 196 368
472 2 2 0 16 145 295 208
473 2 2 0 16 124 197 324
474 2 2 0 16 103 267 104
475 2 2 0 16 203 361 282
476 2 2 0 16 68 198 367
477 2 2 0 16 90 367 198
478 2 2 0 16 135 286 220
479 2 2 0 16 154 309 343
480 2 2 0 16 59 60 249
481 2 2 0 16 152 204 342
482 2 2 0 16 130 223 349
483 2 2 0 16 93 226 287
484 2 2 0 16 178 298 223
485 2 2 0 16 143 302 207
486 2 2 0 16 63 370 201
487 2 2 0 16 93 287 94
488 2 2 0 16 40 214 347
489 2 2 0 16 151 264 275
490 2 2 0 16 157 275 264
491 2 2 0 16 19 20 232
492 2 2 0 16 37 38 276
493 2 2 0 16 110 231 279
494 2 2 0 16 140 212 255
495 2 2 0 16 147 279 231
496 2 2 0 16 95 241 96
497 2 2 0 16 112 322 319
498 2 2 0 16 154 291 255
499 2 2 0 16 53 306 196
500 2 2 0 16 185 293 222
501 2 2 0 16 19 232 257
502 2 2 0 16 33 34 281
503 2 2 0 16 133 249 209
504 2 2 0 16 14 15 230
505 2 2 0 16 181 238 337
506 2 2 0 16 183 346 226
507 2 2 0 16 47 48 303
508 2 2 0 16 22 317 224
509 2 2 0 16 138 296 208
510 2 2 0 16 105 243 106
511 2 2 0 16 33 281 202
512 2 2 0 16 22 23 317
513 2 2 0 16 15 16 261
514 2 2 0 16 137 267 213
515 2 2 0 16 125 202 348
516 2 2 0 16 127 362 214
517 2 2 0 16 161 282 361
518 2 2 0 16 124 199 334
519 2 2 0 16 125 348 211
520 2 2 0 16 41 42 311
521 2 2 0 16 3 341 60
522 2 2 0 16 128 358 250
523 2 2 0 16 53 54 306
524 2 2 0 16 155 268 247
525 2 2 0 16 125 343 202
526 2 2 0 16 60 341 249
527 2 2 0 16 116 265 255
528 2 2 0 16 27 28 310
529 2 2 0 16 160 258 285
530 2 2 0 16 149 285 258
531 2 2 0 16 148 222 293
532 2 2 0 16 62 63 369
533 2 2 0 16 106 301 107
534 2 2 0 16 160 211 348
535 2 2 0 16 96 321 97
536 2 2 0 16 112 319 200
537 2 2 0 16 140 205 310
538 2 2 0 16 118 327 203
539 2 2 0 16 18 19 257
540 2 2 0 16 123 323 204
541 2 2 0 16 150 284 363
542 2 2 0 16 17 18 259
543 2 2 0 16 141 206 376
544 2 2 0 16 141 213 294
545 2 2 0 16 16 17 260
546 2 2 0 16 155 247 278
547 2 2 0 16 18 257 259
548 2 2 0 16 11 353 83
549 2 2 0 16 172 327 251
550 2 2 0 16 17 259 260
551 2 2 0 16 83 262 84
552 2 2 0 16 117 278 247
553 2 2 0 16 109 201 370
554 2 2 0 16 83 353 262
555 2 2 0 16 10 86 329
556 2 2 0 16 136 287 226
557 2 2 0 16 209 249 341
558 2 2 0 16 132 361 203
559 2 2 0 16 150 363 316
560 2 2 0 16 146 204 323
561 2 2 0 16 27 310 205
562 2 2 0 16 62 369 209
563 2 2 0 16 118 251 327
564 2 2 0 16 144 248 305
565 2 2 0 16 109 364 201
566 2 2 0 16 73 74 366
567 2 2 0 16 3 61 341
568 2 2 0 16 116 255 291
569 2 2 0 16 119 371 290
570 2 2 0 16 118 245 307
571 2 2 0 16 114 354 219
572 2 2 0 16 1 13 337
573 2 2 0 16 165 301 359
574 2 2 0 16 164 307 245
575 2 2 0 16 111 345 268
576 2 2 0 16 29 30 315
577 2 2 0 16 28 253 310
578 2 2 0 16 148 211 332
579 2 2 0 16 56 57 286
580 2 2 0 16 1 337 75
581 2 2 0 16 140 315 212
582 2 2 0 16 48 215 303
583 2 2 0 16 70 71 283
584 2 2 0 16 61 209 341
585 2 2 0 16 115 332 211
586 2 2 0 16 15 261 230
587 2 2 0 16 185 342 291
588 2 2 0 16 57 220 286
589 2 2 0 16 114 227 354
590 2 2 0 16 100 280 101
591 2 2 0 16 118 307 251
592 2 2 0 16 116 291 342
593 2 2 0 16 141 376 213
594 2 2 0 16 138 288 224
595 2 2 0 16 10 223 298
596 2 2 0 16 164 215 375
597 2 2 0 16 41 311 214
598 2 2 0 16 139 247 268
599 2 2 0 16 5 109 370
600 2 2 0 16 121 274 277
601 2 2 0 16 155 278 277
602 2 2 0 16 120 246 357
603 2 2 0 16 159 244 346
604 2 2 0 16 49 375 215
605 2 2 0 16 174 357 246
606 2 2 0 16 144 277 278
607 2 2 0 16 30 212 315
608 2 2 0 16 142 219 350
609 2 2 0 16 141 294 221
610 2 2 0 16 73 366 275
611 2 2 0 16 147 269 279
612 2 2 0 16 29 315 253
613 2 2 0 16 143 317 225
614 2 2 0 16 137 213 376
615 2 2 0 16 114 219 335
616 2 2 0 16 131 368 221
617 2 2 0 16 143 225 302
618 2 2 0 16 168 250 358
619 2 2 0 16 11 250 353
620 2 2 0 16 143 224 317
621 2 2 0 16 155 277 274
622 2 2 0 16 101 280 233
623 2 2 0 16 99 373 100
624 2 2 0 16 152 279 269
625 2 2 0 16 159 329 244
626 2 2 0 16 129 318 289
627 2 2 0 16 161 216 322
628 2 2 0 16 177 289 318
629 2 2 0 16 72 73 355
630 2 2 0 16 131 221 313
631 2 2 0 16 161 338 216
632 2 2 0 16 8 97 325
633 2 2 0 16 135 220 359
634 2 2 0 16 80 295 81
635 2 2 0 16 136 346 244
636 2 2 0 16 126 350 219
637 2 2 0 16 114 335 228
638 2 2 0 16 144 304 248
639 2 2 0 16 108 364 109
640 2 2 0 16 190 360 229
641 2 2 0 16 35 36 297
642 2 2 0 16 127 217 362
643 2 2 0 16 142 335 219
644 2 2 0 16 23 225 317
645 2 2 0 16 49 50 375
646 2 2 0 16 25 26 308
647 2 2 0 16 110 340 231
648 2 2 0 16 31 32 309
649 2 2 0 16 150 320 234
650 2 2 0 16 145 352 218
651 2 2 0 16 8 234 320
652 2 2 0 16 182 307 326
653 2 2 0 16 156 256 290
654 2 2 0 16 163 290 256
655 2 2 0 16 164 326 307
656 2 2 0 16 43 44 328
657 2 2 0 16 155 356 268
658 2 2 0 16 9 89 312
659 2 2 0 16 141 221 368
660 2 2 0 16 168 353 250
661 2 2 0 16 190 332 330
662 2 2 0 16 45 46 333
663 2 2 0 16 8 325 234
664 2 2 0 16 7 367 90
665 2 2 0 16 7 68 367
666 2 2 0 16 74 238 366
667 2 2 0 16 115 330 332
668 2 2 0 16 99 248 373
669 2 2 0 16 138 239 296
670 2 2 0 16 133 237 372
671 2 2 0 16 165 372 237
672 2 2 0 16 86 244 329
673 2 2 0 16 39 40 347
674 2 2 0 16 149 258 297
675 2 2 0 16 161 252 338
676 2 2 0 16 154 343 291
677 2 2 0 16 128 227 331
678 2 2 0 16 140 253 315
679 2 2 0 16 144 278 304
680 2 2 0 16 117 338 252
681 2 2 0 16 167 354 227
682 2 2 0 16 136 226 346
683 2 2 0 16 106 243 301
684 2 2 0 16 151 366 238
685 2 2 0 16 117 304 278
686 2 2 0 16 35 297 258
687 2 2 0 16 128 331 234
688 2 2 0 16 140 310 253
689 2 2 0 16 142 231 340
690 2 2 0 16 163 256 347
691 2 2 0 16 169 248 304
692 2 2 0 16 179 229 360
693 2 2 0 16 39 347 256
694 2 2 0 16 162 236 328
695 2 2 0 16 172 251 313
696 2 2 0 16 43 328 236
697 2 2 0 16 180 321 314
698 2 2 0 16 131 313 251
699 2 2 0 16 150 234 331
700 2 2 0 16 96 241 321
701 2 2 0 16 162 333 240
702 2 2 0 16 5 370 63
703 2 2 0 16 121 336 274
704 2 2 0 16 108 237 364
705 2 2 0 16 202 281 348
706 2 2 0 16 46 240 333
707 2 2 0 16 176 274 336
708 2 2 0 16 75 337 238
709 2 2 0 16 139 268 345
710 2 2 0 16 162 240 344
711 2 2 0 16 174 236 357
712 2 2 0 16 197 276 324
713 2 2 0 16 89 264 312
714 2 2 0 16 139 345 271
715 2 2 0 16 176 300 339
716 2 2 0 16 151 312 264
717 2 2 0 16 161 361 252
718 2 2 0 16 132 252 361
719 2 2 0 16 73 275 355
720 2 2 0 16 168 358 314
721 2 2 0 16 180 314 358
722 2 2 0 16 112 282 322
723 2 2 0 16 122 300 351
724 2 2 0 16 169 373 248
725 2 2 0 16 161 322 282
726 2 2 0 16 111 268 356
727 2 2 0 16 120 357 344
728 2 2 0 16 166 371 271
729 2 2 0 16 176 351 300
730 2 2 0 16 119 271 371
731 2 2 0 16 100 373 280
732 2 2 0 16 124 324 272
733 2 2 0 16 156 272 324
734 2 2 0 16 169 280 373
735 2 2 0 16 156 324 276
736 2 2 0 16 166 271 345
737 2 2 0 16 157 270 355
738 2 2 0 16 157 264 365
739 2 2 0 16 157 365 266
740 2 2 0 16 72 355 270
741 2 2 0 16 50 326 375
742 2 2 0 16 160 348 281
743 2 2 0 16 44 299 328
744 2 2 0 16 157 355 275
745 2 2 0 16 45 333 299
746 2 2 0 16 150 316 320
747 2 2 0 16 151 275 366
748 2 2 0 16 155 274 356
749 2 2 0 16 166 272 371
750 2 2 0 16 188 320 316
751 2 2 0 16 162 299 333
752 2 2 0 16 162 328 299
753 2 2 0 16 173 363 284
754 2 2 0 16 145 296 352
755 2 2 0 16 158 339 300
756 2 2 0 16 173 351 336
757 2 2 0 16 176 336 351
758 2 2 0 16 121 316 363
759 2 2 0 16 173 336 363
760 2 2 0 16 121 363 336
761 2 2 0 16 164 375 326
762 2 2 0 18 403 108 109
763 2 2 0 18 90 91 402
764 2 2 0 18 410 108 403
765 2 2 0 18 402 91 409
766 2 2 0 18 389 406 413
767 2 2 0 18 384 389 413
768 2 2 0 18 381 404 387
769 2 2 0 18 380 395 390
770 2 2 0 18 92 387 409
771 2 2 0 18 107 410 388
772 2 2 0 18 379 390 395
773 2 2 0 18 92 400 387
774 2 2 0 18 107 388 399
775 2 2 0 18 381 387 400
776 2 2 0 18 377 408 401
777 2 2 0 18 387 404 421
778 2 2 0 18 7 90 402
779 2 2 0 18 5 403 109
780 2 2 0 18 99 100 390
781 2 2 0 18 382 411 393
782 2 2 0 18 393 411 404
783 2 2 0 18 7 402 67
784 2 2 0 18 5 64 403
785 2 2 0 18 385 401 408
786 2 2 0 18 65 66 389
787 2 2 0 18 107 108 410
788 2 2 0 18 91 92 409
789 2 2 0 18 380 390 416
790 2 2 0 18 95 96 392
791 2 2 0 18 99 390 412
792 2 2 0 18 380 416 391
793 2 2 0 18 383 409 421
794 2 2 0 18 382 399 411
795 2 2 0 18 388 411 399
796 2 2 0 18 377 405 407
797 2 2 0 18 98 412 394
798 2 2 0 18 377 401 395
799 2 2 0 18 103 104 396
800 2 2 0 18 387 421 409
801 2 2 0 18 381 398 408
802 2 2 0 18 382 407 397
803 2 2 0 18 385 408 398
804 2 2 0 18 386 397 407
805 2 2 0 18 98 99 412
806 2 2 0 18 92 93 400
807 2 2 0 18 106 107 399
808 2 2 0 18 105 106 397
809 2 2 0 18 93 94 398
810 2 2 0 18 95 392 420
811 2 2 0 18 386 407 405
812 2 2 0 18 383 406 389
813 2 2 0 18 383 389 414
814 2 2 0 18 384 415 389
815 2 2 0 18 379 412 390
816 2 2 0 18 385 420 392
817 2 2 0 18 379 392 418
818 2 2 0 18 383 402 409
819 2 2 0 18 384 410 403
820 2 2 0 18 106 399 397
821 2 2 0 18 93 398 400
822 2 2 0 18 102 417 391
823 2 2 0 18 379 418 394
824 2 2 0 18 66 414 389
825 2 2 0 18 65 389 415
826 2 2 0 18 386 405 396
827 2 2 0 18 380 391 417
828 2 2 0 18 380 396 405
829 2 2 0 18 377 395 405
830 2 2 0 18 100 416 390
831 2 2 0 18 378 421 404
832 2 2 0 18 385 392 401
833 2 2 0 18 102 103 417
834 2 2 0 18 388 410 413
835 2 2 0 18 101 391 416
836 2 2 0 18 97 394 418
837 2 2 0 18 379 401 392
838 2 2 0 18 384 413 410
839 2 2 0 18 379 394 412
840 2 2 0 18 380 417 396
841 2 2 0 18 382 393 407
842 2 2 0 18 381 408 393
843 2 2 0 18 381 393 404
844 2 2 0 18 377 407 393
845 2 2 0 18 377 393 408
846 2 2 0 18 379 395 401
847 2 2 0 18 96 97 418
848 2 2 0 18 104 419 396
849 2 2 0 18 386 396 419
850 2 2 0 18 378 413 406
851 2 2 0 18 100 101 416
852 2 2 0 18 382 397 399
853 2 2 0 18 381 400 398
854 2 2 0 18 380 405 395
855 2 2 0 18 102 391 422
856 2 2 0 18 96 418 392
857 2 2 0 18 103 396 417
858 2 2 0 18 64 65 415
859 2 2 0 18 66 67 414
860 2 2 0 18 378 404 411
861 2 2 0 18 378 411 413
862 2 2 0 18 388 413 411
863 2 2 0 18 97 423 394
864 2 2 0 18 101 422 391
865 2 2 0 18 383 421 406
866 2 2 0 18 6 422 101
867 2 2 0 18 8 98 423
868 2 2 0 18 98 394 423
869 2 2 0 18 67 402 414
870 2 2 0 18 64 415 403
871 2 2 0 18 386 419 397
872 2 2 0 18 105 397 419
873 2 2 0 18 94 420 398
874 2 2 0 18 385 398 420
875 2 2 0 18 104 105 419
876 2 2 0 18 94 95 420
877 2 2 0 18 8 423 97
878 2 2 0 18 6 102 422
879 2 2 0 18 383 414 402
880 2 2 0 18 384 403 415
881 2 2 0 18 378 406 421
882 2 2 0 19 88 431 428
883 2 2 0 19 88 89 431
884 2 2 0 19 84 85 426
885 2 2 0 19 438 425 433
886 2 2 0 19 87 88 428
887 2 2 0 19 77 78 427
888 2 2 0 19 81 82 429
889 2 2 0 19 427 438 433
890 2 2 0 19 425 428 431
891 2 2 0 19 438 432 425
892 2 2 0 19 424 441 429
893 2 2 0 19 84 426 434
894 2 2 0 19 424 430 441
895 2 2 0 19 85 86 432
896 2 2 0 19 424 434 426
897 2 2 0 19 426 432 438
898 2 2 0 19 85 432 426
899 2 2 0 19 77 427 433
900 2 2 0 19 79 430 435
901 2 2 0 19 86 436 432
902 2 2 0 19 424 427 435
903 2 2 0 19 80 441 430
904 2 2 0 19 424 426 438
905 2 2 0 19 424 438 427
906 2 2 0 19 425 432 428
907 2 2 0 19 431 439 433
908 2 2 0 19 78 79 435
909 2 2 0 19 83 84 434
910 2 2 0 19 428 432 436
911 2 2 0 19 76 433 439
912 2 2 0 19 76 77 433
913 2 2 0 19 425 431 433
914 2 2 0 19 10 436 86
915 2 2 0 19 78 435 427
916 2 2 0 19 11 83 437
917 2 2 0 19 12 440 79
918 2 2 0 19 80 430 440
919 2 2 0 19 424 429 434
920 2 2 0 19 424 435 430
921 2 2 0 19 9 76 439
922 2 2 0 19 80 81 441
923 2 2 0 19 83 434 437
924 2 2 0 19 10 87 436
925 2 2 0 19 81 429 441
926 2 2 0 19 11 437 82
927 2 2 0 19 429 437 434
928 2 2 0 19 87 428 436
929 2 2 0 19 82 437 429
930 2 2 0 19 89 439 431
931 2 2 0 19 9 439 89
932 2 2 0 19 79 440 430
933 2 2 0 19 12 80 440
$EndElements
